Microdata API Requests • ipumsr
…
The values listed in the name column correspond to the
code that you would use to request that sample when creating an extract
definition to be submitted to the IPUMS API.

We can use basic functions from dplyr to filter the metadata to
samples of interest. For instance, to find all IPUMS International
samples for Mexico, we could do the following:

ipumsi_samps <- get_sample_info("ipumsi")

ipumsi_samps %>% 
  filter(grepl("Mexico", description))
#> # A tibble: 70 × 2
#>    name    description       
#>    <chr>   <chr>             
#>  1 mx1960a Mexico 1960       
#>  2 mx1970a Mexico 1970       
#>  3 mx1990a Mexico 1990       
#>  4 mx1995a Mexico 1995       
#>  5 mx2000a Mexico 2000       
#>  6 mx2005a Mexico 2005       
#>  7 mx2010a Mexico 2010       
#>  8 mx2015a Mexico 2015       
#>  9 mx2005h Mexico 2005 Q1 LFS
#> 10 mx2005i Mexico 2005 Q2 LFS
#> # ℹ 60 more rows
…
