Big IPUMS Data • ipumsr
…
# Subset only those in "Poor" health
chunked_subset <- read_ipums_micro_chunked(
  cps_ddi_file,
  data_file = cps_data_file,
  callback = IpumsDataFrameCallback$new(
    function(x, pos) {
      filter(x, HEALTH == 5)
    }
  ),
  chunk_size = 1000,
  verbose = FALSE
)

chunked_subset
#> # A tibble: 6,198 × 14
#>     YEAR SERIAL HWTSUPP   CPSID ASECFLAG  FOODSTMP MONTH   PERNUM  CPSIDP WTSUPP
#>    <dbl>  <dbl>   <dbl>   <dbl> <int+lbl> <int+lb> <int+l>  <dbl>   <dbl>  <dbl>
#>  1  2011      7    475. 2.01e13 1 [ASEC]  1 [No]   3 [Mar…      2 2.01e13   519.
#>  2  2011      9    254. 2.01e13 1 [ASEC]  2 [Yes]  3 [Mar…      1 2.01e13   254.
#>  3  2011     12    527. 2.01e13 1 [ASEC]  1 [No]   3 [Mar…      2 2.01e13   527.
#>  4  2011     14    533. 2.01e13 1 [ASEC]  1 [No]   3 [Mar…      1 2.01e13   533.
#>  5  2011     46    266. 2.01e13 1 [ASEC]  1 [No]   3 [Mar…      2 2.01e13   266.
#>  6  2011     47    531. 2.01e13 1 [ASEC]  1 [No]   3 [Mar…      1 2.01e13   531.
#>  7  2011     55    609. 2.01e13 1 [ASEC]  1 [No]   3 [Mar…      2 2.01e13   543.
#>  8  2011    105    523. 2.01e13 1 [ASEC]  1 [No]   3 [Mar…      2 2.01e13   523.
#>  9  2011    235    576. 2.01e13 1 [ASEC]  1 [No]   3 [Mar…      1 2.01e13   576.
#> 10  2011    255    265. 2.01e13 1 [ASEC]  2 [Yes]  3 [Mar…      2 2.01e13   265.
#> # … with 6,188 more rows, and 4 more variables: AGE <int+lbl>,
#> #   EMPSTAT <int+lbl>, AHRSWORKT <dbl+lbl>, HEALTH <int+lbl>
…
