http_interactions:
- request:
    method: get
    uri: https://api.ipums.org/extracts/47?collection=usa&version=2
    body:
      encoding: ''
      string: ''
    headers:
      Accept: application/json, text/xml, application/xml, */*
      Authorization: <<<IPUMS_API_KEY>>>
      Content-Type: application/json
  response:
    status:
      status_code: 200
      category: Success
      reason: OK
      message: 'Success: (200) OK'
    headers:
      cache-control: max-age=0, private, must-revalidate
      content-type: application/json; charset=utf-8
      date: Fri, 22 Nov 2024 19:54:25 GMT
      etag: W/"cbbd1aef14a1ff8ad5afc546fe649cce"
      referrer-policy: strict-origin-when-cross-origin
      server: nginx/1.22.1
      vary: Origin
      x-content-type-options: nosniff
      x-frame-options: SAMEORIGIN
      x-permitted-cross-domain-policies: none
      x-ratelimit-limit: '-1'
      x-ratelimit-remaining: '0'
      x-ratelimit-reset: '0'
      x-request-id: bfcd4b21-11f3-49fc-85e8-385d466081c5
      x-runtime: '0.545174'
      x-xss-protection: '0'
      content-length: '534'
    body:
      encoding: ''
      file: no
      string: '{"number":47,"status":"completed","email":"robe2037@umn.edu","downloadLinks":{},"extractDefinition":{"version":2,"dataStructure":{"rectangular":{"on":"P"}},"dataFormat":"fixed_width","caseSelectWho":"individuals","description":"Test
        extract","samples":{"us2017b":{}},"variables":{"YEAR":{"preselected":true},"SAMPLE":{"preselected":true},"SERIAL":{"preselected":true},"CBSERIAL":{"preselected":true},"HHWT":{"preselected":true},"GQ":{"preselected":true},"PERNUM":{"preselected":true},"PERWT":{"preselected":true}},"collection":"usa"}}'
  recorded_at: 2024-11-22 19:54:30 GMT
  recorded_with: vcr/1.2.2, webmockr/0.9.0
- request:
    method: get
    uri: https://api.ipums.org/extracts/47?collection=usa&version=2
    body:
      encoding: ''
      string: ''
    headers:
      Accept: application/json, text/xml, application/xml, */*
      Authorization: <<<IPUMS_API_KEY>>>
      Content-Type: application/json
  response:
    status:
      status_code: 200
      category: Success
      reason: OK
      message: 'Success: (200) OK'
    headers:
      cache-control: max-age=0, private, must-revalidate
      content-type: application/json; charset=utf-8
      date: Fri, 22 Nov 2024 19:54:26 GMT
      etag: W/"cbbd1aef14a1ff8ad5afc546fe649cce"
      referrer-policy: strict-origin-when-cross-origin
      server: nginx/1.22.1
      vary: Origin
      x-content-type-options: nosniff
      x-frame-options: SAMEORIGIN
      x-permitted-cross-domain-policies: none
      x-ratelimit-limit: '-1'
      x-ratelimit-remaining: '0'
      x-ratelimit-reset: '0'
      x-request-id: 67fa0afe-0544-41d6-ad11-1b4fd2a128b8
      x-runtime: '0.482008'
      x-xss-protection: '0'
      content-length: '534'
    body:
      encoding: ''
      file: no
      string: '{"number":47,"status":"completed","email":"robe2037@umn.edu","downloadLinks":{},"extractDefinition":{"version":2,"dataStructure":{"rectangular":{"on":"P"}},"dataFormat":"fixed_width","caseSelectWho":"individuals","description":"Test
        extract","samples":{"us2017b":{}},"variables":{"YEAR":{"preselected":true},"SAMPLE":{"preselected":true},"SERIAL":{"preselected":true},"CBSERIAL":{"preselected":true},"HHWT":{"preselected":true},"GQ":{"preselected":true},"PERNUM":{"preselected":true},"PERWT":{"preselected":true}},"collection":"usa"}}'
  recorded_at: 2024-11-22 19:54:30 GMT
  recorded_with: vcr/1.2.2, webmockr/0.9.0
- request:
    method: get
    uri: https://api.ipums.org/extracts?collection=usa&version=2&pageNumber=1&pageSize=3
    body:
      encoding: ''
      string: ''
    headers:
      Accept: application/json, text/xml, application/xml, */*
      Authorization: <<<IPUMS_API_KEY>>>
  response:
    status:
      status_code: 200
      category: Success
      reason: OK
      message: 'Success: (200) OK'
    headers:
      cache-control: max-age=0, private, must-revalidate
      content-type: application/json; charset=utf-8
      date: Fri, 22 Nov 2024 19:54:27 GMT
      etag: W/"b2dc32909e8caafcc13ce7795308a7f5"
      referrer-policy: strict-origin-when-cross-origin
      server: nginx/1.22.1
      vary: Origin
      x-content-type-options: nosniff
      x-frame-options: SAMEORIGIN
      x-permitted-cross-domain-policies: none
      x-ratelimit-limit: '-1'
      x-ratelimit-remaining: '0'
      x-ratelimit-reset: '0'
      x-request-id: 8e348c4d-5d47-4b04-a25e-2cee02dc6e8c
      x-runtime: '0.524531'
      x-xss-protection: '0'
      content-length: '5996'
    body:
      encoding: ''
      file: no
      string: '{"data":[{"number":456,"status":"completed","email":"robe2037@umn.edu","downloadLinks":{"rCommandFile":{"url":"https://api.ipums.org/downloads/usa/api/v1/extracts/2408480/usa_00456.R","bytes":406,"sha256":"a8aaec4454d2877af4aac7013211a258adbbbe5e028675ae3df8e47a45dd6479"},"basicCodebook":{"url":"https://api.ipums.org/downloads/usa/api/v1/extracts/2408480/usa_00456.cbk","bytes":26764,"sha256":"52c9cf4f9dbf4beb5ef9d2fe78cb6eb0896b4c5fd772426fa9c115a745bdf7e5"},"data":{"url":"https://api.ipums.org/downloads/usa/api/v1/extracts/2408480/usa_00456.dat.gz","bytes":83827940,"sha256":"f0f4812bc067578f66fce9ff05f0cb0c13227021fb1856ee4beacd3ce59b35ee"},"stataCommandFile":{"url":"https://api.ipums.org/downloads/usa/api/v1/extracts/2408480/usa_00456.do","bytes":37005,"sha256":"12c99a8939184e0a986e71a3fa62768481be26c6128bb21490b88b9ed6e8b130"},"sasCommandFile":{"url":"https://api.ipums.org/downloads/usa/api/v1/extracts/2408480/usa_00456.sas","bytes":19570,"sha256":"79281006c2f46e4e3781481b037e44c69d9c6562390c6b1bd04853d0abe67550"},"spssCommandFile":{"url":"https://api.ipums.org/downloads/usa/api/v1/extracts/2408480/usa_00456.sps","bytes":20252,"sha256":"347f9c91cdb09fcb7d371e31198a9c255eb4fc23493712cd28a7d4fa0a4d6ce4"},"ddiCodebook":{"url":"https://api.ipums.org/downloads/usa/api/v1/extracts/2408480/usa_00456.xml","bytes":85072,"sha256":"dc961fe17442eb0758f0c29e6ec1999ae8bf3bffe36594a1ab783c677a31f5bd"}},"extractDefinition":{"version":2,"dataStructure":{"rectangular":{"on":"P"}},"dataFormat":"fixed_width","caseSelectWho":"individuals","description":"USA
        extract for API vignette","samples":{"us2018a":{},"us2019a":{}},"variables":{"YEAR":{"preselected":true},"SAMPLE":{"preselected":true},"SERIAL":{"preselected":true},"CBSERIAL":{"preselected":true},"HHWT":{"preselected":true},"CLUSTER":{"preselected":true},"STATEFIP":{},"STRATA":{"preselected":true},"GQ":{"preselected":true},"PERNUM":{"preselected":true},"PERWT":{"preselected":true},"SEX":{},"AGE":{},"MARST":{},"RACE":{}},"collection":"usa"}},{"number":455,"status":"completed","email":"robe2037@umn.edu","downloadLinks":{"rCommandFile":{"url":"https://api.ipums.org/downloads/usa/api/v1/extracts/2408479/usa_00455.R","bytes":406,"sha256":"2ccb629f1172b793a66baf75022d016449ac1db76869aea8402b2ab15b43a3ee"},"basicCodebook":{"url":"https://api.ipums.org/downloads/usa/api/v1/extracts/2408479/usa_00455.cbk","bytes":11738,"sha256":"54d7c750a794d730e2b2ca4204c05958d591ffbea1dd70a4bf53df971dd8e7bd"},"data":{"url":"https://api.ipums.org/downloads/usa/api/v1/extracts/2408479/usa_00455.dat.gz","bytes":3209104,"sha256":"c7a8da1619c7269962b8b7f26c3d11680f8a8d5447d64c94cd02bb383be0f42e"},"stataCommandFile":{"url":"https://api.ipums.org/downloads/usa/api/v1/extracts/2408479/usa_00455.do","bytes":17390,"sha256":"2a6b2767fd30cd36806671478527b24fe31de10a206ecc5222c033172c24a817"},"sasCommandFile":{"url":"https://api.ipums.org/downloads/usa/api/v1/extracts/2408479/usa_00455.sas","bytes":8804,"sha256":"7817b8d754a15cb341d536d9543693d4423df8b9e2504f929d3061539e786170"},"spssCommandFile":{"url":"https://api.ipums.org/downloads/usa/api/v1/extracts/2408479/usa_00455.sps","bytes":9014,"sha256":"a8cbfa443ca4b70357f64f3606d2647bc36d6e047c9477e101d9f06f0d785a89"},"ddiCodebook":{"url":"https://api.ipums.org/downloads/usa/api/v1/extracts/2408479/usa_00455.xml","bytes":47139,"sha256":"b8210a19de730898097a49e84fa83d5fe00abd763d571ca212abd7a739d5685b"}},"extractDefinition":{"version":2,"dataStructure":{"rectangular":{"on":"P"}},"dataFormat":"fixed_width","caseSelectWho":"individuals","description":"Data
        from long ago","samples":{"us1880a":{}},"variables":{"YEAR":{"preselected":true},"SAMPLE":{"preselected":true},"SERIAL":{"preselected":true},"HHWT":{"preselected":true},"CLUSTER":{"preselected":true},"STRATA":{"preselected":true},"GQ":{"preselected":true},"PERNUM":{"preselected":true},"PERWT":{"preselected":true},"SEX":{},"AGE":{},"LABFORCE":{}},"collection":"usa"}},{"number":454,"status":"completed","email":"robe2037@umn.edu","downloadLinks":{"rCommandFile":{"url":"https://api.ipums.org/downloads/usa/api/v1/extracts/2408478/usa_00454.R","bytes":406,"sha256":"df380796f916a0c6431fe2b54fb6b47bf4a121ce31f5bfc285830322f3fdae0c"},"basicCodebook":{"url":"https://api.ipums.org/downloads/usa/api/v1/extracts/2408478/usa_00454.cbk","bytes":20370,"sha256":"2b9e51ba073276a419060370bf7b421073bc04d7d93a3a45878f25ff7330ea3c"},"data":{"url":"https://api.ipums.org/downloads/usa/api/v1/extracts/2408478/usa_00454.dat.gz","bytes":175728,"sha256":"798c1eda1fc45665c310b2c5183cb0f47155fb9f9da06ffa483e76c49295d42f"},"stataCommandFile":{"url":"https://api.ipums.org/downloads/usa/api/v1/extracts/2408478/usa_00454.do","bytes":27571,"sha256":"755e590a0ffd4ea5febdf674836127c940bff321281cb8a079dc5efc6ad23b70"},"sasCommandFile":{"url":"https://api.ipums.org/downloads/usa/api/v1/extracts/2408478/usa_00454.sas","bytes":15582,"sha256":"dd8dcef70dc0c672d32e71d52418303cf3df0839d25089259ffd799ee468b17d"},"spssCommandFile":{"url":"https://api.ipums.org/downloads/usa/api/v1/extracts/2408478/usa_00454.sps","bytes":15991,"sha256":"67082aae9acc68eb5c51b008a6d01847392f55d061e795edf94da36978a8438e"},"ddiCodebook":{"url":"https://api.ipums.org/downloads/usa/api/v1/extracts/2408478/usa_00454.xml","bytes":64000,"sha256":"98f537cd349d7e26a624e654407c5fd968502d63e0008b4c9730456b7e08b4f3"}},"extractDefinition":{"version":2,"dataStructure":{"rectangular":{"on":"P"}},"dataFormat":"fixed_width","caseSelectWho":"individuals","description":"Data
        from 2017 PRCS","samples":{"us2017b":{}},"variables":{"YEAR":{"preselected":true},"SAMPLE":{"preselected":true},"SERIAL":{"preselected":true},"CBSERIAL":{"preselected":true},"HHWT":{"preselected":true},"GQ":{"preselected":true},"PERNUM":{"preselected":true},"PERWT":{"preselected":true},"RACE":{}},"collection":"usa"}}],"totalCount":456,"pageNumber":1,"pageSize":3,"links":{"previousPage":null,"nextPage":"https://api.ipums.org/extracts/?collection=usa\u0026pageNumber=2\u0026pageSize=3\u0026version=2"}}'
  recorded_at: 2024-11-22 19:54:30 GMT
  recorded_with: vcr/1.2.2, webmockr/0.9.0
- request:
    method: get
    uri: https://api.ipums.org/extracts?collection=usa&version=2&pageNumber=1&pageSize=1
    body:
      encoding: ''
      string: ''
    headers:
      Accept: application/json, text/xml, application/xml, */*
      Authorization: <<<IPUMS_API_KEY>>>
  response:
    status:
      status_code: 200
      category: Success
      reason: OK
      message: 'Success: (200) OK'
    headers:
      cache-control: max-age=0, private, must-revalidate
      content-type: application/json; charset=utf-8
      date: Fri, 22 Nov 2024 19:54:28 GMT
      etag: W/"0f5b6b28aa66edb77234d3c34a6cd1cd"
      referrer-policy: strict-origin-when-cross-origin
      server: nginx/1.22.1
      vary: Origin
      x-content-type-options: nosniff
      x-frame-options: SAMEORIGIN
      x-permitted-cross-domain-policies: none
      x-ratelimit-limit: '-1'
      x-ratelimit-remaining: '0'
      x-ratelimit-reset: '0'
      x-request-id: d8076799-8443-489b-9184-50b9457a0f63
      x-runtime: '0.552999'
      x-xss-protection: '0'
      content-length: '2197'
    body:
      encoding: ''
      file: no
      string: '{"data":[{"number":456,"status":"completed","email":"robe2037@umn.edu","downloadLinks":{"rCommandFile":{"url":"https://api.ipums.org/downloads/usa/api/v1/extracts/2408480/usa_00456.R","bytes":406,"sha256":"a8aaec4454d2877af4aac7013211a258adbbbe5e028675ae3df8e47a45dd6479"},"basicCodebook":{"url":"https://api.ipums.org/downloads/usa/api/v1/extracts/2408480/usa_00456.cbk","bytes":26764,"sha256":"52c9cf4f9dbf4beb5ef9d2fe78cb6eb0896b4c5fd772426fa9c115a745bdf7e5"},"data":{"url":"https://api.ipums.org/downloads/usa/api/v1/extracts/2408480/usa_00456.dat.gz","bytes":83827940,"sha256":"f0f4812bc067578f66fce9ff05f0cb0c13227021fb1856ee4beacd3ce59b35ee"},"stataCommandFile":{"url":"https://api.ipums.org/downloads/usa/api/v1/extracts/2408480/usa_00456.do","bytes":37005,"sha256":"12c99a8939184e0a986e71a3fa62768481be26c6128bb21490b88b9ed6e8b130"},"sasCommandFile":{"url":"https://api.ipums.org/downloads/usa/api/v1/extracts/2408480/usa_00456.sas","bytes":19570,"sha256":"79281006c2f46e4e3781481b037e44c69d9c6562390c6b1bd04853d0abe67550"},"spssCommandFile":{"url":"https://api.ipums.org/downloads/usa/api/v1/extracts/2408480/usa_00456.sps","bytes":20252,"sha256":"347f9c91cdb09fcb7d371e31198a9c255eb4fc23493712cd28a7d4fa0a4d6ce4"},"ddiCodebook":{"url":"https://api.ipums.org/downloads/usa/api/v1/extracts/2408480/usa_00456.xml","bytes":85072,"sha256":"dc961fe17442eb0758f0c29e6ec1999ae8bf3bffe36594a1ab783c677a31f5bd"}},"extractDefinition":{"version":2,"dataStructure":{"rectangular":{"on":"P"}},"dataFormat":"fixed_width","caseSelectWho":"individuals","description":"USA
        extract for API vignette","samples":{"us2018a":{},"us2019a":{}},"variables":{"YEAR":{"preselected":true},"SAMPLE":{"preselected":true},"SERIAL":{"preselected":true},"CBSERIAL":{"preselected":true},"HHWT":{"preselected":true},"CLUSTER":{"preselected":true},"STATEFIP":{},"STRATA":{"preselected":true},"GQ":{"preselected":true},"PERNUM":{"preselected":true},"PERWT":{"preselected":true},"SEX":{},"AGE":{},"MARST":{},"RACE":{}},"collection":"usa"}}],"totalCount":456,"pageNumber":1,"pageSize":1,"links":{"previousPage":null,"nextPage":"https://api.ipums.org/extracts/?collection=usa\u0026pageNumber=2\u0026pageSize=1\u0026version=2"}}'
  recorded_at: 2024-11-22 19:54:30 GMT
  recorded_with: vcr/1.2.2, webmockr/0.9.0
- request:
    method: get
    uri: https://api.ipums.org/extracts/10?collection=usa&version=2
    body:
      encoding: ''
      string: ''
    headers:
      Accept: application/json, text/xml, application/xml, */*
      Authorization: <<<IPUMS_API_KEY>>>
      Content-Type: application/json
  response:
    status:
      status_code: 200
      category: Success
      reason: OK
      message: 'Success: (200) OK'
    headers:
      cache-control: max-age=0, private, must-revalidate
      content-type: application/json; charset=utf-8
      date: Fri, 22 Nov 2024 19:54:29 GMT
      etag: W/"1db45bf8975a84ee79c334820a6ec442"
      referrer-policy: strict-origin-when-cross-origin
      server: nginx/1.22.1
      vary: Origin
      x-content-type-options: nosniff
      x-frame-options: SAMEORIGIN
      x-permitted-cross-domain-policies: none
      x-ratelimit-limit: '-1'
      x-ratelimit-remaining: '0'
      x-ratelimit-reset: '0'
      x-request-id: 6b60afc4-385d-4118-9f80-497a96bcb0cc
      x-runtime: '0.510525'
      x-xss-protection: '0'
      content-length: '632'
    body:
      encoding: ''
      file: no
      string: '{"number":10,"status":"completed","email":"robe2037@umn.edu","downloadLinks":{},"extractDefinition":{"version":2,"dataStructure":{"rectangular":{"on":"P"}},"dataFormat":"fixed_width","caseSelectWho":"individuals","description":"testing","samples":{"us2019a":{}},"variables":{"YEAR":{"preselected":true},"SAMPLE":{"preselected":true},"SERIAL":{"preselected":true},"CBSERIAL":{"preselected":true},"HHWT":{"preselected":true},"CLUSTER":{"preselected":true},"STATEFIP":{},"STRATA":{"preselected":true},"GQ":{"preselected":true},"PERNUM":{"preselected":true},"PERWT":{"preselected":true},"SEX":{},"AGE":{},"RACE":{}},"collection":"usa"}}'
  recorded_at: 2024-11-22 19:54:30 GMT
  recorded_with: vcr/1.2.2, webmockr/0.9.0
- request:
    method: get
    uri: https://api.ipums.org/extracts/10?collection=cps&version=2
    body:
      encoding: ''
      string: ''
    headers:
      Accept: application/json, text/xml, application/xml, */*
      Authorization: <<<IPUMS_API_KEY>>>
      Content-Type: application/json
  response:
    status:
      status_code: 200
      category: Success
      reason: OK
      message: 'Success: (200) OK'
    headers:
      cache-control: max-age=0, private, must-revalidate
      content-type: application/json; charset=utf-8
      date: Fri, 22 Nov 2024 19:54:30 GMT
      etag: W/"c6daa64ecfce64c03f8d2d5ed10d5b90"
      referrer-policy: strict-origin-when-cross-origin
      server: nginx/1.22.1
      vary: Origin
      x-content-type-options: nosniff
      x-frame-options: SAMEORIGIN
      x-permitted-cross-domain-policies: none
      x-ratelimit-limit: '-1'
      x-ratelimit-remaining: '0'
      x-ratelimit-reset: '0'
      x-request-id: 8eafdde1-1b02-445e-86f5-ed17b6dc9f93
      x-runtime: '0.505814'
      x-xss-protection: '0'
      content-length: '605'
    body:
      encoding: ''
      file: no
      string: '{"number":10,"status":"completed","email":"robe2037@umn.edu","downloadLinks":{},"extractDefinition":{"version":2,"dataStructure":{"rectangular":{"on":"P"}},"dataFormat":"fixed_width","caseSelectWho":"individuals","description":"Compare
        age-sex-race breakdowns 1976","samples":{"cps1976_01s":{},"cps1976_02b":{}},"variables":{"YEAR":{"preselected":true},"SERIAL":{"preselected":true},"MONTH":{"preselected":true},"CPSID":{"preselected":true},"MISH":{},"PERNUM":{"preselected":true},"WTFINL":{"preselected":true},"CPSIDP":{"preselected":true},"UH_SEX_B1":{},"AGE":{},"SEX":{},"RACE":{}},"collection":"cps"}}'
  recorded_at: 2024-11-22 19:54:30 GMT
  recorded_with: vcr/1.2.2, webmockr/0.9.0
