http_interactions:
- request:
    method: get
    uri: https://api.ipums.org/extracts/?collection=usa&version=2&pageNumber=1&pageSize=10
    body:
      encoding: ''
      string: ''
    headers:
      Accept: application/json, text/xml, application/xml, */*
      Authorization: <<<IPUMS_API_KEY>>>
  response:
    status:
      status_code: 200
      category: Success
      reason: OK
      message: 'Success: (200) OK'
    headers:
      cache-control: max-age=0, private, must-revalidate
      content-type: application/json; charset=utf-8
      date: Mon, 17 Jul 2023 19:36:42 GMT
      etag: W/"7ae3699f3d0e0a3e7fe8a87e48f32247"
      referrer-policy: strict-origin-when-cross-origin
      server: nginx/1.18.0
      vary: Origin
      x-content-type-options: nosniff
      x-download-options: noopen
      x-frame-options: SAMEORIGIN
      x-permitted-cross-domain-policies: none
      x-ratelimit-limit: '-1'
      x-ratelimit-remaining: '0'
      x-ratelimit-reset: '0'
      x-request-id: 6fbf954b-09a3-424f-ba3a-e0b5c778e985
      x-runtime: '0.784766'
      x-xss-protection: '0'
      content-length: '19730'
    body:
      encoding: ''
      file: no
      string: '{"data":[{"number":328,"status":"completed","email":"robe2037@umn.edu","downloadLinks":{"rCommandFile":{"url":"https://api.ipums.org/downloads/usa/api/v1/extracts/2061574/usa_00328.R","bytes":406,"sha256":"7fc529e22ec8c21a31dd6241671c73fa91ccabaa96a44af1ebfd542195d65e32"},"basicCodebook":{"url":"https://api.ipums.org/downloads/usa/api/v1/extracts/2061574/usa_00328.cbk","bytes":25356,"sha256":"92ee5376d84f04d2bac25949753aeb698ec01eb648c573061a9e6ed7a79f8197"},"data":{"url":"https://api.ipums.org/downloads/usa/api/v1/extracts/2061574/usa_00328.dat.gz","bytes":83827507,"sha256":"9ac6f484e0f9cc62aec1d3a87c92ac74cc0a518747d6814ea2b6292ade3f8bcf"},"stataCommandFile":{"url":"https://api.ipums.org/downloads/usa/api/v1/extracts/2061574/usa_00328.do","bytes":34951,"sha256":"20f153a1de0b31394a164f38df7107388a06152bee969fba9ff5a4587d3693c4"},"sasCommandFile":{"url":"https://api.ipums.org/downloads/usa/api/v1/extracts/2061574/usa_00328.sas","bytes":18543,"sha256":"c40671875f99b2dcb0ee396739a12e2e4d97383567f3b6d0c47aa4f0d39e0531"},"spssCommandFile":{"url":"https://api.ipums.org/downloads/usa/api/v1/extracts/2061574/usa_00328.sps","bytes":19145,"sha256":"7982029c31328f578c9f871f8e284a70a3be4186c53d870ad1e06a04f2895993"},"ddiCodebook":{"url":"https://api.ipums.org/downloads/usa/api/v1/extracts/2061574/usa_00328.xml","bytes":92152,"sha256":"5d0fd63eba56803df7527123b2438d4464207d0bd0917cc49561f77c16733c0d"}},"extractDefinition":{"version":2,"dataStructure":{"rectangular":{"on":"P"}},"dataFormat":"fixed_width","caseSelectWho":"individuals","description":"USA
        extract for API vignette","samples":{"us2018a":{},"us2019a":{}},"variables":{"YEAR":{"preselected":true},"SAMPLE":{"preselected":true},"SERIAL":{"preselected":true},"CBSERIAL":{"preselected":true},"HHWT":{"preselected":true},"CLUSTER":{"preselected":true},"STATEFIP":{},"STRATA":{"preselected":true},"GQ":{"preselected":true},"PERNUM":{"preselected":true},"PERWT":{"preselected":true},"SEX":{},"AGE":{},"MARST":{},"RACE":{}},"collection":"usa"}},{"number":327,"status":"completed","email":"robe2037@umn.edu","downloadLinks":{"rCommandFile":{"url":"https://api.ipums.org/downloads/usa/api/v1/extracts/2061573/usa_00327.R","bytes":406,"sha256":"ea62fe9522fbe30d330a1faec5c2c1fe3ec0de4bdc875a30caa183644a962fb1"},"basicCodebook":{"url":"https://api.ipums.org/downloads/usa/api/v1/extracts/2061573/usa_00327.cbk","bytes":11153,"sha256":"90828c66841a76ace4227175982c11cbbc69d52d771672aea8a58a8d4031721d"},"data":{"url":"https://api.ipums.org/downloads/usa/api/v1/extracts/2061573/usa_00327.dat.gz","bytes":3209103,"sha256":"2ee242f750f995f8e4dcac0cfd8246a5bf98dc13ef95f866a7bdbced009cd941"},"stataCommandFile":{"url":"https://api.ipums.org/downloads/usa/api/v1/extracts/2061573/usa_00327.do","bytes":16492,"sha256":"3ea2cd54ca9e08129570438b8da4771155c1f3121d5a0afcf8275a7512895bf5"},"sasCommandFile":{"url":"https://api.ipums.org/downloads/usa/api/v1/extracts/2061573/usa_00327.sas","bytes":8390,"sha256":"2ab28de9c24686e4baa3126e77dc3fb2778ead768f44f6f2b2edc8bb38149cb6"},"spssCommandFile":{"url":"https://api.ipums.org/downloads/usa/api/v1/extracts/2061573/usa_00327.sps","bytes":8562,"sha256":"e0b9dca184698e7ff5858c5f35fc248347da3de96ca75540b8b6795b57708d00"},"ddiCodebook":{"url":"https://api.ipums.org/downloads/usa/api/v1/extracts/2061573/usa_00327.xml","bytes":51077,"sha256":"f86cdead801226f7ccf661ce9fe707af9eae6db38372fa38470891d7e3e2941f"}},"extractDefinition":{"version":2,"dataStructure":{"rectangular":{"on":"P"}},"dataFormat":"fixed_width","caseSelectWho":"individuals","description":"Data
        from long ago","samples":{"us1880a":{}},"variables":{"YEAR":{"preselected":true},"SAMPLE":{"preselected":true},"SERIAL":{"preselected":true},"HHWT":{"preselected":true},"CLUSTER":{"preselected":true},"STRATA":{"preselected":true},"GQ":{"preselected":true},"PERNUM":{"preselected":true},"PERWT":{"preselected":true},"SEX":{},"AGE":{},"LABFORCE":{}},"collection":"usa"}},{"number":326,"status":"completed","email":"robe2037@umn.edu","downloadLinks":{"rCommandFile":{"url":"https://api.ipums.org/downloads/usa/api/v1/extracts/2061572/usa_00326.R","bytes":406,"sha256":"a1a4b784f3cc594ba1d7eb8ed3372a4ab401b57f26a13b1b5d62215cde1cd632"},"basicCodebook":{"url":"https://api.ipums.org/downloads/usa/api/v1/extracts/2061572/usa_00326.cbk","bytes":19227,"sha256":"7e61ef3ff2308ffae5d71b770686765096a5931fc36e95a594ee298263e95c03"},"data":{"url":"https://api.ipums.org/downloads/usa/api/v1/extracts/2061572/usa_00326.dat.gz","bytes":175728,"sha256":"1115d3d277dc02a1ae225be739630164e699e7a24f20fdfc49eef026e9670434"},"stataCommandFile":{"url":"https://api.ipums.org/downloads/usa/api/v1/extracts/2061572/usa_00326.do","bytes":25920,"sha256":"7a3088145e57ab2784de7d9ad4048828832a562f49b19b682e0e3d1e0815990e"},"sasCommandFile":{"url":"https://api.ipums.org/downloads/usa/api/v1/extracts/2061572/usa_00326.sas","bytes":14716,"sha256":"827f5a723372819965d51b9d70c7b31105f6d504c7818518e4559b4692c674b1"},"spssCommandFile":{"url":"https://api.ipums.org/downloads/usa/api/v1/extracts/2061572/usa_00326.sps","bytes":15065,"sha256":"d7628a802606e0a8da49586791b9aefd05585c72d16891765d022389f17342a4"},"ddiCodebook":{"url":"https://api.ipums.org/downloads/usa/api/v1/extracts/2061572/usa_00326.xml","bytes":68435,"sha256":"a8f06d6cf85f5bba1f5b65a62fa86dba7def58f3235c25f15c79ecae61eadb4e"}},"extractDefinition":{"version":2,"dataStructure":{"rectangular":{"on":"P"}},"dataFormat":"fixed_width","caseSelectWho":"individuals","description":"Data
        from 2017 PRCS","samples":{"us2017b":{}},"variables":{"YEAR":{"preselected":true},"SAMPLE":{"preselected":true},"SERIAL":{"preselected":true},"CBSERIAL":{"preselected":true},"HHWT":{"preselected":true},"GQ":{"preselected":true},"PERNUM":{"preselected":true},"PERWT":{"preselected":true},"RACE":{}},"collection":"usa"}},{"number":325,"status":"completed","email":"robe2037@umn.edu","downloadLinks":{"rCommandFile":{"url":"https://api.ipums.org/downloads/usa/api/v1/extracts/2061570/usa_00325.R","bytes":406,"sha256":"0943a9ae8c9e9a2584ec4e6def04bcaec676f4eb229970c74816f4d6d1fd53ba"},"basicCodebook":{"url":"https://api.ipums.org/downloads/usa/api/v1/extracts/2061570/usa_00325.cbk","bytes":19227,"sha256":"7e61ef3ff2308ffae5d71b770686765096a5931fc36e95a594ee298263e95c03"},"data":{"url":"https://api.ipums.org/downloads/usa/api/v1/extracts/2061570/usa_00325.dat.gz","bytes":175728,"sha256":"1115d3d277dc02a1ae225be739630164e699e7a24f20fdfc49eef026e9670434"},"stataCommandFile":{"url":"https://api.ipums.org/downloads/usa/api/v1/extracts/2061570/usa_00325.do","bytes":25920,"sha256":"03f645aeb98c0ecb10545157924f061da9f07dde2e01fbea8d416d9ce3c06ebd"},"sasCommandFile":{"url":"https://api.ipums.org/downloads/usa/api/v1/extracts/2061570/usa_00325.sas","bytes":14716,"sha256":"b1f5fd09207a0c606bdc4e24c28d3b9b942afdcf667a466d8e78b2abcb2eee0f"},"spssCommandFile":{"url":"https://api.ipums.org/downloads/usa/api/v1/extracts/2061570/usa_00325.sps","bytes":15065,"sha256":"e0507deade0e1d1dac7e844b1c0b9c031e88027eed4c2c781dda56c5df4d92d9"},"ddiCodebook":{"url":"https://api.ipums.org/downloads/usa/api/v1/extracts/2061570/usa_00325.xml","bytes":68435,"sha256":"189da647d47d9d537d5dc2c8022326131d076763dbf5932ea49a43db979ca055"}},"extractDefinition":{"version":2,"dataStructure":{"rectangular":{"on":"P"}},"dataFormat":"fixed_width","caseSelectWho":"individuals","description":"Data
        from 2017 PRCS","samples":{"us2017b":{}},"variables":{"YEAR":{"preselected":true},"SAMPLE":{"preselected":true},"SERIAL":{"preselected":true},"CBSERIAL":{"preselected":true},"HHWT":{"preselected":true},"GQ":{"preselected":true},"PERNUM":{"preselected":true},"PERWT":{"preselected":true},"RACE":{}},"collection":"usa"}},{"number":324,"status":"completed","email":"robe2037@umn.edu","downloadLinks":{"rCommandFile":{"url":"https://api.ipums.org/downloads/usa/api/v1/extracts/2061565/usa_00324.R","bytes":406,"sha256":"8c613a16314b594327d4d95fd7c1865e273d5f4bf6e162d9ddecb976616af90d"},"basicCodebook":{"url":"https://api.ipums.org/downloads/usa/api/v1/extracts/2061565/usa_00324.cbk","bytes":25356,"sha256":"92ee5376d84f04d2bac25949753aeb698ec01eb648c573061a9e6ed7a79f8197"},"data":{"url":"https://api.ipums.org/downloads/usa/api/v1/extracts/2061565/usa_00324.dat.gz","bytes":83827507,"sha256":"9ac6f484e0f9cc62aec1d3a87c92ac74cc0a518747d6814ea2b6292ade3f8bcf"},"stataCommandFile":{"url":"https://api.ipums.org/downloads/usa/api/v1/extracts/2061565/usa_00324.do","bytes":34951,"sha256":"8c6e77cb656ba4e9b427249754501e61eab87b029aa9b55a06aaa77caedcdd8a"},"sasCommandFile":{"url":"https://api.ipums.org/downloads/usa/api/v1/extracts/2061565/usa_00324.sas","bytes":18543,"sha256":"94ab1b1ae370b3a486818cfd2b248e1894e1dceaf38847fc0e577a7fcd1543c9"},"spssCommandFile":{"url":"https://api.ipums.org/downloads/usa/api/v1/extracts/2061565/usa_00324.sps","bytes":19145,"sha256":"20b23d0b6d9999082af28002c90529a0f9f4736f624e442cd91b66bb8194d0a0"},"ddiCodebook":{"url":"https://api.ipums.org/downloads/usa/api/v1/extracts/2061565/usa_00324.xml","bytes":92152,"sha256":"207d0cb068a31d23030e52757347a3fdfd3e5aff062c81702ff8cf8d1151f6a3"}},"extractDefinition":{"version":2,"dataStructure":{"rectangular":{"on":"P"}},"dataFormat":"fixed_width","caseSelectWho":"individuals","description":"USA
        extract for API vignette","samples":{"us2018a":{},"us2019a":{}},"variables":{"YEAR":{"preselected":true},"SAMPLE":{"preselected":true},"SERIAL":{"preselected":true},"CBSERIAL":{"preselected":true},"HHWT":{"preselected":true},"CLUSTER":{"preselected":true},"STATEFIP":{},"STRATA":{"preselected":true},"GQ":{"preselected":true},"PERNUM":{"preselected":true},"PERWT":{"preselected":true},"SEX":{},"AGE":{},"MARST":{},"RACE":{}},"collection":"usa"}},{"number":323,"status":"completed","email":"robe2037@umn.edu","downloadLinks":{"rCommandFile":{"url":"https://api.ipums.org/downloads/usa/api/v1/extracts/2061564/usa_00323.R","bytes":406,"sha256":"f914cb8dbfdb8e6229d71e1c059033bc35692be91dc9651c3187c75d6b0d500b"},"basicCodebook":{"url":"https://api.ipums.org/downloads/usa/api/v1/extracts/2061564/usa_00323.cbk","bytes":19227,"sha256":"7e61ef3ff2308ffae5d71b770686765096a5931fc36e95a594ee298263e95c03"},"data":{"url":"https://api.ipums.org/downloads/usa/api/v1/extracts/2061564/usa_00323.dat.gz","bytes":175728,"sha256":"1115d3d277dc02a1ae225be739630164e699e7a24f20fdfc49eef026e9670434"},"stataCommandFile":{"url":"https://api.ipums.org/downloads/usa/api/v1/extracts/2061564/usa_00323.do","bytes":25920,"sha256":"44f2d51bf95addc5f7da438ca4855b7e7e638939479c7df0acf08adcfb396636"},"sasCommandFile":{"url":"https://api.ipums.org/downloads/usa/api/v1/extracts/2061564/usa_00323.sas","bytes":14716,"sha256":"c9f99c4b999ccc1896614bd67df50145dd65da96a86026b32e0fbb5afe1e7fd7"},"spssCommandFile":{"url":"https://api.ipums.org/downloads/usa/api/v1/extracts/2061564/usa_00323.sps","bytes":15065,"sha256":"37067881c7f23ee56bfa9cd4f0fb3f2c54a630fd442a6ca3e26be1db131b3815"},"ddiCodebook":{"url":"https://api.ipums.org/downloads/usa/api/v1/extracts/2061564/usa_00323.xml","bytes":68435,"sha256":"30ca1f47900c8d1243ee05ee7bba91348e5b9b3e341da0b47a23eda81db2e31a"}},"extractDefinition":{"version":2,"dataStructure":{"rectangular":{"on":"P"}},"dataFormat":"fixed_width","caseSelectWho":"individuals","description":"Data
        from 2017 PRCS","samples":{"us2017b":{}},"variables":{"YEAR":{"preselected":true},"SAMPLE":{"preselected":true},"SERIAL":{"preselected":true},"CBSERIAL":{"preselected":true},"HHWT":{"preselected":true},"GQ":{"preselected":true},"PERNUM":{"preselected":true},"PERWT":{"preselected":true},"RACE":{}},"collection":"usa"}},{"number":322,"status":"completed","email":"robe2037@umn.edu","downloadLinks":{"rCommandFile":{"url":"https://api.ipums.org/downloads/usa/api/v1/extracts/2061558/usa_00322.R","bytes":406,"sha256":"1db564dc84bcc30e86f3959277cb38dab57c7ebb166231a8288f8c8c3c623436"},"basicCodebook":{"url":"https://api.ipums.org/downloads/usa/api/v1/extracts/2061558/usa_00322.cbk","bytes":25356,"sha256":"92ee5376d84f04d2bac25949753aeb698ec01eb648c573061a9e6ed7a79f8197"},"data":{"url":"https://api.ipums.org/downloads/usa/api/v1/extracts/2061558/usa_00322.dat.gz","bytes":83827507,"sha256":"9ac6f484e0f9cc62aec1d3a87c92ac74cc0a518747d6814ea2b6292ade3f8bcf"},"stataCommandFile":{"url":"https://api.ipums.org/downloads/usa/api/v1/extracts/2061558/usa_00322.do","bytes":34951,"sha256":"a37b7503860e0b514a290860a0fe457094282ea3e8e7fdc4ae7f3502575fe859"},"sasCommandFile":{"url":"https://api.ipums.org/downloads/usa/api/v1/extracts/2061558/usa_00322.sas","bytes":18543,"sha256":"a69024cfeb6af537ce5cb04c6800ab0c28314383e3457b39e3e8e3f3bbd0ee22"},"spssCommandFile":{"url":"https://api.ipums.org/downloads/usa/api/v1/extracts/2061558/usa_00322.sps","bytes":19145,"sha256":"23998d085080f105e183102af38e92e115c58ed6fc86e8939d127d581def6194"},"ddiCodebook":{"url":"https://api.ipums.org/downloads/usa/api/v1/extracts/2061558/usa_00322.xml","bytes":92152,"sha256":"5e39172ba43ad4fcc0c2faf1ce242b086e35edfcadf521a73b8abbaec40a374a"}},"extractDefinition":{"version":2,"dataStructure":{"rectangular":{"on":"P"}},"dataFormat":"fixed_width","caseSelectWho":"individuals","description":"USA
        extract for API vignette","samples":{"us2018a":{},"us2019a":{}},"variables":{"YEAR":{"preselected":true},"SAMPLE":{"preselected":true},"SERIAL":{"preselected":true},"CBSERIAL":{"preselected":true},"HHWT":{"preselected":true},"CLUSTER":{"preselected":true},"STATEFIP":{},"STRATA":{"preselected":true},"GQ":{"preselected":true},"PERNUM":{"preselected":true},"PERWT":{"preselected":true},"SEX":{},"AGE":{},"MARST":{},"RACE":{}},"collection":"usa"}},{"number":321,"status":"completed","email":"robe2037@umn.edu","downloadLinks":{"rCommandFile":{"url":"https://api.ipums.org/downloads/usa/api/v1/extracts/2061557/usa_00321.R","bytes":406,"sha256":"45c83b34988c6b2878f19407399c48070ff9b758c2c1c5d3c536b96b07dc36c9"},"basicCodebook":{"url":"https://api.ipums.org/downloads/usa/api/v1/extracts/2061557/usa_00321.cbk","bytes":19227,"sha256":"7e61ef3ff2308ffae5d71b770686765096a5931fc36e95a594ee298263e95c03"},"data":{"url":"https://api.ipums.org/downloads/usa/api/v1/extracts/2061557/usa_00321.dat.gz","bytes":175728,"sha256":"1115d3d277dc02a1ae225be739630164e699e7a24f20fdfc49eef026e9670434"},"stataCommandFile":{"url":"https://api.ipums.org/downloads/usa/api/v1/extracts/2061557/usa_00321.do","bytes":25920,"sha256":"92cd1630a2ca7ca3455fd17e290b23a71fda4a526b846bd1a0207e6c0e06de71"},"sasCommandFile":{"url":"https://api.ipums.org/downloads/usa/api/v1/extracts/2061557/usa_00321.sas","bytes":14716,"sha256":"69e4c03ae7671c4aa761e28384009a06840d70548ab5ce09f55340d7f27a74ab"},"spssCommandFile":{"url":"https://api.ipums.org/downloads/usa/api/v1/extracts/2061557/usa_00321.sps","bytes":15065,"sha256":"388d0f246af31032d353873d7f3ace291f7248a4eb4fb0f129733b710b6b4d12"},"ddiCodebook":{"url":"https://api.ipums.org/downloads/usa/api/v1/extracts/2061557/usa_00321.xml","bytes":68435,"sha256":"ece83aebbd076fe645ccd9be2cf840a1b50df23e5194251d348f17dcca050426"}},"extractDefinition":{"version":2,"dataStructure":{"rectangular":{"on":"P"}},"dataFormat":"fixed_width","caseSelectWho":"individuals","description":"Data
        from 2017 PRCS","samples":{"us2017b":{}},"variables":{"YEAR":{"preselected":true},"SAMPLE":{"preselected":true},"SERIAL":{"preselected":true},"CBSERIAL":{"preselected":true},"HHWT":{"preselected":true},"GQ":{"preselected":true},"PERNUM":{"preselected":true},"PERWT":{"preselected":true},"RACE":{}},"collection":"usa"}},{"number":320,"status":"completed","email":"robe2037@umn.edu","downloadLinks":{"rCommandFile":{"url":"https://api.ipums.org/downloads/usa/api/v1/extracts/2061547/usa_00320.R","bytes":406,"sha256":"71881be3419681bec87c9d5d063825356d96af0543b81335c56c18b0e6d85220"},"basicCodebook":{"url":"https://api.ipums.org/downloads/usa/api/v1/extracts/2061547/usa_00320.cbk","bytes":25192,"sha256":"fced98801a611c078cf264bca6be6ec3ea7322f39be3e5d1fc9677b2fb0b2d64"},"data":{"url":"https://api.ipums.org/downloads/usa/api/v1/extracts/2061547/usa_00320.dat.gz","bytes":462984845,"sha256":"10fa023793b4b00c40ede7e284e5b66f8c333cfa4dc731ad63b7e8372516bdb8"},"stataCommandFile":{"url":"https://api.ipums.org/downloads/usa/api/v1/extracts/2061547/usa_00320.do","bytes":31262,"sha256":"2e60c26b6f192b4941a5400007e446ba160af2758789eddaea6057e130f794fe"},"sasCommandFile":{"url":"https://api.ipums.org/downloads/usa/api/v1/extracts/2061547/usa_00320.sas","bytes":17534,"sha256":"91feebe64488cb305ed7bbabc8af1fded0e3ccf5394f1d8e08d8f5502871b5e8"},"spssCommandFile":{"url":"https://api.ipums.org/downloads/usa/api/v1/extracts/2061547/usa_00320.sps","bytes":17929,"sha256":"a864eb2d67d6f56631e3a5e43cef442da53dcc91c72b86c8cfbf42c2f552cf28"},"ddiCodebook":{"url":"https://api.ipums.org/downloads/usa/api/v1/extracts/2061547/usa_00320.xml","bytes":87155,"sha256":"6436003cb1f902042cb1593bf7f8a2ca886c250d26b588e075cc9253a1141ffd"}},"extractDefinition":{"version":2,"dataStructure":{"rectangular":{"on":"P"}},"dataFormat":"fixed_width","caseSelectWho":"individuals","description":"Revision
        of (Revision of (Revision of (Testing unsupported API v2 features)))","samples":{"us2017a":{},"us2017c":{},"us2018a":{},"us2018c":{},"us2019a":{},"us2019c":{}},"variables":{"YEAR":{"preselected":true},"MULTYEAR":{"preselected":true},"SAMPLE":{"preselected":true},"SERIAL":{"preselected":true},"CBSERIAL":{"preselected":true},"HHWT":{"preselected":true},"CLUSTER":{"preselected":true},"REGION":{},"STATEFIP":{},"STRATA":{"preselected":true},"GQ":{"preselected":true},"PERNUM":{"preselected":true},"PERWT":{"preselected":true},"RACE":{"dataQualityFlags":true}},"collection":"usa"}},{"number":319,"status":"completed","email":"robe2037@umn.edu","downloadLinks":{"rCommandFile":{"url":"https://api.ipums.org/downloads/usa/api/v1/extracts/2061523/usa_00319.R","bytes":406,"sha256":"602878a651a4f8eaadd0e648a89b5ea8f9bb06196298094c0440841fb37617a9"},"basicCodebook":{"url":"https://api.ipums.org/downloads/usa/api/v1/extracts/2061523/usa_00319.cbk","bytes":24868,"sha256":"0e5535a53b02bc41c424c4cd3322434ff091c11dbca8ac413aade8c9451dcfcf"},"data":{"url":"https://api.ipums.org/downloads/usa/api/v1/extracts/2061523/usa_00319.dat.gz","bytes":41161382,"sha256":"ab7408dbdcfd6bccfa9776d22a7c9355c195916068d488ddafc3cbbfeeccf5da"},"stataCommandFile":{"url":"https://api.ipums.org/downloads/usa/api/v1/extracts/2061523/usa_00319.do","bytes":34558,"sha256":"7c8be67049b3ea131d41ce667cd40fdfbba4a8c772a6ebecec2fde758d3c530c"},"sasCommandFile":{"url":"https://api.ipums.org/downloads/usa/api/v1/extracts/2061523/usa_00319.sas","bytes":18313,"sha256":"a915636d4374afcec91d7f558144215521ef26cfe472d2c5f13427128800a24b"},"spssCommandFile":{"url":"https://api.ipums.org/downloads/usa/api/v1/extracts/2061523/usa_00319.sps","bytes":18932,"sha256":"f2163df39ab4b86af8060db2f634e6484cb04a51f4867e20e414de882f0d6a15"},"ddiCodebook":{"url":"https://api.ipums.org/downloads/usa/api/v1/extracts/2061523/usa_00319.xml","bytes":90911,"sha256":"333f5bad62e843c1a9eba56fdf22e65ecc1d3363bd07f572e69d6521aab04816"}},"extractDefinition":{"version":2,"dataStructure":{"rectangular":{"on":"P"}},"dataFormat":"fixed_width","caseSelectWho":"individuals","description":"testing","samples":{"us2019a":{}},"variables":{"YEAR":{"preselected":true},"SAMPLE":{"preselected":true},"SERIAL":{"preselected":true},"CBSERIAL":{"preselected":true},"HHWT":{"preselected":true},"CLUSTER":{"preselected":true},"STATEFIP":{},"STRATA":{"preselected":true},"GQ":{"preselected":true},"PERNUM":{"preselected":true},"PERWT":{"preselected":true},"SEX":{},"AGE":{},"RACE":{}},"collection":"usa"}}],"totalCount":328,"pageNumber":1,"pageSize":10,"links":{"previousPage":null,"nextPage":"https://api.ipums.org/extracts/?collection=usa\u0026pageNumber=2\u0026pageSize=10\u0026version=2"}}'
  recorded_at: 2023-07-17 19:36:43 GMT
  recorded_with: vcr/1.2.0, webmockr/0.9.0
- request:
    method: get
    uri: https://api.ipums.org/extracts/?collection=usa&version=2&pageNumber=1&pageSize=3
    body:
      encoding: ''
      string: ''
    headers:
      Accept: application/json, text/xml, application/xml, */*
      Authorization: <<<IPUMS_API_KEY>>>
  response:
    status:
      status_code: 200
      category: Success
      reason: OK
      message: 'Success: (200) OK'
    headers:
      cache-control: max-age=0, private, must-revalidate
      content-type: application/json; charset=utf-8
      date: Mon, 17 Jul 2023 19:36:43 GMT
      etag: W/"159c83769d45bb5d840f8a78d78645fb"
      referrer-policy: strict-origin-when-cross-origin
      server: nginx/1.18.0
      vary: Origin
      x-content-type-options: nosniff
      x-download-options: noopen
      x-frame-options: SAMEORIGIN
      x-permitted-cross-domain-policies: none
      x-ratelimit-limit: '-1'
      x-ratelimit-remaining: '0'
      x-ratelimit-reset: '0'
      x-request-id: c2cede35-9eeb-447c-aee5-f03ddba7f182
      x-runtime: '0.756530'
      x-xss-protection: '0'
      content-length: '5996'
    body:
      encoding: ''
      file: no
      string: '{"data":[{"number":328,"status":"completed","email":"robe2037@umn.edu","downloadLinks":{"rCommandFile":{"url":"https://api.ipums.org/downloads/usa/api/v1/extracts/2061574/usa_00328.R","bytes":406,"sha256":"7fc529e22ec8c21a31dd6241671c73fa91ccabaa96a44af1ebfd542195d65e32"},"basicCodebook":{"url":"https://api.ipums.org/downloads/usa/api/v1/extracts/2061574/usa_00328.cbk","bytes":25356,"sha256":"92ee5376d84f04d2bac25949753aeb698ec01eb648c573061a9e6ed7a79f8197"},"data":{"url":"https://api.ipums.org/downloads/usa/api/v1/extracts/2061574/usa_00328.dat.gz","bytes":83827507,"sha256":"9ac6f484e0f9cc62aec1d3a87c92ac74cc0a518747d6814ea2b6292ade3f8bcf"},"stataCommandFile":{"url":"https://api.ipums.org/downloads/usa/api/v1/extracts/2061574/usa_00328.do","bytes":34951,"sha256":"20f153a1de0b31394a164f38df7107388a06152bee969fba9ff5a4587d3693c4"},"sasCommandFile":{"url":"https://api.ipums.org/downloads/usa/api/v1/extracts/2061574/usa_00328.sas","bytes":18543,"sha256":"c40671875f99b2dcb0ee396739a12e2e4d97383567f3b6d0c47aa4f0d39e0531"},"spssCommandFile":{"url":"https://api.ipums.org/downloads/usa/api/v1/extracts/2061574/usa_00328.sps","bytes":19145,"sha256":"7982029c31328f578c9f871f8e284a70a3be4186c53d870ad1e06a04f2895993"},"ddiCodebook":{"url":"https://api.ipums.org/downloads/usa/api/v1/extracts/2061574/usa_00328.xml","bytes":92152,"sha256":"5d0fd63eba56803df7527123b2438d4464207d0bd0917cc49561f77c16733c0d"}},"extractDefinition":{"version":2,"dataStructure":{"rectangular":{"on":"P"}},"dataFormat":"fixed_width","caseSelectWho":"individuals","description":"USA
        extract for API vignette","samples":{"us2018a":{},"us2019a":{}},"variables":{"YEAR":{"preselected":true},"SAMPLE":{"preselected":true},"SERIAL":{"preselected":true},"CBSERIAL":{"preselected":true},"HHWT":{"preselected":true},"CLUSTER":{"preselected":true},"STATEFIP":{},"STRATA":{"preselected":true},"GQ":{"preselected":true},"PERNUM":{"preselected":true},"PERWT":{"preselected":true},"SEX":{},"AGE":{},"MARST":{},"RACE":{}},"collection":"usa"}},{"number":327,"status":"completed","email":"robe2037@umn.edu","downloadLinks":{"rCommandFile":{"url":"https://api.ipums.org/downloads/usa/api/v1/extracts/2061573/usa_00327.R","bytes":406,"sha256":"ea62fe9522fbe30d330a1faec5c2c1fe3ec0de4bdc875a30caa183644a962fb1"},"basicCodebook":{"url":"https://api.ipums.org/downloads/usa/api/v1/extracts/2061573/usa_00327.cbk","bytes":11153,"sha256":"90828c66841a76ace4227175982c11cbbc69d52d771672aea8a58a8d4031721d"},"data":{"url":"https://api.ipums.org/downloads/usa/api/v1/extracts/2061573/usa_00327.dat.gz","bytes":3209103,"sha256":"2ee242f750f995f8e4dcac0cfd8246a5bf98dc13ef95f866a7bdbced009cd941"},"stataCommandFile":{"url":"https://api.ipums.org/downloads/usa/api/v1/extracts/2061573/usa_00327.do","bytes":16492,"sha256":"3ea2cd54ca9e08129570438b8da4771155c1f3121d5a0afcf8275a7512895bf5"},"sasCommandFile":{"url":"https://api.ipums.org/downloads/usa/api/v1/extracts/2061573/usa_00327.sas","bytes":8390,"sha256":"2ab28de9c24686e4baa3126e77dc3fb2778ead768f44f6f2b2edc8bb38149cb6"},"spssCommandFile":{"url":"https://api.ipums.org/downloads/usa/api/v1/extracts/2061573/usa_00327.sps","bytes":8562,"sha256":"e0b9dca184698e7ff5858c5f35fc248347da3de96ca75540b8b6795b57708d00"},"ddiCodebook":{"url":"https://api.ipums.org/downloads/usa/api/v1/extracts/2061573/usa_00327.xml","bytes":51077,"sha256":"f86cdead801226f7ccf661ce9fe707af9eae6db38372fa38470891d7e3e2941f"}},"extractDefinition":{"version":2,"dataStructure":{"rectangular":{"on":"P"}},"dataFormat":"fixed_width","caseSelectWho":"individuals","description":"Data
        from long ago","samples":{"us1880a":{}},"variables":{"YEAR":{"preselected":true},"SAMPLE":{"preselected":true},"SERIAL":{"preselected":true},"HHWT":{"preselected":true},"CLUSTER":{"preselected":true},"STRATA":{"preselected":true},"GQ":{"preselected":true},"PERNUM":{"preselected":true},"PERWT":{"preselected":true},"SEX":{},"AGE":{},"LABFORCE":{}},"collection":"usa"}},{"number":326,"status":"completed","email":"robe2037@umn.edu","downloadLinks":{"rCommandFile":{"url":"https://api.ipums.org/downloads/usa/api/v1/extracts/2061572/usa_00326.R","bytes":406,"sha256":"a1a4b784f3cc594ba1d7eb8ed3372a4ab401b57f26a13b1b5d62215cde1cd632"},"basicCodebook":{"url":"https://api.ipums.org/downloads/usa/api/v1/extracts/2061572/usa_00326.cbk","bytes":19227,"sha256":"7e61ef3ff2308ffae5d71b770686765096a5931fc36e95a594ee298263e95c03"},"data":{"url":"https://api.ipums.org/downloads/usa/api/v1/extracts/2061572/usa_00326.dat.gz","bytes":175728,"sha256":"1115d3d277dc02a1ae225be739630164e699e7a24f20fdfc49eef026e9670434"},"stataCommandFile":{"url":"https://api.ipums.org/downloads/usa/api/v1/extracts/2061572/usa_00326.do","bytes":25920,"sha256":"7a3088145e57ab2784de7d9ad4048828832a562f49b19b682e0e3d1e0815990e"},"sasCommandFile":{"url":"https://api.ipums.org/downloads/usa/api/v1/extracts/2061572/usa_00326.sas","bytes":14716,"sha256":"827f5a723372819965d51b9d70c7b31105f6d504c7818518e4559b4692c674b1"},"spssCommandFile":{"url":"https://api.ipums.org/downloads/usa/api/v1/extracts/2061572/usa_00326.sps","bytes":15065,"sha256":"d7628a802606e0a8da49586791b9aefd05585c72d16891765d022389f17342a4"},"ddiCodebook":{"url":"https://api.ipums.org/downloads/usa/api/v1/extracts/2061572/usa_00326.xml","bytes":68435,"sha256":"a8f06d6cf85f5bba1f5b65a62fa86dba7def58f3235c25f15c79ecae61eadb4e"}},"extractDefinition":{"version":2,"dataStructure":{"rectangular":{"on":"P"}},"dataFormat":"fixed_width","caseSelectWho":"individuals","description":"Data
        from 2017 PRCS","samples":{"us2017b":{}},"variables":{"YEAR":{"preselected":true},"SAMPLE":{"preselected":true},"SERIAL":{"preselected":true},"CBSERIAL":{"preselected":true},"HHWT":{"preselected":true},"GQ":{"preselected":true},"PERNUM":{"preselected":true},"PERWT":{"preselected":true},"RACE":{}},"collection":"usa"}}],"totalCount":328,"pageNumber":1,"pageSize":3,"links":{"previousPage":null,"nextPage":"https://api.ipums.org/extracts/?collection=usa\u0026pageNumber=2\u0026pageSize=3\u0026version=2"}}'
  recorded_at: 2023-07-17 19:36:43 GMT
  recorded_with: vcr/1.2.0, webmockr/0.9.0
