http_interactions:
- request:
    method: post
    uri: https://api.ipums.org/extracts?collection=usa&version=2
    body:
      encoding: ''
      string: '{"description":"USA extract for API vignette","dataStructure":{"rectangular":{"on":"P"}},"dataFormat":"fixed_width","sampleMembers":{"includeNonRespondents":false,"includeHouseholdMembers":false},"samples":{"us2018a":{},"us2019a":{}},"variables":{"AGE":{},"SEX":{},"RACE":{},"STATEFIP":{},"MARST":{}},"caseSelectWho":"individuals","collection":"usa","version":2}'
    headers:
      Accept: application/json, text/xml, application/xml, */*
      Authorization: <<<IPUMS_API_KEY>>>
      Content-Type: application/json
  response:
    status:
      status_code: 200
      category: Success
      reason: OK
      message: 'Success: (200) OK'
    headers:
      cache-control: max-age=0, private, must-revalidate
      content-type: application/json; charset=utf-8
      date: Fri, 22 Nov 2024 19:53:08 GMT
      etag: W/"88b34097a5e97d7af1c0a4e0827c8048"
      referrer-policy: strict-origin-when-cross-origin
      server: nginx/1.22.1
      vary: Origin
      x-content-type-options: nosniff
      x-frame-options: SAMEORIGIN
      x-permitted-cross-domain-policies: none
      x-ratelimit-limit: '-1'
      x-ratelimit-remaining: '0'
      x-ratelimit-reset: '0'
      x-request-id: d8d0d43e-6892-465a-a09d-efa9b14d4a0b
      x-runtime: '0.770860'
      x-xss-protection: '0'
      content-length: '675'
    body:
      encoding: ''
      file: no
      string: '{"number":456,"status":"queued","email":"robe2037@umn.edu","downloadLinks":{},"extractDefinition":{"version":2,"dataStructure":{"rectangular":{"on":"P"}},"dataFormat":"fixed_width","caseSelectWho":"individuals","description":"USA
        extract for API vignette","samples":{"us2018a":{},"us2019a":{}},"variables":{"YEAR":{"preselected":true},"SAMPLE":{"preselected":true},"SERIAL":{"preselected":true},"CBSERIAL":{"preselected":true},"HHWT":{"preselected":true},"CLUSTER":{"preselected":true},"STATEFIP":{},"STRATA":{"preselected":true},"GQ":{"preselected":true},"PERNUM":{"preselected":true},"PERWT":{"preselected":true},"SEX":{},"AGE":{},"MARST":{},"RACE":{}},"collection":"usa"}}'
  recorded_at: 2024-11-22 19:53:09 GMT
  recorded_with: vcr/1.2.2, webmockr/0.9.0
- request:
    method: get
    uri: https://api.ipums.org/extracts?collection=usa&version=2&pageNumber=1&pageSize=1
    body:
      encoding: ''
      string: ''
    headers:
      Accept: application/json, text/xml, application/xml, */*
      Authorization: <<<IPUMS_API_KEY>>>
  response:
    status:
      status_code: 200
      category: Success
      reason: OK
      message: 'Success: (200) OK'
    headers:
      cache-control: max-age=0, private, must-revalidate
      content-type: application/json; charset=utf-8
      date: Fri, 22 Nov 2024 19:53:09 GMT
      etag: W/"b3f9ba8eed381c5e593192e4a4011fdd"
      referrer-policy: strict-origin-when-cross-origin
      server: nginx/1.22.1
      vary: Origin
      x-content-type-options: nosniff
      x-frame-options: SAMEORIGIN
      x-permitted-cross-domain-policies: none
      x-ratelimit-limit: '-1'
      x-ratelimit-remaining: '0'
      x-ratelimit-reset: '0'
      x-request-id: b9f4ea13-8f1b-470e-bc0a-ed3f3ab5b51f
      x-runtime: '0.487846'
      x-xss-protection: '0'
      content-length: '998'
    body:
      encoding: ''
      file: no
      string: '{"data":[{"number":456,"status":"started","email":"robe2037@umn.edu","downloadLinks":{"basicCodebook":{"url":"https://api.ipums.org/downloads/usa/api/v1/extracts/2408480/usa_00456.cbk","bytes":26764,"sha256":null}},"extractDefinition":{"version":2,"dataStructure":{"rectangular":{"on":"P"}},"dataFormat":"fixed_width","caseSelectWho":"individuals","description":"USA
        extract for API vignette","samples":{"us2018a":{},"us2019a":{}},"variables":{"YEAR":{"preselected":true},"SAMPLE":{"preselected":true},"SERIAL":{"preselected":true},"CBSERIAL":{"preselected":true},"HHWT":{"preselected":true},"CLUSTER":{"preselected":true},"STATEFIP":{},"STRATA":{"preselected":true},"GQ":{"preselected":true},"PERNUM":{"preselected":true},"PERWT":{"preselected":true},"SEX":{},"AGE":{},"MARST":{},"RACE":{}},"collection":"usa"}}],"totalCount":456,"pageNumber":1,"pageSize":1,"links":{"previousPage":null,"nextPage":"https://api.ipums.org/extracts/?collection=usa\u0026pageNumber=2\u0026pageSize=1\u0026version=2"}}'
  recorded_at: 2024-11-22 19:53:09 GMT
  recorded_with: vcr/1.2.2, webmockr/0.9.0
