IPUMS Data and R • ipumsr
…
You can also get contextual details for specific variables:

ipums_var_desc(cps_data$INCTOT)
#> [1] "INCTOT indicates each respondent's total pre-tax personal income or losses from all sources for the previous calendar year.  Amounts are expressed as they were reported to the interviewer; users must adjust for inflation using Consumer Price Index adjustment factors."
ipums_val_labels(cps_data$STATEFIP)
#> # A tibble: 75 × 2
#>      val lbl                 
#>    <int> <chr>               
#>  1     1 Alabama             
#>  2     2 Alaska              
#>  3     4 Arizona             
#>  4     5 Arkansas            
#>  5     6 California          
#>  6     8 Colorado            
#>  7     9 Connecticut         
#>  8    10 Delaware            
#>  9    11 District of Columbia
#> 10    12 Florida             
#> # ℹ 65 more rows
…
