…
Note that for time series tables, some metadata fields are stored in
list columns, where each entry is itself a data frame:

``` r
tst$years[[1]]
#> # A tibble: 24 × 3
#>    name  description sequence
#>    <chr> <chr>          <int>
#>  1 1790  1790               1
#>  2 1800  1800               2
#>  3 1810  1810               3
#>  4 1820  1820               4
#>  5 1830  1830               5
#>  6 1840  1840               6
#>  7 1850  1850               7
#>  8 1860  1860               8
#>  9 1870  1870              12
#> 10 1880  1880              22
#> # ℹ 14 more rows
…
``` r
cAg_meta <- get_metadata("nhgis", dataset = "1900_cAg")
```

This provides a comprehensive list of the possible specifications for
the input data source. For instance, for the `1900_cAg` dataset, we have
66 tables to choose from, and 3 possible geographic levels:

``` r
cAg_meta$data_tables
#> # A tibble: 66 × 7
#>    name  description       universe nhgis_code sequence dataset_name n_variables
#>    <chr> <chr>             <chr>    <chr>         <int> <chr>              <int>
#>  1 NT1   Total Population  Persons  AWS               1 1900_cAg               1
#>  2 NT2   Number of Farms   Farms    AW3               2 1900_cAg               1
#>  3 NT3   Average Farm Size Farms    AXE               3 1900_cAg               1
#>  4 NT4   Farm Acreage      Farms    AXP               4 1900_cAg              10
#>  5 NT5   Farm Management   Farms    AXZ               5 1900_cAg               3
#>  6 NT6   Race of Farmer    Farms    AYA               6 1900_cAg               2
#>  7 NT7   Race of Farmer b… Farms    AYJ               7 1900_cAg              12
#>  8 NT8   Number of Farms   Farms    AYK               8 1900_cAg               1
#>  9 NT9   Farms with Build… Farms w… AYL               9 1900_cAg               1
#> 10 NT10  Acres of Farmland Farms    AWT              10 1900_cAg               1
#> # ℹ 56 more rows
…
To create an extract definition for an IPUMS aggregate data project, use
[`define_extract_agg()`](https://tech.popdata.org/ipumsr/dev/reference/define_extract_agg.md).
When you define an extract request, you can specify the data to be
included in the extract and indicate the desired format and layout.

### Basic extract definitions

Let’s say we’re interested in getting state-level data on the number of
farms and their average size from the `1900_cAg` dataset that we
identified above. As we can see in the metadata, these data are
contained in tables `NT2` and `NT3`:

``` r
cAg_meta$data_tables
#> # A tibble: 66 × 7
#>    name  description       universe nhgis_code sequence dataset_name n_variables
#>    <chr> <chr>             <chr>    <chr>         <int> <chr>              <int>
#>  1 NT1   Total Population  Persons  AWS               1 1900_cAg               1
#>  2 NT2   Number of Farms   Farms    AW3               2 1900_cAg               1
#>  3 NT3   Average Farm Size Farms    AXE               3 1900_cAg               1
#>  4 NT4   Farm Acreage      Farms    AXP               4 1900_cAg              10
#>  5 NT5   Farm Management   Farms    AXZ               5 1900_cAg               3
#>  6 NT6   Race of Farmer    Farms    AYA               6 1900_cAg               2
#>  7 NT7   Race of Farmer b… Farms    AYJ               7 1900_cAg              12
#>  8 NT8   Number of Farms   Farms    AYK               8 1900_cAg               1
#>  9 NT9   Farms with Build… Farms w… AYL               9 1900_cAg               1
#> 10 NT10  Acres of Farmland Farms    AWT              10 1900_cAg               1
#> # ℹ 56 more rows
```
…
