Value Labels in IPUMS data • ipumsr
…
ipumsr uses the labelled
class from the haven package to handle value labels.

You can see this in the column data types when loading IPUMS data.
Note that <int+lbl> appears below MONTH
and ASECFLAG:

library(ipumsr)

ddi <- read_ipums_ddi(ipums_example("cps_00160.xml"))
cps <- read_ipums_micro(ddi, verbose = FALSE)

cps[, 1:5]
#> # A tibble: 10,883 × 5
#>     YEAR SERIAL MONTH       CPSID ASECFLAG 
#>    <dbl>  <dbl> <int+lbl>   <dbl> <int+lbl>
#>  1  2016  24138 3 [March] 2.02e13 1 [ASEC] 
#>  2  2016  24139 3 [March] 2.02e13 1 [ASEC] 
#>  3  2016  24139 3 [March] 2.02e13 1 [ASEC] 
#>  4  2016  24140 3 [March] 2.02e13 1 [ASEC] 
#>  5  2016  24140 3 [March] 2.02e13 1 [ASEC] 
#>  6  2016  24140 3 [March] 2.02e13 1 [ASEC] 
#>  7  2016  24141 3 [March] 2.02e13 1 [ASEC] 
#>  8  2016  24142 3 [March] 2.02e13 1 [ASEC] 
#>  9  2016  24142 3 [March] 2.02e13 1 [ASEC] 
#> 10  2016  24142 3 [March] 2.02e13 1 [ASEC] 
#> # ℹ 10,873 more rows
…
Remove unused value labels

Some variables may contain labels for values that don’t appear in the
data. Unused levels still appear in factor representations of these
variables, so it is often beneficial to remove them with
lbl_clean():

ipums_val_labels(cps$STATEFIP)
#> # A tibble: 75 × 2
#>      val lbl                 
#>    <int> <chr>               
#>  1     1 Alabama             
#>  2     2 Alaska              
#>  3     4 Arizona             
#>  4     5 Arkansas            
#>  5     6 California          
#>  6     8 Colorado            
#>  7     9 Connecticut         
#>  8    10 Delaware            
#>  9    11 District of Columbia
#> 10    12 Florida             
#> # ℹ 65 more rows
…
