…
# Provide the .zip archive directly to load the data inside:
read_ipums_agg(nhgis_file)
#> Use of data from IPUMS NHGIS is subject to conditions including that users should cite the data appropriately. Use command `ipums_conditions()` for more details.
#> Rows: 71 Columns: 25
#> ── Column specification ────────────────────────────────────────────────────────
#> Delimiter: ","
#> chr  (9): GISJOIN, STUSAB, CMSA, PMSA, PMSAA, AREALAND, AREAWAT, ANPSADPI, F...
#> dbl (13): YEAR, MSA_CMSAA, INTPTLAT, INTPTLNG, PSADC, D6Z001, D6Z002, D6Z003...
#> lgl  (3): DIVISIONA, REGIONA, STATEA
#> 
#> ℹ Use `spec()` to retrieve the full column specification for this data.
#> ℹ Specify the column types or set `show_col_types = FALSE` to quiet this message.
#> # A tibble: 71 × 25
#>    GISJOIN  YEAR STUSAB CMSA  DIVISIONA MSA_CMSAA PMSA      PMSAA REGIONA STATEA
#>    <chr>   <dbl> <chr>  <chr> <lgl>         <dbl> <chr>     <chr> <lgl>   <lgl> 
#>  1 G0080    1990 OH     28    NA             1692 Akron, O… 0080  NA      NA    
#>  2 G0360    1990 CA     49    NA             4472 Anaheim-… 0360  NA      NA    
#>  3 G0440    1990 MI     35    NA             2162 Ann Arbo… 0440  NA      NA    
#>  4 G0620    1990 IL     14    NA             1602 Aurora--… 0620  NA      NA    
#>  5 G0845    1990 PA     78    NA             6282 Beaver C… 0845  NA      NA    
#>  6 G0875    1990 NJ     70    NA             5602 Bergen--… 0875  NA      NA    
#>  7 G1120    1990 MA     07    NA             1122 Boston, … 1120  NA      NA    
#>  8 G1125    1990 CO     34    NA             2082 Boulder-… 1125  NA      NA    
#>  9 G1145    1990 TX     42    NA             3362 Brazoria… 1145  NA      NA    
#> 10 G1160    1990 CT     70    NA             5602 Bridgepo… 1160  NA      NA    
#> # ℹ 61 more rows
#> # ℹ 15 more variables: AREALAND <chr>, AREAWAT <chr>, ANPSADPI <chr>,
#> #   FUNCSTAT <chr>, INTPTLAT <dbl>, INTPTLNG <dbl>, PSADC <dbl>, D6Z001 <dbl>,
#> #   D6Z002 <dbl>, D6Z003 <dbl>, D6Z004 <dbl>, D6Z005 <dbl>, D6Z006 <dbl>,
#> #   D6Z007 <dbl>, D6Z008 <dbl>
…
# Column types are inferred from the data. You can
# manually specify column types with `col_types`. This may be useful for
# geographic codes, which should typically be interpreted as character values
read_ipums_agg(nhgis_file, col_types = list(MSA_CMSAA = "c"), verbose = FALSE)
#> # A tibble: 71 × 25
#>    GISJOIN  YEAR STUSAB CMSA  DIVISIONA MSA_CMSAA PMSA      PMSAA REGIONA STATEA
#>    <chr>   <dbl> <chr>  <chr> <lgl>     <chr>     <chr>     <chr> <lgl>   <lgl> 
#>  1 G0080    1990 OH     28    NA        1692      Akron, O… 0080  NA      NA    
#>  2 G0360    1990 CA     49    NA        4472      Anaheim-… 0360  NA      NA    
#>  3 G0440    1990 MI     35    NA        2162      Ann Arbo… 0440  NA      NA    
#>  4 G0620    1990 IL     14    NA        1602      Aurora--… 0620  NA      NA    
#>  5 G0845    1990 PA     78    NA        6282      Beaver C… 0845  NA      NA    
#>  6 G0875    1990 NJ     70    NA        5602      Bergen--… 0875  NA      NA    
#>  7 G1120    1990 MA     07    NA        1122      Boston, … 1120  NA      NA    
#>  8 G1125    1990 CO     34    NA        2082      Boulder-… 1125  NA      NA    
#>  9 G1145    1990 TX     42    NA        3362      Brazoria… 1145  NA      NA    
#> 10 G1160    1990 CT     70    NA        5602      Bridgepo… 1160  NA      NA    
#> # ℹ 61 more rows
#> # ℹ 15 more variables: AREALAND <chr>, AREAWAT <chr>, ANPSADPI <chr>,
#> #   FUNCSTAT <chr>, INTPTLAT <dbl>, INTPTLNG <dbl>, PSADC <dbl>, D6Z001 <dbl>,
#> #   D6Z002 <dbl>, D6Z003 <dbl>, D6Z004 <dbl>, D6Z005 <dbl>, D6Z006 <dbl>,
#> #   D6Z007 <dbl>, D6Z008 <dbl>
…
