…
[`ipums_list_files()`](https://tech.popdata.org/ipumsr/reference/ipums_list_files.md)
to list files in an IPUMS extract.

## Examples

``` r
# Example file
nhgis_file <- ipums_example("nhgis0972_csv.zip")

# Read codebook as an `ipums_ddi` object:
codebook <- read_nhgis_codebook(nhgis_file)

# Variable-level metadata about the contents of the data file:
ipums_var_info(codebook)
#> # A tibble: 25 × 10
#>    var_name  var_label      var_desc val_labels code_instr start end   imp_decim
#>    <chr>     <chr>          <chr>    <list>     <chr>      <lgl> <lgl>     <dbl>
#>  1 GISJOIN   GIS Join Matc… ""       <tibble>   ""         NA    NA            0
#>  2 YEAR      Data File Year ""       <tibble>   ""         NA    NA            0
#>  3 STUSAB    State/US Abbr… ""       <tibble>   ""         NA    NA            0
#>  4 CMSA      Consolidated … ""       <tibble>   ""         NA    NA            0
#>  5 DIVISIONA Division Code  ""       <tibble>   ""         NA    NA            0
#>  6 MSA_CMSAA Metropolitan … ""       <tibble>   ""         NA    NA            0
#>  7 PMSA      Primary Metro… ""       <tibble>   ""         NA    NA            0
#>  8 PMSAA     Primary Metro… ""       <tibble>   ""         NA    NA            0
#>  9 REGIONA   Region Code    ""       <tibble>   ""         NA    NA            0
#> 10 STATEA    State Code     ""       <tibble>   ""         NA    NA            0
#> # ℹ 15 more rows
#> # ℹ 2 more variables: var_type <chr>, rectypes <lgl>
…
