…
# Previously:
read_nhgis(csv_file)
#> Warning: `read_nhgis()` was deprecated in ipumsr 0.9.0.
#> ℹ Please use `read_ipums_agg()` instead.
#> Use of data from IPUMS NHGIS is subject to conditions including that users should cite the data appropriately. Use command `ipums_conditions()` for more details.
#> Rows: 71 Columns: 25
#> ── Column specification ────────────────────────────────────────────────────────
#> Delimiter: ","
#> chr  (9): GISJOIN, STUSAB, CMSA, PMSA, PMSAA, AREALAND, AREAWAT, ANPSADPI, F...
#> dbl (13): YEAR, MSA_CMSAA, INTPTLAT, INTPTLNG, PSADC, D6Z001, D6Z002, D6Z003...
#> lgl  (3): DIVISIONA, REGIONA, STATEA
#> 
#> ℹ Use `spec()` to retrieve the full column specification for this data.
#> ℹ Specify the column types or set `show_col_types = FALSE` to quiet this message.
#> # A tibble: 71 × 25
#>    GISJOIN  YEAR STUSAB CMSA  DIVISIONA MSA_CMSAA PMSA      PMSAA REGIONA STATEA
#>    <chr>   <dbl> <chr>  <chr> <lgl>         <dbl> <chr>     <chr> <lgl>   <lgl> 
#>  1 G0080    1990 OH     28    NA             1692 Akron, O… 0080  NA      NA    
#>  2 G0360    1990 CA     49    NA             4472 Anaheim-… 0360  NA      NA    
#>  3 G0440    1990 MI     35    NA             2162 Ann Arbo… 0440  NA      NA    
#>  4 G0620    1990 IL     14    NA             1602 Aurora--… 0620  NA      NA    
#>  5 G0845    1990 PA     78    NA             6282 Beaver C… 0845  NA      NA    
#>  6 G0875    1990 NJ     70    NA             5602 Bergen--… 0875  NA      NA    
#>  7 G1120    1990 MA     07    NA             1122 Boston, … 1120  NA      NA    
#>  8 G1125    1990 CO     34    NA             2082 Boulder-… 1125  NA      NA    
#>  9 G1145    1990 TX     42    NA             3362 Brazoria… 1145  NA      NA    
#> 10 G1160    1990 CT     70    NA             5602 Bridgepo… 1160  NA      NA    
#> # ℹ 61 more rows
#> # ℹ 15 more variables: AREALAND <chr>, AREAWAT <chr>, ANPSADPI <chr>,
#> #   FUNCSTAT <chr>, INTPTLAT <dbl>, INTPTLNG <dbl>, PSADC <dbl>, D6Z001 <dbl>,
#> #   D6Z002 <dbl>, D6Z003 <dbl>, D6Z004 <dbl>, D6Z005 <dbl>, D6Z006 <dbl>,
#> #   D6Z007 <dbl>, D6Z008 <dbl>

# For CSV files, please update to use the following:
read_ipums_agg(csv_file)
#> Use of data from IPUMS NHGIS is subject to conditions including that users should cite the data appropriately. Use command `ipums_conditions()` for more details.
#> Rows: 71 Columns: 25
#> ── Column specification ────────────────────────────────────────────────────────
#> Delimiter: ","
#> chr  (9): GISJOIN, STUSAB, CMSA, PMSA, PMSAA, AREALAND, AREAWAT, ANPSADPI, F...
#> dbl (13): YEAR, MSA_CMSAA, INTPTLAT, INTPTLNG, PSADC, D6Z001, D6Z002, D6Z003...
#> lgl  (3): DIVISIONA, REGIONA, STATEA
#> 
#> ℹ Use `spec()` to retrieve the full column specification for this data.
#> ℹ Specify the column types or set `show_col_types = FALSE` to quiet this message.
#> # A tibble: 71 × 25
#>    GISJOIN  YEAR STUSAB CMSA  DIVISIONA MSA_CMSAA PMSA      PMSAA REGIONA STATEA
#>    <chr>   <dbl> <chr>  <chr> <lgl>         <dbl> <chr>     <chr> <lgl>   <lgl> 
#>  1 G0080    1990 OH     28    NA             1692 Akron, O… 0080  NA      NA    
#>  2 G0360    1990 CA     49    NA             4472 Anaheim-… 0360  NA      NA    
#>  3 G0440    1990 MI     35    NA             2162 Ann Arbo… 0440  NA      NA    
#>  4 G0620    1990 IL     14    NA             1602 Aurora--… 0620  NA      NA    
#>  5 G0845    1990 PA     78    NA             6282 Beaver C… 0845  NA      NA    
#>  6 G0875    1990 NJ     70    NA             5602 Bergen--… 0875  NA      NA    
#>  7 G1120    1990 MA     07    NA             1122 Boston, … 1120  NA      NA    
#>  8 G1125    1990 CO     34    NA             2082 Boulder-… 1125  NA      NA    
#>  9 G1145    1990 TX     42    NA             3362 Brazoria… 1145  NA      NA    
#> 10 G1160    1990 CT     70    NA             5602 Bridgepo… 1160  NA      NA    
#> # ℹ 61 more rows
#> # ℹ 15 more variables: AREALAND <chr>, AREAWAT <chr>, ANPSADPI <chr>,
#> #   FUNCSTAT <chr>, INTPTLAT <dbl>, INTPTLNG <dbl>, PSADC <dbl>, D6Z001 <dbl>,
#> #   D6Z002 <dbl>, D6Z003 <dbl>, D6Z004 <dbl>, D6Z005 <dbl>, D6Z006 <dbl>,
#> #   D6Z007 <dbl>, D6Z008 <dbl>

# Fixed-width files are parsed with the correct column positions
# and column types automatically:
read_nhgis(fw_file, file_select = contains("ts"), verbose = FALSE)
#> # A tibble: 84 × 28
#>    GISJOIN STATE         STATEFP STATENH A00AA1790 A00AA1800 A00AA1810 A00AA1820
#>    <chr>   <chr>         <chr>   <chr>       <dbl>     <dbl>     <dbl>     <dbl>
#>  1 G010    Alabama       01      010            NA        NA        NA    127901
#>  2 G020    Alaska        02      020            NA        NA        NA        NA
#>  3 G025    Alaska Terri… NA      025            NA        NA        NA        NA
#>  4 G040    Arizona       04      040            NA        NA        NA        NA
#>  5 G045    Arizona Terr… NA      045            NA        NA        NA        NA
#>  6 G050    Arkansas      05      050            NA        NA        NA        NA
#>  7 G055    Arkansas Ter… NA      055            NA        NA        NA     14273
#>  8 G060    California    06      060            NA        NA        NA        NA
#>  9 G080    Colorado      08      080            NA        NA        NA        NA
#> 10 G085    Colorado Ter… NA      085            NA        NA        NA        NA
#> # ℹ 74 more rows
#> # ℹ 20 more variables: A00AA1830 <dbl>, A00AA1840 <dbl>, A00AA1850 <dbl>,
#> #   A00AA1860 <dbl>, A00AA1870 <dbl>, A00AA1880 <dbl>, A00AA1890 <dbl>,
#> #   A00AA1900 <dbl>, A00AA1910 <dbl>, A00AA1920 <dbl>, A00AA1930 <dbl>,
#> #   A00AA1940 <dbl>, A00AA1950 <dbl>, A00AA1960 <dbl>, A00AA1970 <dbl>,
#> #   A00AA1980 <dbl>, A00AA1990 <dbl>, A00AA2000 <dbl>, A00AA2010 <dbl>,
#> #   A00AA2020 <dbl>
```
