http_interactions:
- request:
    method: get
    uri: https://api.ipums.org/extracts?collection=nhgis&version=2&pageNumber=1&pageSize=1
    body:
      encoding: ''
      string: ''
    headers:
      Accept: application/json, text/xml, application/xml, */*
      Authorization: <<<IPUMS_API_KEY>>>
  response:
    status:
      status_code: 200
      category: Success
      reason: OK
      message: 'Success: (200) OK'
    headers:
      cache-control: max-age=0, private, must-revalidate
      content-type: application/json; charset=utf-8
      date: Mon, 09 Dec 2024 22:06:24 GMT
      etag: W/"c5d8d97c029b495d20f321c1356b653b"
      referrer-policy: strict-origin-when-cross-origin
      server: nginx/1.22.1
      vary: Origin
      x-content-type-options: nosniff
      x-frame-options: SAMEORIGIN
      x-permitted-cross-domain-policies: none
      x-ratelimit-limit: '-1'
      x-ratelimit-remaining: '0'
      x-ratelimit-reset: '0'
      x-request-id: 49b38f38-ca08-44c3-a7c8-9419c3a30dfe
      x-runtime: '0.896300'
      x-xss-protection: '0'
      content-length: '1279'
    body:
      encoding: ''
      file: no
      string: '{"data":[{"number":1436,"status":"completed","email":"robe2037@umn.edu","downloadLinks":{"codebookPreview":{"url":"https://api.ipums.org/downloads/nhgis/api/v1/extracts/2422497/nhgis1436_csv_PREVIEW.zip","bytes":8662,"sha256":null},"tableData":{"url":"https://api.ipums.org/downloads/nhgis/api/v1/extracts/2422497/nhgis1436_csv.zip","bytes":166931,"sha256":null},"gisData":{"url":"https://api.ipums.org/downloads/nhgis/api/v1/extracts/2422497/nhgis1436_shape.zip","bytes":510613,"sha256":null}},"extractDefinition":{"dataFormat":"csv_no_header","description":"Extract
        for R client testing","datasets":{"2014_2018_ACS5a":{"dataTables":["B01001","B01002"],"geogLevels":["nation"],"breakdownValues":["bs32.ge00"]},"2015_2019_ACS5a":{"dataTables":["B01001","B01002"],"geogLevels":["blck_grp"],"breakdownValues":["bs32.ge00"]}},"timeSeriesTables":{"CW3":{"geogLevels":["state"],"years":["1990"]}},"timeSeriesTableLayout":"time_by_row_layout","shapefiles":["110_blck_grp_2019_tl2019"],"geographicExtents":["100","110"],"breakdownAndDataTypeLayout":"single_file","version":2,"collection":"nhgis"}}],"totalCount":1436,"pageNumber":1,"pageSize":1,"links":{"previousPage":null,"nextPage":"https://api.ipums.org/extracts/?collection=nhgis\u0026pageNumber=2\u0026pageSize=1\u0026version=2"}}'
  recorded_at: 2024-12-09 22:06:25 GMT
  recorded_with: vcr/1.2.2, webmockr/0.9.0
- request:
    method: get
    uri: https://api.ipums.org/extracts/1437?collection=nhgis&version=2
    body:
      encoding: ''
      string: ''
    headers:
      Accept: application/json, text/xml, application/xml, */*
      Authorization: <<<IPUMS_API_KEY>>>
      Content-Type: application/json
  response:
    status:
      status_code: 404
      category: Client error
      reason: Not Found
      message: 'Client error: (404) Not Found'
    headers:
      content-type: text/html; charset=UTF-8
      date: Mon, 09 Dec 2024 22:06:25 GMT
      server: nginx/1.22.1
      vary: Origin
      x-ratelimit-limit: '-1'
      x-ratelimit-remaining: '0'
      x-ratelimit-reset: '0'
      x-request-id: e63c2a58-c7e0-48ca-b471-6de36a14dde0
      x-runtime: '0.703503'
      content-length: '0'
    body:
      encoding: ''
      file: no
      string: ''
  recorded_at: 2024-12-09 22:06:25 GMT
  recorded_with: vcr/1.2.2, webmockr/0.9.0
