http_interactions:
- request:
    method: get
    uri: https://api.ipums.org/metadata/nhgis/data_tables?version=2&pageNumber=1&pageSize=10
    body:
      encoding: ''
      string: ''
    headers:
      Accept: application/json, text/xml, application/xml, */*
      Content-Type: application/json
      Authorization: <<<IPUMS_API_KEY>>>
  response:
    status:
      status_code: 200
      category: Success
      reason: OK
      message: 'Success: (200) OK'
    headers:
      cache-control: max-age=0, private, must-revalidate
      content-type: application/json; charset=utf-8
      date: Thu, 06 Apr 2023 22:51:28 GMT
      etag: W/"dab97f897e9685d58827af63c0b5e08a"
      referrer-policy: strict-origin-when-cross-origin
      server: nginx/1.18.0
      vary: Origin
      x-content-type-options: nosniff
      x-download-options: noopen
      x-frame-options: SAMEORIGIN
      x-permitted-cross-domain-policies: none
      x-ratelimit-limit: '-1'
      x-ratelimit-remaining: '0'
      x-ratelimit-reset: '0'
      x-request-id: cb678bc7-65ae-4e9f-8280-a91f99ca8454
      x-runtime: '0.004964'
      x-xss-protection: '0'
      content-length: '1866'
    body:
      encoding: ''
      file: no
      string: '{"data":[{"name":"NT1","description":"Total Population","universe":"Persons","nhgisCode":"AAA","sequence":1,"datasetName":"1790_cPop","nVariables":1},{"name":"NT2","description":"Urban
        Population (Incorporated Places 2,500 and Over)","universe":"Urban Persons
        (Incorporated Places 2,500 and Over)","nhgisCode":"AAK","sequence":2,"datasetName":"1790_cPop","nVariables":1},{"name":"NT3","description":"Urban
        Population in Cities of 25,000 and Over","universe":"Urban Persons in Cities
        of 25,000 and Over","nhgisCode":"AAN","sequence":3,"datasetName":"1790_cPop","nVariables":1},{"name":"NT4","description":"White
        Males and Estimated White Females by Sex by Age","universe":"White Persons","nhgisCode":"AAO","sequence":4,"datasetName":"1790_cPop","nVariables":4},{"name":"NT5","description":"White
        Population by Sex","universe":"White Persons","nhgisCode":"AAP","sequence":5,"datasetName":"1790_cPop","nVariables":2},{"name":"NT6","description":"Race/Slave
        Status","universe":"Persons","nhgisCode":"AAQ","sequence":6,"datasetName":"1790_cPop","nVariables":3},{"name":"NT9","description":"Total
        Number of Families","universe":"Families","nhgisCode":"AAR","sequence":7,"datasetName":"1790_cPop","nVariables":1},{"name":"NT10","description":"Number
        of Family Members","universe":"Families","nhgisCode":"AAB","sequence":8,"datasetName":"1790_cPop","nVariables":11},{"name":"NT12","description":"White
        Population by Nationality","universe":"White Persons","nhgisCode":"AAC","sequence":9,"datasetName":"1790_cPop","nVariables":8},{"name":"NT13","description":"Families
        by Slaveholding Status","universe":"Families","nhgisCode":"AAD","sequence":10,"datasetName":"1790_cPop","nVariables":2}],"pageNumber":1,"pageSize":10,"totalCount":46031,"links":{"previousPage":null,"nextPage":"https://api.ipums.org/metadata/nhgis/data_tables?pageNumber=2\u0026pageSize=10\u0026version=2"}}'
  recorded_at: 2023-04-06 22:51:28 GMT
  recorded_with: vcr/1.2.0, webmockr/0.9.0
