http_interactions:
- request:
    method: get
    uri: https://api.ipums.org/extracts/?collection=nhgis&version=2&pageNumber=1&pageSize=1
    body:
      encoding: ''
      string: ''
    headers:
      Accept: application/json, text/xml, application/xml, */*
      Content-Type: application/json
      Authorization: foobar
  response:
    status:
      status_code: 403
      category: Client error
      reason: Forbidden
      message: 'Client error: (403) Forbidden'
    headers:
      content-type: application/json
      date: Thu, 06 Apr 2023 22:46:21 GMT
      vary: Origin
      x-generator: tyk.io
      content-length: '57'
    body:
      encoding: ''
      file: no
      string: |-
        {
            "error": "Access to this API has been disallowed"
        }
  recorded_at: 2023-04-06 22:46:23 GMT
  recorded_with: vcr/1.2.0, webmockr/0.9.0
- request:
    method: get
    uri: https://api.ipums.org/extracts/1155?collection=nhgis&version=2
    body:
      encoding: ''
      string: ''
    headers:
      Accept: application/json, text/xml, application/xml, */*
      Content-Type: application/json
      Authorization: <<<IPUMS_API_KEY>>>
  response:
    status:
      status_code: 404
      category: Client error
      reason: Not Found
      message: 'Client error: (404) Not Found'
    headers:
      content-type: text/html; charset=UTF-8
      date: Thu, 06 Apr 2023 22:46:22 GMT
      server: nginx/1.18.0
      vary: Origin
      x-ratelimit-limit: '-1'
      x-ratelimit-remaining: '0'
      x-ratelimit-reset: '0'
      x-request-id: ee6e02fa-8d00-4997-b14d-a2de2cbbf50c
      x-runtime: '0.556985'
      content-length: '0'
    body:
      encoding: ''
      file: no
      string: ''
  recorded_at: 2023-04-06 22:46:23 GMT
  recorded_with: vcr/1.2.0, webmockr/0.9.0
- request:
    method: get
    uri: https://api.ipums.org/extracts/?collection=nhgis&version=2&pageNumber=1&pageSize=1
    body:
      encoding: ''
      string: ''
    headers:
      Accept: application/json, text/xml, application/xml, */*
      Content-Type: application/json
      Authorization: <<<IPUMS_API_KEY>>>
  response:
    status:
      status_code: 200
      category: Success
      reason: OK
      message: 'Success: (200) OK'
    headers:
      cache-control: max-age=0, private, must-revalidate
      content-type: application/json; charset=utf-8
      date: Thu, 06 Apr 2023 22:46:23 GMT
      etag: W/"e6ec3113941e68a03f81a8e7df271335"
      referrer-policy: strict-origin-when-cross-origin
      server: nginx/1.18.0
      vary: Origin
      x-content-type-options: nosniff
      x-download-options: noopen
      x-frame-options: SAMEORIGIN
      x-permitted-cross-domain-policies: none
      x-ratelimit-limit: '-1'
      x-ratelimit-remaining: '0'
      x-ratelimit-reset: '0'
      x-request-id: 92f6c5ff-8911-48f1-acce-26a87dc31df2
      x-runtime: '0.525376'
      x-xss-protection: '0'
      content-length: '1264'
    body:
      encoding: ''
      file: no
      string: '{"data":[{"number":1154,"status":"completed","email":"robe2037@umn.edu","downloadLinks":{"codebookPreview":{"url":"https://api.ipums.org/downloads/nhgis/api/v1/extracts/2002404/nhgis1154_csv_PREVIEW.zip","bytes":10007,"sha256":null},"tableData":{"url":"https://api.ipums.org/downloads/nhgis/api/v1/extracts/2002404/nhgis1154_csv.zip","bytes":1452350,"sha256":null},"gisData":{"url":"https://api.ipums.org/downloads/nhgis/api/v1/extracts/2002404/nhgis1154_shape.zip","bytes":510593,"sha256":null}},"extractDefinition":{"dataFormat":"csv_no_header","description":"Extract
        for R client testing","datasets":{"2014_2018_ACS5a":{"dataTables":["B01001","B01002"],"geogLevels":["nation"],"breakdownValues":["bs32.ge00"]},"2015_2019_ACS5a":{"dataTables":["B01001","B01002"],"geogLevels":["blck_grp"],"breakdownValues":["bs32.ge00"]}},"timeSeriesTables":{"CW3":{"geogLevels":["state"]}},"timeSeriesTableLayout":"time_by_row_layout","shapefiles":["110_blck_grp_2019_tl2019"],"geographicExtents":["110","420"],"breakdownAndDataTypeLayout":"single_file","version":2,"collection":"nhgis"}}],"totalCount":1154,"pageNumber":1,"pageSize":1,"links":{"previousPage":null,"nextPage":"https://api.ipums.org/extracts/?collection=nhgis\u0026pageNumber=2\u0026pageSize=1\u0026version=2"}}'
  recorded_at: 2023-04-06 22:46:23 GMT
  recorded_with: vcr/1.2.0, webmockr/0.9.0
- request:
    method: post
    uri: https://api.ipums.org/extracts/?collection=nhgis&version=2
    body:
      encoding: ''
      string: '{"datasets":{"foo":{"dataTables":[null],"geogLevels":[null]}}}'
    headers:
      Accept: application/json, text/xml, application/xml, */*
      Content-Type: application/json
      Authorization: <<<IPUMS_API_KEY>>>
  response:
    status:
      status_code: 400
      category: Client error
      reason: Bad Request
      message: 'Client error: (400) Bad Request'
    headers:
      cache-control: no-cache
      content-type: application/json; charset=utf-8
      date: Thu, 06 Apr 2023 22:46:23 GMT
      referrer-policy: strict-origin-when-cross-origin
      server: nginx/1.18.0
      vary: Origin
      x-content-type-options: nosniff
      x-download-options: noopen
      x-frame-options: SAMEORIGIN
      x-permitted-cross-domain-policies: none
      x-ratelimit-limit: '-1'
      x-ratelimit-remaining: '0'
      x-ratelimit-reset: '0'
      x-request-id: 920aef75-7c54-4038-b847-0b26d4988e27
      x-runtime: '0.069472'
      x-xss-protection: '0'
      content-length: '208'
    body:
      encoding: ''
      file: no
      string: '{"type":"SemanticValidationError","status":{"code":400,"name":"Bad
        Request"},"detail":["Datasets invalid: ''foo''","Data format invalid: '''';
        valid options include ''csv_no_header'', ''csv_header'', ''fixed_width''"]}'
  recorded_at: 2023-04-06 22:46:23 GMT
  recorded_with: vcr/1.2.0, webmockr/0.9.0
