http_interactions:
- request:
    method: get
    uri: https://api.ipums.org/extracts/?collection=cps&version=2&pageNumber=1&pageSize=5
    body:
      encoding: ''
      string: ''
    headers:
      Accept: application/json, text/xml, application/xml, */*
      Content-Type: application/json
      Authorization: <<<IPUMS_API_KEY>>>
  response:
    status:
      status_code: 200
      category: Success
      reason: OK
      message: 'Success: (200) OK'
    headers:
      cache-control: max-age=0, private, must-revalidate
      content-type: application/json; charset=utf-8
      date: Thu, 06 Apr 2023 22:51:10 GMT
      etag: W/"b693b4810198e020503e5402724bfb62"
      referrer-policy: strict-origin-when-cross-origin
      server: nginx/1.18.0
      vary: Origin
      x-content-type-options: nosniff
      x-download-options: noopen
      x-frame-options: SAMEORIGIN
      x-permitted-cross-domain-policies: none
      x-ratelimit-limit: '-1'
      x-ratelimit-remaining: '0'
      x-ratelimit-reset: '0'
      x-request-id: 60745621-cfe2-4db4-8404-ef6cb006dd77
      x-runtime: '0.313549'
      x-xss-protection: '0'
      content-length: '9818'
    body:
      encoding: ''
      file: no
      string: '{"data":[{"number":72,"status":"completed","email":"robe2037@umn.edu","downloadLinks":{"ddiCodebook":{"url":"https://api.ipums.org/downloads/cps/api/v1/extracts/2002403/cps_00072.xml","bytes":31665,"sha256":"9a6fda4f4b2d70055b20d338669b5d47568814c8bb3fa016f4b763a7fdd17a1b"},"sasCommandFile":{"url":"https://api.ipums.org/downloads/cps/api/v1/extracts/2002403/cps_00072.sas","bytes":4045,"sha256":"93ebaeb2e2b24e4fbc0f6750d69fc707f52451430d725093e45fb2327da12960"},"spssCommandFile":{"url":"https://api.ipums.org/downloads/cps/api/v1/extracts/2002403/cps_00072.sps","bytes":3894,"sha256":"cc619085ff43b8c3e7973bb27692a2771eb53b2319c6269b9a11f5e8434fb238"},"rCommandFile":{"url":"https://api.ipums.org/downloads/cps/api/v1/extracts/2002403/cps_00072.R","bytes":406,"sha256":"40378ed179a3e368b72d16ccbbaaf82e8caf1290cfe435a3596f9681fd857c93"},"basicCodebook":{"url":"https://api.ipums.org/downloads/cps/api/v1/extracts/2002403/cps_00072.cbk","bytes":5901,"sha256":"b32f7baf7139ab5799683602ec7302fed2f252fefa5cdfbff6f37f6e2e19a055"},"data":{"url":"https://api.ipums.org/downloads/cps/api/v1/extracts/2002403/cps_00072.dat.gz","bytes":2440152,"sha256":"a23b17944b5dc635071a3983afb1bae270807b97674bc8e7c422c34c7fe4bd93"},"stataCommandFile":{"url":"https://api.ipums.org/downloads/cps/api/v1/extracts/2002403/cps_00072.do","bytes":7764,"sha256":"2c4e2737abc46a1722bd97a071b4502cb01bad83bdc7fb4232101cdbd07c3b8c"}},"extractDefinition":{"version":2,"dataStructure":{"rectangular":{"on":"P"}},"dataFormat":"fixed_width","caseSelectWho":"individuals","description":"Compare
        age-sex-race breakdowns 1976","samples":{"cps1976_01s":{},"cps1976_02b":{}},"variables":{"YEAR":{"preselected":true},"SERIAL":{"preselected":true},"MONTH":{"preselected":true},"CPSID":{"preselected":true},"MISH":{},"PERNUM":{"preselected":true},"WTFINL":{"preselected":true},"CPSIDP":{"preselected":true},"UH_SEX_B1":{},"AGE":{},"SEX":{},"RACE":{}},"collection":"cps"}},{"number":71,"status":"completed","email":"robe2037@umn.edu","downloadLinks":{"rCommandFile":{"url":"https://api.ipums.org/downloads/cps/api/v1/extracts/2002325/cps_00071.R","bytes":406,"sha256":"ad8f5ab4304618f56bf6876ddf17f693af1c928778b292a40d7d5807f4c25a34"},"basicCodebook":{"url":"https://api.ipums.org/downloads/cps/api/v1/extracts/2002325/cps_00071.cbk","bytes":5901,"sha256":"b32f7baf7139ab5799683602ec7302fed2f252fefa5cdfbff6f37f6e2e19a055"},"spssCommandFile":{"url":"https://api.ipums.org/downloads/cps/api/v1/extracts/2002325/cps_00071.sps","bytes":3894,"sha256":"bd5c4b9fcd501fea290ff764c35749f3bdadf59b156e207542799b4add0d56e6"},"stataCommandFile":{"url":"https://api.ipums.org/downloads/cps/api/v1/extracts/2002325/cps_00071.do","bytes":7764,"sha256":"3d481b0a56d576cb4033b028171e4cf7ce64dd9e564cc643b5faf4dd5a128b7d"},"data":{"url":"https://api.ipums.org/downloads/cps/api/v1/extracts/2002325/cps_00071.dat.gz","bytes":2440152,"sha256":"a23b17944b5dc635071a3983afb1bae270807b97674bc8e7c422c34c7fe4bd93"},"sasCommandFile":{"url":"https://api.ipums.org/downloads/cps/api/v1/extracts/2002325/cps_00071.sas","bytes":4045,"sha256":"c24bea121ac400f5a3b3010c0eb7cc3395d31653cc0639222753c25e4cd33124"},"ddiCodebook":{"url":"https://api.ipums.org/downloads/cps/api/v1/extracts/2002325/cps_00071.xml","bytes":31665,"sha256":"da26efdba458213460e2091e44c6d94449510c11d6aa738ad74fcf5340cc942e"}},"extractDefinition":{"version":2,"dataStructure":{"rectangular":{"on":"P"}},"dataFormat":"fixed_width","caseSelectWho":"individuals","description":"Compare
        age-sex-race breakdowns 1976","samples":{"cps1976_01s":{},"cps1976_02b":{}},"variables":{"YEAR":{"preselected":true},"SERIAL":{"preselected":true},"MONTH":{"preselected":true},"CPSID":{"preselected":true},"MISH":{},"PERNUM":{"preselected":true},"WTFINL":{"preselected":true},"CPSIDP":{"preselected":true},"UH_SEX_B1":{},"AGE":{},"SEX":{},"RACE":{}},"collection":"cps"}},{"number":70,"status":"completed","email":"robe2037@umn.edu","downloadLinks":{"ddiCodebook":{"url":"https://api.ipums.org/downloads/cps/api/v1/extracts/2001590/cps_00070.xml","bytes":31665,"sha256":"0a2773d5b5180022d011e8613c400a3f1b11aa870da52b16e0c1b1085d9a07c5"},"spssCommandFile":{"url":"https://api.ipums.org/downloads/cps/api/v1/extracts/2001590/cps_00070.sps","bytes":3894,"sha256":"4d16c462265f86dc0ea56f89e0ad985bae48f021643537928be89931414c31b9"},"rCommandFile":{"url":"https://api.ipums.org/downloads/cps/api/v1/extracts/2001590/cps_00070.R","bytes":406,"sha256":"90e3195ceaf445a36101971d985309f69d2934c301080e0e6b85c6076a904aa5"},"basicCodebook":{"url":"https://api.ipums.org/downloads/cps/api/v1/extracts/2001590/cps_00070.cbk","bytes":5901,"sha256":"b32f7baf7139ab5799683602ec7302fed2f252fefa5cdfbff6f37f6e2e19a055"},"sasCommandFile":{"url":"https://api.ipums.org/downloads/cps/api/v1/extracts/2001590/cps_00070.sas","bytes":4045,"sha256":"439411532de8c8fac44f2ea834328c38d5977f9ad4f6e8e2a29d6ad2e614a5c7"},"data":{"url":"https://api.ipums.org/downloads/cps/api/v1/extracts/2001590/cps_00070.dat.gz","bytes":2440152,"sha256":"a23b17944b5dc635071a3983afb1bae270807b97674bc8e7c422c34c7fe4bd93"},"stataCommandFile":{"url":"https://api.ipums.org/downloads/cps/api/v1/extracts/2001590/cps_00070.do","bytes":7764,"sha256":"e363c7bdbeb5c868ff65300d7ff9907f15013751678cdb900c86fe9ff8a8af1b"}},"extractDefinition":{"version":2,"dataStructure":{"rectangular":{"on":"P"}},"dataFormat":"fixed_width","caseSelectWho":"individuals","description":"Compare
        age-sex-race breakdowns 1976","samples":{"cps1976_01s":{},"cps1976_02b":{}},"variables":{"YEAR":{"preselected":true},"SERIAL":{"preselected":true},"MONTH":{"preselected":true},"CPSID":{"preselected":true},"MISH":{},"PERNUM":{"preselected":true},"WTFINL":{"preselected":true},"CPSIDP":{"preselected":true},"UH_SEX_B1":{},"AGE":{},"SEX":{},"RACE":{}},"collection":"cps"}},{"number":69,"status":"completed","email":"robe2037@umn.edu","downloadLinks":{"rCommandFile":{"url":"https://api.ipums.org/downloads/cps/api/v1/extracts/2001584/cps_00069.R","bytes":406,"sha256":"04c9436bcdb27d6213377ff9aee8cd6586f72645fdc73185cc7fab478afacd1b"},"stataCommandFile":{"url":"https://api.ipums.org/downloads/cps/api/v1/extracts/2001584/cps_00069.do","bytes":7764,"sha256":"a982634e6c5388b9d0ed2b8a88d0c5280464bfeb7cce98966aec29b34d8d7700"},"basicCodebook":{"url":"https://api.ipums.org/downloads/cps/api/v1/extracts/2001584/cps_00069.cbk","bytes":5901,"sha256":"b32f7baf7139ab5799683602ec7302fed2f252fefa5cdfbff6f37f6e2e19a055"},"spssCommandFile":{"url":"https://api.ipums.org/downloads/cps/api/v1/extracts/2001584/cps_00069.sps","bytes":3894,"sha256":"72ee012c4b838fe7f9420f01f323fe9dedc867ff2f2129cb6e017f7d56797c33"},"ddiCodebook":{"url":"https://api.ipums.org/downloads/cps/api/v1/extracts/2001584/cps_00069.xml","bytes":31665,"sha256":"d81cdd997be997538dc27d54575dbd1c048ab87a5fda027f285a3af5a470820f"},"data":{"url":"https://api.ipums.org/downloads/cps/api/v1/extracts/2001584/cps_00069.dat.gz","bytes":2440152,"sha256":"a23b17944b5dc635071a3983afb1bae270807b97674bc8e7c422c34c7fe4bd93"},"sasCommandFile":{"url":"https://api.ipums.org/downloads/cps/api/v1/extracts/2001584/cps_00069.sas","bytes":4045,"sha256":"868526bfb999f3147caa5a075213813c9710e091e31f8d9b80ac6330a97882c2"}},"extractDefinition":{"version":2,"dataStructure":{"rectangular":{"on":"P"}},"dataFormat":"fixed_width","caseSelectWho":"individuals","description":"Compare
        age-sex-race breakdowns 1976","samples":{"cps1976_01s":{},"cps1976_02b":{}},"variables":{"YEAR":{"preselected":true},"SERIAL":{"preselected":true},"MONTH":{"preselected":true},"CPSID":{"preselected":true},"MISH":{},"PERNUM":{"preselected":true},"WTFINL":{"preselected":true},"CPSIDP":{"preselected":true},"UH_SEX_B1":{},"AGE":{},"SEX":{},"RACE":{}},"collection":"cps"}},{"number":68,"status":"completed","email":"robe2037@umn.edu","downloadLinks":{"data":{"url":"https://api.ipums.org/downloads/cps/api/v1/extracts/2001567/cps_00068.dat.gz","bytes":2440152,"sha256":"a23b17944b5dc635071a3983afb1bae270807b97674bc8e7c422c34c7fe4bd93"},"ddiCodebook":{"url":"https://api.ipums.org/downloads/cps/api/v1/extracts/2001567/cps_00068.xml","bytes":31665,"sha256":"e4e3462708d5f9b5788f6039541d63b805e7f10d6ee19fb55e84194f83c5be4a"},"sasCommandFile":{"url":"https://api.ipums.org/downloads/cps/api/v1/extracts/2001567/cps_00068.sas","bytes":4045,"sha256":"3e46f3a876dc2b704d9af88409070317820786595bc794e86353e1d929622a41"},"spssCommandFile":{"url":"https://api.ipums.org/downloads/cps/api/v1/extracts/2001567/cps_00068.sps","bytes":3894,"sha256":"62618eddeb93c83f187172fec591a40290f38c2fd0bff4277a30ed88634ac65d"},"basicCodebook":{"url":"https://api.ipums.org/downloads/cps/api/v1/extracts/2001567/cps_00068.cbk","bytes":5901,"sha256":"b32f7baf7139ab5799683602ec7302fed2f252fefa5cdfbff6f37f6e2e19a055"},"rCommandFile":{"url":"https://api.ipums.org/downloads/cps/api/v1/extracts/2001567/cps_00068.R","bytes":406,"sha256":"6a66fd40553be791126779868e0728720bdfef358a56bef15f97c3251d53018d"},"stataCommandFile":{"url":"https://api.ipums.org/downloads/cps/api/v1/extracts/2001567/cps_00068.do","bytes":7764,"sha256":"4599dc8873917152bdc495509b8b015c0bec8b947e1448ef3464fbcd71f83ad8"}},"extractDefinition":{"version":2,"dataStructure":{"rectangular":{"on":"P"}},"dataFormat":"fixed_width","caseSelectWho":"individuals","description":"Compare
        age-sex-race breakdowns 1976","samples":{"cps1976_01s":{},"cps1976_02b":{}},"variables":{"YEAR":{"preselected":true},"SERIAL":{"preselected":true},"MONTH":{"preselected":true},"CPSID":{"preselected":true},"MISH":{},"PERNUM":{"preselected":true},"WTFINL":{"preselected":true},"CPSIDP":{"preselected":true},"UH_SEX_B1":{},"AGE":{},"SEX":{},"RACE":{}},"collection":"cps"}}],"totalCount":72,"pageNumber":1,"pageSize":5,"links":{"previousPage":null,"nextPage":"https://api.ipums.org/extracts/?collection=cps\u0026pageNumber=2\u0026pageSize=5\u0026version=2"}}'
  recorded_at: 2023-04-06 22:51:10 GMT
  recorded_with: vcr/1.2.0, webmockr/0.9.0
