http_interactions:
- request:
    method: get
    uri: https://api.ipums.org/extracts/?collection=nhgis&version=2&pageNumber=1&pageSize=10
    body:
      encoding: ''
      string: ''
    headers:
      Accept: application/json, text/xml, application/xml, */*
      Content-Type: application/json
      Authorization: <<<IPUMS_API_KEY>>>
  response:
    status:
      status_code: 200
      category: Success
      reason: OK
      message: 'Success: (200) OK'
    headers:
      cache-control: max-age=0, private, must-revalidate
      content-type: application/json; charset=utf-8
      date: Mon, 10 Apr 2023 15:00:29 GMT
      etag: W/"3b88489d300d1df07ccf6b828e86d2d5"
      referrer-policy: strict-origin-when-cross-origin
      server: nginx/1.18.0
      vary: Origin
      x-content-type-options: nosniff
      x-download-options: noopen
      x-frame-options: SAMEORIGIN
      x-permitted-cross-domain-policies: none
      x-ratelimit-limit: '-1'
      x-ratelimit-remaining: '0'
      x-ratelimit-reset: '0'
      x-request-id: 529e921d-3fe5-4e34-900c-11362cf2f0f4
      x-runtime: '0.619770'
      x-xss-protection: '0'
      content-length: '6651'
    body:
      encoding: ''
      file: no
      string: '{"data":[{"number":1170,"status":"completed","email":"robe2037@umn.edu","downloadLinks":{"codebookPreview":{"url":"https://api.ipums.org/downloads/nhgis/api/v1/extracts/2004706/nhgis1170_csv_PREVIEW.zip","bytes":8537,"sha256":null},"tableData":{"url":"https://api.ipums.org/downloads/nhgis/api/v1/extracts/2004706/nhgis1170_csv.zip","bytes":1436460,"sha256":null},"gisData":{"url":"https://api.ipums.org/downloads/nhgis/api/v1/extracts/2004706/nhgis1170_shape.zip","bytes":510593,"sha256":null}},"extractDefinition":{"dataFormat":"csv_no_header","description":"Extract
        for R client testing","datasets":{"2014_2018_ACS5a":{"dataTables":["B01001","B01002"],"geogLevels":["nation"],"breakdownValues":["bs32.ge00"]},"2015_2019_ACS5a":{"dataTables":["B01001","B01002"],"geogLevels":["blck_grp"],"breakdownValues":["bs32.ge00"]}},"timeSeriesTables":{"CW3":{"geogLevels":["state"],"years":["1990"]}},"timeSeriesTableLayout":"time_by_row_layout","shapefiles":["110_blck_grp_2019_tl2019"],"geographicExtents":["110","420"],"breakdownAndDataTypeLayout":"single_file","version":2,"collection":"nhgis"}},{"number":1169,"status":"completed","email":"robe2037@umn.edu","downloadLinks":{"codebookPreview":{"url":"https://api.ipums.org/downloads/nhgis/api/v1/extracts/2004705/nhgis1169_csv_PREVIEW.zip","bytes":8538,"sha256":null},"tableData":{"url":"https://api.ipums.org/downloads/nhgis/api/v1/extracts/2004705/nhgis1169_csv.zip","bytes":1436461,"sha256":null},"gisData":{"url":"https://api.ipums.org/downloads/nhgis/api/v1/extracts/2004705/nhgis1169_shape.zip","bytes":510593,"sha256":null}},"extractDefinition":{"dataFormat":"csv_no_header","description":"Extract
        for R client testing","datasets":{"2014_2018_ACS5a":{"dataTables":["B01001","B01002"],"geogLevels":["nation"],"breakdownValues":["bs32.ge00"]},"2015_2019_ACS5a":{"dataTables":["B01001","B01002"],"geogLevels":["blck_grp"],"breakdownValues":["bs32.ge00"]}},"timeSeriesTables":{"CW3":{"geogLevels":["state"],"years":["1990"]}},"timeSeriesTableLayout":"time_by_row_layout","shapefiles":["110_blck_grp_2019_tl2019"],"geographicExtents":["110","420"],"breakdownAndDataTypeLayout":"single_file","version":2,"collection":"nhgis"}},{"number":1168,"status":"completed","email":"robe2037@umn.edu","downloadLinks":{"gisData":{"url":"https://api.ipums.org/downloads/nhgis/api/v1/extracts/2004703/nhgis1168_shape.zip","bytes":510593,"sha256":null}},"extractDefinition":{"description":"","shapefiles":["110_blck_grp_2019_tl2019"],"version":2,"collection":"nhgis"}},{"number":1167,"status":"completed","email":"robe2037@umn.edu","downloadLinks":{"codebookPreview":{"url":"https://api.ipums.org/downloads/nhgis/api/v1/extracts/2004700/nhgis1167_csv_PREVIEW.zip","bytes":8538,"sha256":null},"tableData":{"url":"https://api.ipums.org/downloads/nhgis/api/v1/extracts/2004700/nhgis1167_csv.zip","bytes":1436461,"sha256":null},"gisData":{"url":"https://api.ipums.org/downloads/nhgis/api/v1/extracts/2004700/nhgis1167_shape.zip","bytes":510593,"sha256":null}},"extractDefinition":{"dataFormat":"csv_no_header","description":"Extract
        for R client testing","datasets":{"2014_2018_ACS5a":{"dataTables":["B01001","B01002"],"geogLevels":["nation"],"breakdownValues":["bs32.ge00"]},"2015_2019_ACS5a":{"dataTables":["B01001","B01002"],"geogLevels":["blck_grp"],"breakdownValues":["bs32.ge00"]}},"timeSeriesTables":{"CW3":{"geogLevels":["state"],"years":["1990"]}},"timeSeriesTableLayout":"time_by_row_layout","shapefiles":["110_blck_grp_2019_tl2019"],"geographicExtents":["110","420"],"breakdownAndDataTypeLayout":"single_file","version":2,"collection":"nhgis"}},{"number":1166,"status":"completed","email":"robe2037@umn.edu","downloadLinks":{"gisData":{"url":"https://api.ipums.org/downloads/nhgis/api/v1/extracts/2003177/nhgis1166_shape.zip","bytes":510593,"sha256":null}},"extractDefinition":{"description":"","shapefiles":["110_blck_grp_2019_tl2019"],"version":2,"collection":"nhgis"}},{"number":1165,"status":"completed","email":"robe2037@umn.edu","downloadLinks":{"gisData":{"url":"https://api.ipums.org/downloads/nhgis/api/v1/extracts/2003176/nhgis1165_shape.zip","bytes":510593,"sha256":null}},"extractDefinition":{"description":"","shapefiles":["110_blck_grp_2019_tl2019"],"version":2,"collection":"nhgis"}},{"number":1164,"status":"completed","email":"robe2037@umn.edu","downloadLinks":{"codebookPreview":{"url":"https://api.ipums.org/downloads/nhgis/api/v1/extracts/2003165/nhgis1164_csv_PREVIEW.zip","bytes":9794,"sha256":null},"tableData":{"url":"https://api.ipums.org/downloads/nhgis/api/v1/extracts/2003165/nhgis1164_csv.zip","bytes":15189,"sha256":null}},"extractDefinition":{"dataFormat":"csv_no_header","description":"TST
        year selection","datasets":{"1990_STF1":{"dataTables":["NP1"],"geogLevels":["state"],"breakdownValues":["bs09.ge00"]}},"timeSeriesTables":{"A00":{"geogLevels":["state"],"years":["1790","1800","1880"]}},"timeSeriesTableLayout":"time_by_file_layout","version":2,"collection":"nhgis"}},{"number":1163,"status":"completed","email":"robe2037@umn.edu","downloadLinks":{"codebookPreview":{"url":"https://api.ipums.org/downloads/nhgis/api/v1/extracts/2003163/nhgis1163_csv_PREVIEW.zip","bytes":7637,"sha256":null},"tableData":{"url":"https://api.ipums.org/downloads/nhgis/api/v1/extracts/2003163/nhgis1163_csv.zip","bytes":10015,"sha256":null}},"extractDefinition":{"dataFormat":"csv_no_header","description":"TST
        year selection","timeSeriesTables":{"A00":{"geogLevels":["state"],"years":["1790","1800","1880"]}},"timeSeriesTableLayout":"time_by_file_layout","version":2,"collection":"nhgis"}},{"number":1162,"status":"completed","email":"robe2037@umn.edu","downloadLinks":{"codebookPreview":{"url":"https://api.ipums.org/downloads/nhgis/api/v1/extracts/2003162/nhgis1162_csv_PREVIEW.zip","bytes":2593,"sha256":null},"tableData":{"url":"https://api.ipums.org/downloads/nhgis/api/v1/extracts/2003162/nhgis1162_csv.zip","bytes":3856,"sha256":null}},"extractDefinition":{"dataFormat":"csv_no_header","description":"","timeSeriesTables":{"A00":{"geogLevels":["state"],"years":["1790","1800","1880"]}},"timeSeriesTableLayout":"time_by_column_layout","version":2,"collection":"nhgis"}},{"number":1161,"status":"completed","email":"robe2037@umn.edu","downloadLinks":{"gisData":{"url":"https://api.ipums.org/downloads/nhgis/api/v1/extracts/2003086/nhgis1161_shape.zip","bytes":510593,"sha256":null}},"extractDefinition":{"description":"","shapefiles":["110_blck_grp_2019_tl2019"],"version":2,"collection":"nhgis"}}],"totalCount":1170,"pageNumber":1,"pageSize":10,"links":{"previousPage":null,"nextPage":"https://api.ipums.org/extracts/?collection=nhgis\u0026pageNumber=2\u0026pageSize=10\u0026version=2"}}'
  recorded_at: 2023-04-10 15:00:29 GMT
  recorded_with: vcr/1.2.0, webmockr/0.9.0
