http_interactions:
- request:
    method: get
    uri: https://api.ipums.org/extracts/?collection=usa&version=2&pageNumber=1&pageSize=2
    body:
      encoding: ''
      string: ''
    headers:
      Accept: application/json, text/xml, application/xml, */*
      Content-Type: application/json
      Authorization: <<<IPUMS_API_KEY>>>
  response:
    status:
      status_code: 200
      category: Success
      reason: OK
      message: 'Success: (200) OK'
    headers:
      cache-control: max-age=0, private, must-revalidate
      content-type: application/json; charset=utf-8
      date: Thu, 06 Apr 2023 22:51:09 GMT
      etag: W/"66b951e77c7cf57a6f1a3516574177a4"
      referrer-policy: strict-origin-when-cross-origin
      server: nginx/1.18.0
      vary: Origin
      x-content-type-options: nosniff
      x-download-options: noopen
      x-frame-options: SAMEORIGIN
      x-permitted-cross-domain-policies: none
      x-ratelimit-limit: '-1'
      x-ratelimit-remaining: '0'
      x-ratelimit-reset: '0'
      x-request-id: 666b18e7-310d-4b68-8744-0e836478b80f
      x-runtime: '0.497561'
      x-xss-protection: '0'
      content-length: '4052'
    body:
      encoding: ''
      file: no
      string: '{"data":[{"number":207,"status":"completed","email":"robe2037@umn.edu","downloadLinks":{"stataCommandFile":{"url":"https://api.ipums.org/downloads/usa/api/v1/extracts/2002402/usa_00207.do","bytes":10917,"sha256":"9dd9f020f71b738454ceca911075d1509faed303665e6380e0bc6582626aeee3"},"rCommandFile":{"url":"https://api.ipums.org/downloads/usa/api/v1/extracts/2002402/usa_00207.R","bytes":406,"sha256":"e8aa2221d0ca2ed524250df378e73108907a946f59fb8e5bbbed10ff9a2c401d"},"basicCodebook":{"url":"https://api.ipums.org/downloads/usa/api/v1/extracts/2002402/usa_00207.cbk","bytes":7494,"sha256":"e08c06a8c2e5cd9b8a527694dc96ab8d862c066d7edb76a1f427d79536a3560f"},"ddiCodebook":{"url":"https://api.ipums.org/downloads/usa/api/v1/extracts/2002402/usa_00207.xml","bytes":35770,"sha256":"4294cb8b9bf22c87d49c3dfa7fbd501937a3fe9320ae950dbfa2f1b2c9a4356b"},"spssCommandFile":{"url":"https://api.ipums.org/downloads/usa/api/v1/extracts/2002402/usa_00207.sps","bytes":6122,"sha256":"d45eaee71a95a17bb7f9ef101a382cdcb23c329deca0a9e348d8a5283a2b3a26"},"sasCommandFile":{"url":"https://api.ipums.org/downloads/usa/api/v1/extracts/2002402/usa_00207.sas","bytes":6118,"sha256":"aba9e4901a216259ab5b2e8b7744c3a5698ea0531f4c454e1fc283dcff00cd7e"},"data":{"url":"https://api.ipums.org/downloads/usa/api/v1/extracts/2002402/usa_00207.dat.gz","bytes":167521,"sha256":"3e034a707a699ff5136aa76958712d3a05c02dd782b8e573e7545ecaf911318a"}},"extractDefinition":{"version":2,"dataStructure":{"rectangular":{"on":"P"}},"dataFormat":"fixed_width","caseSelectWho":"individuals","description":"Test
        extract","samples":{"us2017b":{}},"variables":{"YEAR":{"preselected":true},"SAMPLE":{"preselected":true},"SERIAL":{"preselected":true},"CBSERIAL":{"preselected":true},"HHWT":{"preselected":true},"GQ":{"preselected":true},"PERNUM":{"preselected":true},"PERWT":{"preselected":true}},"collection":"usa"}},{"number":206,"status":"completed","email":"robe2037@umn.edu","downloadLinks":{"basicCodebook":{"url":"https://api.ipums.org/downloads/usa/api/v1/extracts/2002398/usa_00206.cbk","bytes":25356,"sha256":"92ee5376d84f04d2bac25949753aeb698ec01eb648c573061a9e6ed7a79f8197"},"ddiCodebook":{"url":"https://api.ipums.org/downloads/usa/api/v1/extracts/2002398/usa_00206.xml","bytes":92152,"sha256":"b8786e48b7be5945058e3601dff18695914f65857b48d7d7a183536365c58a21"},"data":{"url":"https://api.ipums.org/downloads/usa/api/v1/extracts/2002398/usa_00206.dat.gz","bytes":83827507,"sha256":"9ac6f484e0f9cc62aec1d3a87c92ac74cc0a518747d6814ea2b6292ade3f8bcf"},"rCommandFile":{"url":"https://api.ipums.org/downloads/usa/api/v1/extracts/2002398/usa_00206.R","bytes":406,"sha256":"9fa5f59ccecd1160760701db31073dd780c29de804f478f9fb79e2ef22c09e0e"},"sasCommandFile":{"url":"https://api.ipums.org/downloads/usa/api/v1/extracts/2002398/usa_00206.sas","bytes":18543,"sha256":"fa8e254557a8c1c195d6d02dc6a6e1b43964e03cd721b18b636900cab4dffb1f"},"stataCommandFile":{"url":"https://api.ipums.org/downloads/usa/api/v1/extracts/2002398/usa_00206.do","bytes":34951,"sha256":"aebdfb4d157a6f90084cf631db146270799166de7a257a82f6894305b15c6b47"},"spssCommandFile":{"url":"https://api.ipums.org/downloads/usa/api/v1/extracts/2002398/usa_00206.sps","bytes":19145,"sha256":"9d76a7ce8c69560dc6e4a5d3d7efb05f93c63ebe7e1dc9acbb64760a4891640d"}},"extractDefinition":{"version":2,"dataStructure":{"rectangular":{"on":"P"}},"dataFormat":"fixed_width","caseSelectWho":"individuals","description":"USA
        extract for API vignette","samples":{"us2018a":{},"us2019a":{}},"variables":{"YEAR":{"preselected":true},"SAMPLE":{"preselected":true},"SERIAL":{"preselected":true},"CBSERIAL":{"preselected":true},"HHWT":{"preselected":true},"CLUSTER":{"preselected":true},"STATEFIP":{},"STRATA":{"preselected":true},"GQ":{"preselected":true},"PERNUM":{"preselected":true},"PERWT":{"preselected":true},"SEX":{},"AGE":{},"MARST":{},"RACE":{}},"collection":"usa"}}],"totalCount":207,"pageNumber":1,"pageSize":2,"links":{"previousPage":null,"nextPage":"https://api.ipums.org/extracts/?collection=usa\u0026pageNumber=2\u0026pageSize=2\u0026version=2"}}'
  recorded_at: 2023-04-06 22:51:09 GMT
  recorded_with: vcr/1.2.0, webmockr/0.9.0
