http_interactions:
- request:
    method: get
    uri: https://api.ipums.org/extracts/?collection=nhgis&version=2&pageNumber=1&pageSize=2
    body:
      encoding: ''
      string: ''
    headers:
      Accept: application/json, text/xml, application/xml, */*
      Content-Type: application/json
      Authorization: <<<IPUMS_API_KEY>>>
  response:
    status:
      status_code: 200
      category: Success
      reason: OK
      message: 'Success: (200) OK'
    headers:
      cache-control: max-age=0, private, must-revalidate
      content-type: application/json; charset=utf-8
      date: Thu, 06 Apr 2023 22:51:10 GMT
      etag: W/"e336e35a6fe82cf359249a108459f452"
      referrer-policy: strict-origin-when-cross-origin
      server: nginx/1.18.0
      vary: Origin
      x-content-type-options: nosniff
      x-download-options: noopen
      x-frame-options: SAMEORIGIN
      x-permitted-cross-domain-policies: none
      x-ratelimit-limit: '-1'
      x-ratelimit-remaining: '0'
      x-ratelimit-reset: '0'
      x-request-id: 4ba9403c-cece-4470-addf-e3b7d6b437e7
      x-runtime: '0.607391'
      x-xss-protection: '0'
      content-length: '1856'
    body:
      encoding: ''
      file: no
      string: '{"data":[{"number":1154,"status":"completed","email":"robe2037@umn.edu","downloadLinks":{"codebookPreview":{"url":"https://api.ipums.org/downloads/nhgis/api/v1/extracts/2002404/nhgis1154_csv_PREVIEW.zip","bytes":10007,"sha256":null},"tableData":{"url":"https://api.ipums.org/downloads/nhgis/api/v1/extracts/2002404/nhgis1154_csv.zip","bytes":1452350,"sha256":null},"gisData":{"url":"https://api.ipums.org/downloads/nhgis/api/v1/extracts/2002404/nhgis1154_shape.zip","bytes":510593,"sha256":null}},"extractDefinition":{"dataFormat":"csv_no_header","description":"Extract
        for R client testing","datasets":{"2014_2018_ACS5a":{"dataTables":["B01001","B01002"],"geogLevels":["nation"],"breakdownValues":["bs32.ge00"]},"2015_2019_ACS5a":{"dataTables":["B01001","B01002"],"geogLevels":["blck_grp"],"breakdownValues":["bs32.ge00"]}},"timeSeriesTables":{"CW3":{"geogLevels":["state"]}},"timeSeriesTableLayout":"time_by_row_layout","shapefiles":["110_blck_grp_2019_tl2019"],"geographicExtents":["110","420"],"breakdownAndDataTypeLayout":"single_file","version":2,"collection":"nhgis"}},{"number":1153,"status":"completed","email":"robe2037@umn.edu","downloadLinks":{"codebookPreview":{"url":"https://api.ipums.org/downloads/nhgis/api/v1/extracts/2002399/nhgis1153_csv_PREVIEW.zip","bytes":2616,"sha256":null},"tableData":{"url":"https://api.ipums.org/downloads/nhgis/api/v1/extracts/2002399/nhgis1153_csv.zip","bytes":7046,"sha256":null}},"extractDefinition":{"dataFormat":"csv_no_header","description":"NHGIS
        extract for API vignette","datasets":{"2010_SF1a":{"dataTables":["P1","P2"],"geogLevels":["state"],"breakdownValues":["bs32.ge00"]}},"version":2,"collection":"nhgis"}}],"totalCount":1154,"pageNumber":1,"pageSize":2,"links":{"previousPage":null,"nextPage":"https://api.ipums.org/extracts/?collection=nhgis\u0026pageNumber=2\u0026pageSize=2\u0026version=2"}}'
  recorded_at: 2023-04-06 22:51:10 GMT
  recorded_with: vcr/1.2.0, webmockr/0.9.0
