http_interactions:
- request:
    method: get
    uri: https://api.ipums.org/extracts/?collection=cps&version=2&pageNumber=1&pageSize=10
    body:
      encoding: ''
      string: ''
    headers:
      Accept: application/json, text/xml, application/xml, */*
      Content-Type: application/json
      Authorization: <<<IPUMS_API_KEY>>>
  response:
    status:
      status_code: 200
      category: Success
      reason: OK
      message: 'Success: (200) OK'
    headers:
      cache-control: max-age=0, private, must-revalidate
      content-type: application/json; charset=utf-8
      date: Thu, 06 Apr 2023 22:46:24 GMT
      etag: W/"e7e307e8e547f931357239c7277488ad"
      referrer-policy: strict-origin-when-cross-origin
      server: nginx/1.18.0
      vary: Origin
      x-content-type-options: nosniff
      x-download-options: noopen
      x-frame-options: SAMEORIGIN
      x-permitted-cross-domain-policies: none
      x-ratelimit-limit: '-1'
      x-ratelimit-remaining: '0'
      x-ratelimit-reset: '0'
      x-request-id: 9a4e9bdd-7f25-4fbb-8d44-e3e26954d7ea
      x-runtime: '0.351714'
      x-xss-protection: '0'
      content-length: '19445'
    body:
      encoding: ''
      file: no
      string: '{"data":[{"number":72,"status":"completed","email":"robe2037@umn.edu","downloadLinks":{"ddiCodebook":{"url":"https://api.ipums.org/downloads/cps/api/v1/extracts/2002403/cps_00072.xml","bytes":31665,"sha256":"9a6fda4f4b2d70055b20d338669b5d47568814c8bb3fa016f4b763a7fdd17a1b"},"sasCommandFile":{"url":"https://api.ipums.org/downloads/cps/api/v1/extracts/2002403/cps_00072.sas","bytes":4045,"sha256":"93ebaeb2e2b24e4fbc0f6750d69fc707f52451430d725093e45fb2327da12960"},"spssCommandFile":{"url":"https://api.ipums.org/downloads/cps/api/v1/extracts/2002403/cps_00072.sps","bytes":3894,"sha256":"cc619085ff43b8c3e7973bb27692a2771eb53b2319c6269b9a11f5e8434fb238"},"rCommandFile":{"url":"https://api.ipums.org/downloads/cps/api/v1/extracts/2002403/cps_00072.R","bytes":406,"sha256":"40378ed179a3e368b72d16ccbbaaf82e8caf1290cfe435a3596f9681fd857c93"},"basicCodebook":{"url":"https://api.ipums.org/downloads/cps/api/v1/extracts/2002403/cps_00072.cbk","bytes":5901,"sha256":"b32f7baf7139ab5799683602ec7302fed2f252fefa5cdfbff6f37f6e2e19a055"},"data":{"url":"https://api.ipums.org/downloads/cps/api/v1/extracts/2002403/cps_00072.dat.gz","bytes":2440152,"sha256":"a23b17944b5dc635071a3983afb1bae270807b97674bc8e7c422c34c7fe4bd93"},"stataCommandFile":{"url":"https://api.ipums.org/downloads/cps/api/v1/extracts/2002403/cps_00072.do","bytes":7764,"sha256":"2c4e2737abc46a1722bd97a071b4502cb01bad83bdc7fb4232101cdbd07c3b8c"}},"extractDefinition":{"version":2,"dataStructure":{"rectangular":{"on":"P"}},"dataFormat":"fixed_width","caseSelectWho":"individuals","description":"Compare
        age-sex-race breakdowns 1976","samples":{"cps1976_01s":{},"cps1976_02b":{}},"variables":{"YEAR":{"preselected":true},"SERIAL":{"preselected":true},"MONTH":{"preselected":true},"CPSID":{"preselected":true},"MISH":{},"PERNUM":{"preselected":true},"WTFINL":{"preselected":true},"CPSIDP":{"preselected":true},"UH_SEX_B1":{},"AGE":{},"SEX":{},"RACE":{}},"collection":"cps"}},{"number":71,"status":"completed","email":"robe2037@umn.edu","downloadLinks":{"rCommandFile":{"url":"https://api.ipums.org/downloads/cps/api/v1/extracts/2002325/cps_00071.R","bytes":406,"sha256":"ad8f5ab4304618f56bf6876ddf17f693af1c928778b292a40d7d5807f4c25a34"},"basicCodebook":{"url":"https://api.ipums.org/downloads/cps/api/v1/extracts/2002325/cps_00071.cbk","bytes":5901,"sha256":"b32f7baf7139ab5799683602ec7302fed2f252fefa5cdfbff6f37f6e2e19a055"},"spssCommandFile":{"url":"https://api.ipums.org/downloads/cps/api/v1/extracts/2002325/cps_00071.sps","bytes":3894,"sha256":"bd5c4b9fcd501fea290ff764c35749f3bdadf59b156e207542799b4add0d56e6"},"stataCommandFile":{"url":"https://api.ipums.org/downloads/cps/api/v1/extracts/2002325/cps_00071.do","bytes":7764,"sha256":"3d481b0a56d576cb4033b028171e4cf7ce64dd9e564cc643b5faf4dd5a128b7d"},"data":{"url":"https://api.ipums.org/downloads/cps/api/v1/extracts/2002325/cps_00071.dat.gz","bytes":2440152,"sha256":"a23b17944b5dc635071a3983afb1bae270807b97674bc8e7c422c34c7fe4bd93"},"sasCommandFile":{"url":"https://api.ipums.org/downloads/cps/api/v1/extracts/2002325/cps_00071.sas","bytes":4045,"sha256":"c24bea121ac400f5a3b3010c0eb7cc3395d31653cc0639222753c25e4cd33124"},"ddiCodebook":{"url":"https://api.ipums.org/downloads/cps/api/v1/extracts/2002325/cps_00071.xml","bytes":31665,"sha256":"da26efdba458213460e2091e44c6d94449510c11d6aa738ad74fcf5340cc942e"}},"extractDefinition":{"version":2,"dataStructure":{"rectangular":{"on":"P"}},"dataFormat":"fixed_width","caseSelectWho":"individuals","description":"Compare
        age-sex-race breakdowns 1976","samples":{"cps1976_01s":{},"cps1976_02b":{}},"variables":{"YEAR":{"preselected":true},"SERIAL":{"preselected":true},"MONTH":{"preselected":true},"CPSID":{"preselected":true},"MISH":{},"PERNUM":{"preselected":true},"WTFINL":{"preselected":true},"CPSIDP":{"preselected":true},"UH_SEX_B1":{},"AGE":{},"SEX":{},"RACE":{}},"collection":"cps"}},{"number":70,"status":"completed","email":"robe2037@umn.edu","downloadLinks":{"ddiCodebook":{"url":"https://api.ipums.org/downloads/cps/api/v1/extracts/2001590/cps_00070.xml","bytes":31665,"sha256":"0a2773d5b5180022d011e8613c400a3f1b11aa870da52b16e0c1b1085d9a07c5"},"spssCommandFile":{"url":"https://api.ipums.org/downloads/cps/api/v1/extracts/2001590/cps_00070.sps","bytes":3894,"sha256":"4d16c462265f86dc0ea56f89e0ad985bae48f021643537928be89931414c31b9"},"rCommandFile":{"url":"https://api.ipums.org/downloads/cps/api/v1/extracts/2001590/cps_00070.R","bytes":406,"sha256":"90e3195ceaf445a36101971d985309f69d2934c301080e0e6b85c6076a904aa5"},"basicCodebook":{"url":"https://api.ipums.org/downloads/cps/api/v1/extracts/2001590/cps_00070.cbk","bytes":5901,"sha256":"b32f7baf7139ab5799683602ec7302fed2f252fefa5cdfbff6f37f6e2e19a055"},"sasCommandFile":{"url":"https://api.ipums.org/downloads/cps/api/v1/extracts/2001590/cps_00070.sas","bytes":4045,"sha256":"439411532de8c8fac44f2ea834328c38d5977f9ad4f6e8e2a29d6ad2e614a5c7"},"data":{"url":"https://api.ipums.org/downloads/cps/api/v1/extracts/2001590/cps_00070.dat.gz","bytes":2440152,"sha256":"a23b17944b5dc635071a3983afb1bae270807b97674bc8e7c422c34c7fe4bd93"},"stataCommandFile":{"url":"https://api.ipums.org/downloads/cps/api/v1/extracts/2001590/cps_00070.do","bytes":7764,"sha256":"e363c7bdbeb5c868ff65300d7ff9907f15013751678cdb900c86fe9ff8a8af1b"}},"extractDefinition":{"version":2,"dataStructure":{"rectangular":{"on":"P"}},"dataFormat":"fixed_width","caseSelectWho":"individuals","description":"Compare
        age-sex-race breakdowns 1976","samples":{"cps1976_01s":{},"cps1976_02b":{}},"variables":{"YEAR":{"preselected":true},"SERIAL":{"preselected":true},"MONTH":{"preselected":true},"CPSID":{"preselected":true},"MISH":{},"PERNUM":{"preselected":true},"WTFINL":{"preselected":true},"CPSIDP":{"preselected":true},"UH_SEX_B1":{},"AGE":{},"SEX":{},"RACE":{}},"collection":"cps"}},{"number":69,"status":"completed","email":"robe2037@umn.edu","downloadLinks":{"rCommandFile":{"url":"https://api.ipums.org/downloads/cps/api/v1/extracts/2001584/cps_00069.R","bytes":406,"sha256":"04c9436bcdb27d6213377ff9aee8cd6586f72645fdc73185cc7fab478afacd1b"},"stataCommandFile":{"url":"https://api.ipums.org/downloads/cps/api/v1/extracts/2001584/cps_00069.do","bytes":7764,"sha256":"a982634e6c5388b9d0ed2b8a88d0c5280464bfeb7cce98966aec29b34d8d7700"},"basicCodebook":{"url":"https://api.ipums.org/downloads/cps/api/v1/extracts/2001584/cps_00069.cbk","bytes":5901,"sha256":"b32f7baf7139ab5799683602ec7302fed2f252fefa5cdfbff6f37f6e2e19a055"},"spssCommandFile":{"url":"https://api.ipums.org/downloads/cps/api/v1/extracts/2001584/cps_00069.sps","bytes":3894,"sha256":"72ee012c4b838fe7f9420f01f323fe9dedc867ff2f2129cb6e017f7d56797c33"},"ddiCodebook":{"url":"https://api.ipums.org/downloads/cps/api/v1/extracts/2001584/cps_00069.xml","bytes":31665,"sha256":"d81cdd997be997538dc27d54575dbd1c048ab87a5fda027f285a3af5a470820f"},"data":{"url":"https://api.ipums.org/downloads/cps/api/v1/extracts/2001584/cps_00069.dat.gz","bytes":2440152,"sha256":"a23b17944b5dc635071a3983afb1bae270807b97674bc8e7c422c34c7fe4bd93"},"sasCommandFile":{"url":"https://api.ipums.org/downloads/cps/api/v1/extracts/2001584/cps_00069.sas","bytes":4045,"sha256":"868526bfb999f3147caa5a075213813c9710e091e31f8d9b80ac6330a97882c2"}},"extractDefinition":{"version":2,"dataStructure":{"rectangular":{"on":"P"}},"dataFormat":"fixed_width","caseSelectWho":"individuals","description":"Compare
        age-sex-race breakdowns 1976","samples":{"cps1976_01s":{},"cps1976_02b":{}},"variables":{"YEAR":{"preselected":true},"SERIAL":{"preselected":true},"MONTH":{"preselected":true},"CPSID":{"preselected":true},"MISH":{},"PERNUM":{"preselected":true},"WTFINL":{"preselected":true},"CPSIDP":{"preselected":true},"UH_SEX_B1":{},"AGE":{},"SEX":{},"RACE":{}},"collection":"cps"}},{"number":68,"status":"completed","email":"robe2037@umn.edu","downloadLinks":{"data":{"url":"https://api.ipums.org/downloads/cps/api/v1/extracts/2001567/cps_00068.dat.gz","bytes":2440152,"sha256":"a23b17944b5dc635071a3983afb1bae270807b97674bc8e7c422c34c7fe4bd93"},"ddiCodebook":{"url":"https://api.ipums.org/downloads/cps/api/v1/extracts/2001567/cps_00068.xml","bytes":31665,"sha256":"e4e3462708d5f9b5788f6039541d63b805e7f10d6ee19fb55e84194f83c5be4a"},"sasCommandFile":{"url":"https://api.ipums.org/downloads/cps/api/v1/extracts/2001567/cps_00068.sas","bytes":4045,"sha256":"3e46f3a876dc2b704d9af88409070317820786595bc794e86353e1d929622a41"},"spssCommandFile":{"url":"https://api.ipums.org/downloads/cps/api/v1/extracts/2001567/cps_00068.sps","bytes":3894,"sha256":"62618eddeb93c83f187172fec591a40290f38c2fd0bff4277a30ed88634ac65d"},"basicCodebook":{"url":"https://api.ipums.org/downloads/cps/api/v1/extracts/2001567/cps_00068.cbk","bytes":5901,"sha256":"b32f7baf7139ab5799683602ec7302fed2f252fefa5cdfbff6f37f6e2e19a055"},"rCommandFile":{"url":"https://api.ipums.org/downloads/cps/api/v1/extracts/2001567/cps_00068.R","bytes":406,"sha256":"6a66fd40553be791126779868e0728720bdfef358a56bef15f97c3251d53018d"},"stataCommandFile":{"url":"https://api.ipums.org/downloads/cps/api/v1/extracts/2001567/cps_00068.do","bytes":7764,"sha256":"4599dc8873917152bdc495509b8b015c0bec8b947e1448ef3464fbcd71f83ad8"}},"extractDefinition":{"version":2,"dataStructure":{"rectangular":{"on":"P"}},"dataFormat":"fixed_width","caseSelectWho":"individuals","description":"Compare
        age-sex-race breakdowns 1976","samples":{"cps1976_01s":{},"cps1976_02b":{}},"variables":{"YEAR":{"preselected":true},"SERIAL":{"preselected":true},"MONTH":{"preselected":true},"CPSID":{"preselected":true},"MISH":{},"PERNUM":{"preselected":true},"WTFINL":{"preselected":true},"CPSIDP":{"preselected":true},"UH_SEX_B1":{},"AGE":{},"SEX":{},"RACE":{}},"collection":"cps"}},{"number":67,"status":"completed","email":"robe2037@umn.edu","downloadLinks":{"basicCodebook":{"url":"https://api.ipums.org/downloads/cps/api/v1/extracts/2001532/cps_00067.cbk","bytes":5901,"sha256":"b32f7baf7139ab5799683602ec7302fed2f252fefa5cdfbff6f37f6e2e19a055"},"spssCommandFile":{"url":"https://api.ipums.org/downloads/cps/api/v1/extracts/2001532/cps_00067.sps","bytes":3894,"sha256":"a9eb2ba01a66354067bb137e71f016c55d5d8e16cb6e2065dc7d23eec482c2ae"},"rCommandFile":{"url":"https://api.ipums.org/downloads/cps/api/v1/extracts/2001532/cps_00067.R","bytes":406,"sha256":"6ad3ae113f0886bef3c1350d98f2e35d1286ac0b4e4cbbcdb974212c7380af5f"},"ddiCodebook":{"url":"https://api.ipums.org/downloads/cps/api/v1/extracts/2001532/cps_00067.xml","bytes":31665,"sha256":"793f522507a10bf46eee6942adb7352a16c58a1c44e83c31f74c5501b59f7b2e"},"data":{"url":"https://api.ipums.org/downloads/cps/api/v1/extracts/2001532/cps_00067.dat.gz","bytes":2440152,"sha256":"a23b17944b5dc635071a3983afb1bae270807b97674bc8e7c422c34c7fe4bd93"},"stataCommandFile":{"url":"https://api.ipums.org/downloads/cps/api/v1/extracts/2001532/cps_00067.do","bytes":7764,"sha256":"f50efa98842a16c390bbbfb6c00ed65164fc7ec8b213019e54797ebae5981f68"},"sasCommandFile":{"url":"https://api.ipums.org/downloads/cps/api/v1/extracts/2001532/cps_00067.sas","bytes":4045,"sha256":"19deb07995391aa00b40f340c61e69e84c421b2bb2c43b9e6f52a6fac4e4f986"}},"extractDefinition":{"version":2,"dataStructure":{"rectangular":{"on":"P"}},"dataFormat":"fixed_width","caseSelectWho":"individuals","description":"Compare
        age-sex-race breakdowns 1976","samples":{"cps1976_01s":{},"cps1976_02b":{}},"variables":{"YEAR":{"preselected":true},"SERIAL":{"preselected":true},"MONTH":{"preselected":true},"CPSID":{"preselected":true},"MISH":{},"PERNUM":{"preselected":true},"WTFINL":{"preselected":true},"CPSIDP":{"preselected":true},"UH_SEX_B1":{},"AGE":{},"SEX":{},"RACE":{}},"collection":"cps"}},{"number":66,"status":"completed","email":"robe2037@umn.edu","downloadLinks":{"rCommandFile":{"url":"https://api.ipums.org/downloads/cps/api/v1/extracts/2001521/cps_00066.R","bytes":406,"sha256":"f7c0cd7805009f408bf4ae83ec0c048f005de87991dae1538caf7902bad3400c"},"basicCodebook":{"url":"https://api.ipums.org/downloads/cps/api/v1/extracts/2001521/cps_00066.cbk","bytes":5901,"sha256":"b32f7baf7139ab5799683602ec7302fed2f252fefa5cdfbff6f37f6e2e19a055"},"data":{"url":"https://api.ipums.org/downloads/cps/api/v1/extracts/2001521/cps_00066.dat.gz","bytes":2440152,"sha256":"a23b17944b5dc635071a3983afb1bae270807b97674bc8e7c422c34c7fe4bd93"},"sasCommandFile":{"url":"https://api.ipums.org/downloads/cps/api/v1/extracts/2001521/cps_00066.sas","bytes":4045,"sha256":"c56291657203dbdc0532f1b7a4beeef1a142beb77c705f3549e20742de55b85d"},"spssCommandFile":{"url":"https://api.ipums.org/downloads/cps/api/v1/extracts/2001521/cps_00066.sps","bytes":3894,"sha256":"f0d120b70a6b9b869b40503e8c5d68eb6274ed961585762f21ca048d19b979e6"},"stataCommandFile":{"url":"https://api.ipums.org/downloads/cps/api/v1/extracts/2001521/cps_00066.do","bytes":7764,"sha256":"a451de731626ef8ddb5819ebb0d8df558d527c9116b4fa3290f7f8ffbe23d6e9"},"ddiCodebook":{"url":"https://api.ipums.org/downloads/cps/api/v1/extracts/2001521/cps_00066.xml","bytes":31665,"sha256":"bcd85ad7883fe034a7e51ee57b7f515c641c7449912ddea45c2232c33e1ad9eb"}},"extractDefinition":{"version":2,"dataStructure":{"rectangular":{"on":"P"}},"dataFormat":"fixed_width","caseSelectWho":"individuals","description":"Compare
        age-sex-race breakdowns 1976","samples":{"cps1976_01s":{},"cps1976_02b":{}},"variables":{"YEAR":{"preselected":true},"SERIAL":{"preselected":true},"MONTH":{"preselected":true},"CPSID":{"preselected":true},"MISH":{},"PERNUM":{"preselected":true},"WTFINL":{"preselected":true},"CPSIDP":{"preselected":true},"UH_SEX_B1":{},"AGE":{},"SEX":{},"RACE":{}},"collection":"cps"}},{"number":65,"status":"completed","email":"robe2037@umn.edu","downloadLinks":{"ddiCodebook":{"url":"https://api.ipums.org/downloads/cps/api/v1/extracts/2001281/cps_00065.xml","bytes":31665,"sha256":"11144d1a732a91792e3b0c03a89718894af6aa88a3df913dd2df36c3ea565de0"},"data":{"url":"https://api.ipums.org/downloads/cps/api/v1/extracts/2001281/cps_00065.dat.gz","bytes":2440152,"sha256":"a23b17944b5dc635071a3983afb1bae270807b97674bc8e7c422c34c7fe4bd93"},"rCommandFile":{"url":"https://api.ipums.org/downloads/cps/api/v1/extracts/2001281/cps_00065.R","bytes":406,"sha256":"1ed57414babff8ef65b1c3b21193e5ccb4873b0bff3da9d72cef58daa106ecfe"},"spssCommandFile":{"url":"https://api.ipums.org/downloads/cps/api/v1/extracts/2001281/cps_00065.sps","bytes":3894,"sha256":"0b83956b4a008fd3a263a544e38994316f6705b74ba0f9036e1cb0f4891ddac7"},"sasCommandFile":{"url":"https://api.ipums.org/downloads/cps/api/v1/extracts/2001281/cps_00065.sas","bytes":4045,"sha256":"556a3d534780e01a45a17ddc6b1233bd66abdf6164a700cabb563c554c42ac4a"},"stataCommandFile":{"url":"https://api.ipums.org/downloads/cps/api/v1/extracts/2001281/cps_00065.do","bytes":7764,"sha256":"3dfe46db2cd3e80f14cce772cd8799e34a72b573918b6a9eb358fe641fd912b6"},"basicCodebook":{"url":"https://api.ipums.org/downloads/cps/api/v1/extracts/2001281/cps_00065.cbk","bytes":5901,"sha256":"b32f7baf7139ab5799683602ec7302fed2f252fefa5cdfbff6f37f6e2e19a055"}},"extractDefinition":{"version":2,"dataStructure":{"rectangular":{"on":"P"}},"dataFormat":"fixed_width","caseSelectWho":"individuals","description":"Compare
        age-sex-race breakdowns 1976","samples":{"cps1976_01s":{},"cps1976_02b":{}},"variables":{"YEAR":{"preselected":true},"SERIAL":{"preselected":true},"MONTH":{"preselected":true},"CPSID":{"preselected":true},"MISH":{},"PERNUM":{"preselected":true},"WTFINL":{"preselected":true},"CPSIDP":{"preselected":true},"UH_SEX_B1":{},"AGE":{},"SEX":{},"RACE":{}},"collection":"cps"}},{"number":64,"status":"completed","email":"robe2037@umn.edu","downloadLinks":{"data":{"url":"https://api.ipums.org/downloads/cps/api/v1/extracts/2000705/cps_00064.dat.gz","bytes":2440152,"sha256":"a23b17944b5dc635071a3983afb1bae270807b97674bc8e7c422c34c7fe4bd93"},"basicCodebook":{"url":"https://api.ipums.org/downloads/cps/api/v1/extracts/2000705/cps_00064.cbk","bytes":5901,"sha256":"b32f7baf7139ab5799683602ec7302fed2f252fefa5cdfbff6f37f6e2e19a055"},"spssCommandFile":{"url":"https://api.ipums.org/downloads/cps/api/v1/extracts/2000705/cps_00064.sps","bytes":3894,"sha256":"316ff3502ba6c7ef377b1321f9eb9a1b642fb8e56edcd72bb2f5c2ab63b133a0"},"rCommandFile":{"url":"https://api.ipums.org/downloads/cps/api/v1/extracts/2000705/cps_00064.R","bytes":406,"sha256":"145243e694c3a0371353ec50a4b90ae621065bb94a7c3566a959883d049f2781"},"ddiCodebook":{"url":"https://api.ipums.org/downloads/cps/api/v1/extracts/2000705/cps_00064.xml","bytes":31665,"sha256":"934ecf23bc5bf4a01ef855049f167be22665de193c76547f281003413825d528"},"stataCommandFile":{"url":"https://api.ipums.org/downloads/cps/api/v1/extracts/2000705/cps_00064.do","bytes":7764,"sha256":"37b41a842b7d69e6fcc68d9bb337011bba501b977ba6c6df4974f7ff6a52150f"},"sasCommandFile":{"url":"https://api.ipums.org/downloads/cps/api/v1/extracts/2000705/cps_00064.sas","bytes":4045,"sha256":"7f916f23d797ade400f899dcec0b27ce233ecd279b719e5d39454a8e338a589f"}},"extractDefinition":{"version":2,"dataStructure":{"rectangular":{"on":"P"}},"dataFormat":"fixed_width","caseSelectWho":"individuals","description":"Compare
        age-sex-race breakdowns 1976","samples":{"cps1976_01s":{},"cps1976_02b":{}},"variables":{"YEAR":{"preselected":true},"SERIAL":{"preselected":true},"MONTH":{"preselected":true},"CPSID":{"preselected":true},"MISH":{},"PERNUM":{"preselected":true},"WTFINL":{"preselected":true},"CPSIDP":{"preselected":true},"UH_SEX_B1":{},"AGE":{},"SEX":{},"RACE":{}},"collection":"cps"}},{"number":63,"status":"completed","email":"robe2037@umn.edu","downloadLinks":{"stataCommandFile":{"url":"https://api.ipums.org/downloads/cps/api/v1/extracts/2000695/cps_00063.do","bytes":7764,"sha256":"a6d27bbd897e5db68e9d9e31f1a199981d325db69eb3d86e4b119ab5b3ebcbe5"},"sasCommandFile":{"url":"https://api.ipums.org/downloads/cps/api/v1/extracts/2000695/cps_00063.sas","bytes":4045,"sha256":"4cdbb9bab9edf0c3cfdd4d3f1dde933a9b8ec8aeccee3d952f94a9d209114a0e"},"data":{"url":"https://api.ipums.org/downloads/cps/api/v1/extracts/2000695/cps_00063.dat.gz","bytes":2440152,"sha256":"a23b17944b5dc635071a3983afb1bae270807b97674bc8e7c422c34c7fe4bd93"},"basicCodebook":{"url":"https://api.ipums.org/downloads/cps/api/v1/extracts/2000695/cps_00063.cbk","bytes":5901,"sha256":"b32f7baf7139ab5799683602ec7302fed2f252fefa5cdfbff6f37f6e2e19a055"},"rCommandFile":{"url":"https://api.ipums.org/downloads/cps/api/v1/extracts/2000695/cps_00063.R","bytes":406,"sha256":"afb19b1c47b78ad1c997bce7d52520280845b641b4eadabd69d1e2ad26c93050"},"spssCommandFile":{"url":"https://api.ipums.org/downloads/cps/api/v1/extracts/2000695/cps_00063.sps","bytes":3894,"sha256":"257d0ecefe3fcf62c449497e3634669bfe661dea38a7fd40e2ee21ceede02b40"},"ddiCodebook":{"url":"https://api.ipums.org/downloads/cps/api/v1/extracts/2000695/cps_00063.xml","bytes":31665,"sha256":"040c750f5dd8232f0a33ced82a5392bcc76f2bc2f341be9fd0712ff0f6a08506"}},"extractDefinition":{"version":2,"dataStructure":{"rectangular":{"on":"P"}},"dataFormat":"fixed_width","caseSelectWho":"individuals","description":"Compare
        age-sex-race breakdowns 1976","samples":{"cps1976_01s":{},"cps1976_02b":{}},"variables":{"YEAR":{"preselected":true},"SERIAL":{"preselected":true},"MONTH":{"preselected":true},"CPSID":{"preselected":true},"MISH":{},"PERNUM":{"preselected":true},"WTFINL":{"preselected":true},"CPSIDP":{"preselected":true},"UH_SEX_B1":{},"AGE":{},"SEX":{},"RACE":{}},"collection":"cps"}}],"totalCount":72,"pageNumber":1,"pageSize":10,"links":{"previousPage":null,"nextPage":"https://api.ipums.org/extracts/?collection=cps\u0026pageNumber=2\u0026pageSize=10\u0026version=2"}}'
  recorded_at: 2023-04-06 22:46:24 GMT
  recorded_with: vcr/1.2.0, webmockr/0.9.0
