http_interactions:
- request:
    method: get
    uri: https://api.ipums.org/extracts/?collection=usa&version=2&pageNumber=1&pageSize=10
    body:
      encoding: ''
      string: ''
    headers:
      Accept: application/json, text/xml, application/xml, */*
      Content-Type: application/json
      Authorization: <<<IPUMS_API_KEY>>>
  response:
    status:
      status_code: 200
      category: Success
      reason: OK
      message: 'Success: (200) OK'
    headers:
      cache-control: max-age=0, private, must-revalidate
      content-type: application/json; charset=utf-8
      date: Thu, 20 Apr 2023 19:52:06 GMT
      etag: W/"07e0285c312e61c8804fa40bfcf400e2"
      referrer-policy: strict-origin-when-cross-origin
      server: nginx/1.18.0
      vary: Origin
      x-content-type-options: nosniff
      x-download-options: noopen
      x-frame-options: SAMEORIGIN
      x-permitted-cross-domain-policies: none
      x-ratelimit-limit: '-1'
      x-ratelimit-remaining: '0'
      x-ratelimit-reset: '0'
      x-request-id: 4ee904ad-8160-45ef-b9d3-a0e06bf837db
      x-runtime: '0.564448'
      x-xss-protection: '0'
      content-length: '20091'
    body:
      encoding: ''
      file: no
      string: '{"data":[{"number":243,"status":"completed","email":"robe2037@umn.edu","downloadLinks":{"rCommandFile":{"url":"https://api.ipums.org/downloads/usa/api/v1/extracts/2014033/usa_00243.R","bytes":406,"sha256":"22bd0201d5a5ff43aa3645366713d8dea41d96bdddf168dac38206eb42052f7c"},"basicCodebook":{"url":"https://api.ipums.org/downloads/usa/api/v1/extracts/2014033/usa_00243.cbk","bytes":19307,"sha256":"038fb8fc1e9e0dae0563a9cb1bb9d633f8e292277c00a0f995d017a2d9d667e7"},"data":{"url":"https://api.ipums.org/downloads/usa/api/v1/extracts/2014033/usa_00243.dat.gz","bytes":7276,"sha256":"99ddd6ab708cdf2ac7229f0e48c5093ba126dd57efb14d40ccd14b2e99d427ef"},"stataCommandFile":{"url":"https://api.ipums.org/downloads/usa/api/v1/extracts/2014033/usa_00243.do","bytes":25920,"sha256":"fcc5f5acadcbeaee831efd07d17d102ab25d8f963ada1ac1504e577b6316e4e4"},"sasCommandFile":{"url":"https://api.ipums.org/downloads/usa/api/v1/extracts/2014033/usa_00243.sas","bytes":14716,"sha256":"7012188f296d551a8a7551c19a1ef20a3369055af780fbc79a2c1f1e89981ccb"},"spssCommandFile":{"url":"https://api.ipums.org/downloads/usa/api/v1/extracts/2014033/usa_00243.sps","bytes":15065,"sha256":"400867280219e69ad2234e67790e6b2fed76a12f4c95a5bd31863f7956effc5e"},"ddiCodebook":{"url":"https://api.ipums.org/downloads/usa/api/v1/extracts/2014033/usa_00243.xml","bytes":68513,"sha256":"7682beeb553afdbbbeed4e8a3b627146ab132e42e32706f39d720a7b8cd446cc"}},"extractDefinition":{"version":2,"dataStructure":{"rectangular":{"on":"P"}},"dataFormat":"fixed_width","caseSelectWho":"individuals","description":"Test
        USA extract","samples":{"us2017b":{}},"variables":{"YEAR":{"preselected":true},"SAMPLE":{"preselected":true},"SERIAL":{"preselected":true},"CBSERIAL":{"preselected":true},"HHWT":{"preselected":true},"GQ":{"preselected":true},"PERNUM":{"preselected":true},"PERWT":{"preselected":true},"RACE":{"caseSelections":{"detailed":["801","802"]}}},"collection":"usa"}},{"number":242,"status":"completed","email":"robe2037@umn.edu","downloadLinks":{"rCommandFile":{"url":"https://api.ipums.org/downloads/usa/api/v1/extracts/2013979/usa_00242.R","bytes":406,"sha256":"cfcf1b56c7711e490413c1899b1f343f620ee4d73e08c72f82cbcf9bede31b55"},"basicCodebook":{"url":"https://api.ipums.org/downloads/usa/api/v1/extracts/2013979/usa_00242.cbk","bytes":19307,"sha256":"038fb8fc1e9e0dae0563a9cb1bb9d633f8e292277c00a0f995d017a2d9d667e7"},"data":{"url":"https://api.ipums.org/downloads/usa/api/v1/extracts/2013979/usa_00242.dat.gz","bytes":7276,"sha256":"99ddd6ab708cdf2ac7229f0e48c5093ba126dd57efb14d40ccd14b2e99d427ef"},"stataCommandFile":{"url":"https://api.ipums.org/downloads/usa/api/v1/extracts/2013979/usa_00242.do","bytes":25920,"sha256":"e196ef78f6cee4d527de46d30a8aa0d403757aec6b9e014d06877582747768c6"},"sasCommandFile":{"url":"https://api.ipums.org/downloads/usa/api/v1/extracts/2013979/usa_00242.sas","bytes":14716,"sha256":"e0883f48d75bdc98f699591da50f5e20d00a0c8a2e2ff51cd761be204e333440"},"spssCommandFile":{"url":"https://api.ipums.org/downloads/usa/api/v1/extracts/2013979/usa_00242.sps","bytes":15065,"sha256":"cbc5b689d800d468d30021e77670ffa5014b9ac9f544b4e46e922f579e29daf1"},"ddiCodebook":{"url":"https://api.ipums.org/downloads/usa/api/v1/extracts/2013979/usa_00242.xml","bytes":68513,"sha256":"8e7cc9090fd2f31dd3c0e9593b7bdcc4574766edda91db53381bf0c43f6bbbde"}},"extractDefinition":{"version":2,"dataStructure":{"rectangular":{"on":"P"}},"dataFormat":"fixed_width","caseSelectWho":"individuals","description":"Test
        USA extract","samples":{"us2017b":{}},"variables":{"YEAR":{"preselected":true},"SAMPLE":{"preselected":true},"SERIAL":{"preselected":true},"CBSERIAL":{"preselected":true},"HHWT":{"preselected":true},"GQ":{"preselected":true},"PERNUM":{"preselected":true},"PERWT":{"preselected":true},"RACE":{"caseSelections":{"detailed":["801","802"]}}},"collection":"usa"}},{"number":241,"status":"completed","email":"robe2037@umn.edu","downloadLinks":{"rCommandFile":{"url":"https://api.ipums.org/downloads/usa/api/v1/extracts/2013976/usa_00241.R","bytes":406,"sha256":"ed02bd1b54eb525332d330fca42a8bab4c2646aa669aadbddaf9c5e224b1236b"},"basicCodebook":{"url":"https://api.ipums.org/downloads/usa/api/v1/extracts/2013976/usa_00241.cbk","bytes":19307,"sha256":"038fb8fc1e9e0dae0563a9cb1bb9d633f8e292277c00a0f995d017a2d9d667e7"},"data":{"url":"https://api.ipums.org/downloads/usa/api/v1/extracts/2013976/usa_00241.dat.gz","bytes":7276,"sha256":"99ddd6ab708cdf2ac7229f0e48c5093ba126dd57efb14d40ccd14b2e99d427ef"},"stataCommandFile":{"url":"https://api.ipums.org/downloads/usa/api/v1/extracts/2013976/usa_00241.do","bytes":25920,"sha256":"808de08bb9268f3e159e57d2d6fc935082feeac8debc2c7f70412066732caf98"},"sasCommandFile":{"url":"https://api.ipums.org/downloads/usa/api/v1/extracts/2013976/usa_00241.sas","bytes":14716,"sha256":"e1cc66a943feb23efbe1028190fa2eb4c2702ddb44aef1e45e8584baace7d9d8"},"spssCommandFile":{"url":"https://api.ipums.org/downloads/usa/api/v1/extracts/2013976/usa_00241.sps","bytes":15065,"sha256":"cef20771da214bc7e4264d85c022d8580cc5d823712085713e00a6db07d927a8"},"ddiCodebook":{"url":"https://api.ipums.org/downloads/usa/api/v1/extracts/2013976/usa_00241.xml","bytes":68513,"sha256":"1d4b8157fac3cdef7e5c18fe86822f394d6f6d052886c25b816fcef99809396e"}},"extractDefinition":{"version":2,"dataStructure":{"rectangular":{"on":"P"}},"dataFormat":"fixed_width","caseSelectWho":"individuals","description":"Test
        USA extract","samples":{"us2017b":{}},"variables":{"YEAR":{"preselected":true},"SAMPLE":{"preselected":true},"SERIAL":{"preselected":true},"CBSERIAL":{"preselected":true},"HHWT":{"preselected":true},"GQ":{"preselected":true},"PERNUM":{"preselected":true},"PERWT":{"preselected":true},"RACE":{"caseSelections":{"detailed":["801","802"]}}},"collection":"usa"}},{"number":240,"status":"completed","email":"robe2037@umn.edu","downloadLinks":{"rCommandFile":{"url":"https://api.ipums.org/downloads/usa/api/v1/extracts/2013923/usa_00240.R","bytes":406,"sha256":"ac29ca23ff8714a3a26b19ff6f709fe1f76ddb879d2759d9a700d0165b40f6bd"},"basicCodebook":{"url":"https://api.ipums.org/downloads/usa/api/v1/extracts/2013923/usa_00240.cbk","bytes":19307,"sha256":"038fb8fc1e9e0dae0563a9cb1bb9d633f8e292277c00a0f995d017a2d9d667e7"},"data":{"url":"https://api.ipums.org/downloads/usa/api/v1/extracts/2013923/usa_00240.dat.gz","bytes":7276,"sha256":"99ddd6ab708cdf2ac7229f0e48c5093ba126dd57efb14d40ccd14b2e99d427ef"},"stataCommandFile":{"url":"https://api.ipums.org/downloads/usa/api/v1/extracts/2013923/usa_00240.do","bytes":25920,"sha256":"cdce6c46faa4d6194f9c973536bb2817623973424c4bf7f4d2ea76088bc421f3"},"sasCommandFile":{"url":"https://api.ipums.org/downloads/usa/api/v1/extracts/2013923/usa_00240.sas","bytes":14716,"sha256":"96f2720c4b7b3e9af595ff7a666924c51e66a9640f43a47b0d2a8af1ef14378e"},"spssCommandFile":{"url":"https://api.ipums.org/downloads/usa/api/v1/extracts/2013923/usa_00240.sps","bytes":15065,"sha256":"4ff46b5e409416c0fe6d4f1cd1e4d1eb912551814a8754e90e6256de7889c5c2"},"ddiCodebook":{"url":"https://api.ipums.org/downloads/usa/api/v1/extracts/2013923/usa_00240.xml","bytes":68513,"sha256":"35d1b5f21d2356f05fc3f5b4d2732530127f6eb8334667ef387b57713787ec06"}},"extractDefinition":{"version":2,"dataStructure":{"rectangular":{"on":"P"}},"dataFormat":"fixed_width","caseSelectWho":"individuals","description":"Test
        USA extract","samples":{"us2017b":{}},"variables":{"YEAR":{"preselected":true},"SAMPLE":{"preselected":true},"SERIAL":{"preselected":true},"CBSERIAL":{"preselected":true},"HHWT":{"preselected":true},"GQ":{"preselected":true},"PERNUM":{"preselected":true},"PERWT":{"preselected":true},"RACE":{"caseSelections":{"detailed":["801","802"]}}},"collection":"usa"}},{"number":239,"status":"completed","email":"robe2037@umn.edu","downloadLinks":{"rCommandFile":{"url":"https://api.ipums.org/downloads/usa/api/v1/extracts/2012994/usa_00239.R","bytes":406,"sha256":"23a818aeaf73621db1970f53696e5995b4e9900c09bf3a3cbf7e8c6fc95fbf3e"},"basicCodebook":{"url":"https://api.ipums.org/downloads/usa/api/v1/extracts/2012994/usa_00239.cbk","bytes":37211,"sha256":"8fccf3c214a68b2871a21c80c8eb9b2bf23e2f637c10fea541ece6a3365b05d8"},"data":{"url":"https://api.ipums.org/downloads/usa/api/v1/extracts/2012994/usa_00239.dat.gz","bytes":2775,"sha256":"bb11789916854ea6f248922d8d6d0d747db7e6ef0bfedc3f5969f22888666bff"},"stataCommandFile":{"url":"https://api.ipums.org/downloads/usa/api/v1/extracts/2012994/usa_00239.do","bytes":54937,"sha256":"e8a6afb18389948fe88aee80c82df1afb6a50d20dcfc0d21d8aa81d058d3f47b"},"sasCommandFile":{"url":"https://api.ipums.org/downloads/usa/api/v1/extracts/2012994/usa_00239.sas","bytes":25243,"sha256":"d098917686b06e5cd5a0c4e16554d3ed37b5dd4613f46153f778c34be290630f"},"spssCommandFile":{"url":"https://api.ipums.org/downloads/usa/api/v1/extracts/2012994/usa_00239.sps","bytes":26661,"sha256":"34a07a2a31ff6af01ef509fb894bbb4f6892c951c50661e817a6eba37997e1b1"},"ddiCodebook":{"url":"https://api.ipums.org/downloads/usa/api/v1/extracts/2012994/usa_00239.xml","bytes":131641,"sha256":"29edb91338d4aec5b5852cd19aa46aa5513b817727dbc2057254a82f268ef01d"}},"extractDefinition":{"version":2,"dataStructure":{"rectangular":{"on":"P"}},"dataFormat":"fixed_width","caseSelectWho":"individuals","description":"Test
        USA extract","samples":{"us2017b":{}},"variables":{"YEAR":{"preselected":true},"SAMPLE":{"preselected":true},"SERIAL":{"preselected":true},"CBSERIAL":{"preselected":true},"HHWT":{"preselected":true},"GQ":{"preselected":true},"PERNUM":{"preselected":true},"PERWT":{"preselected":true},"SEX":{"dataQualityFlags":true,"attachedCharacteristics":["head"]},"AGE":{"attachedCharacteristics":["mother","father","mother2","father2"]},"MARST":{"caseSelections":{"general":["1"]}},"RACE":{"caseSelections":{"detailed":["801","802","810"]}}},"collection":"usa"}},{"number":238,"status":"completed","email":"robe2037@umn.edu","downloadLinks":{"rCommandFile":{"url":"https://api.ipums.org/downloads/usa/api/v1/extracts/2012980/usa_00238.R","bytes":406,"sha256":"383b626c088105334baf8dfed7fcfaa98d6ba6ef909f39e1f0aae1a8a1e5d79c"},"basicCodebook":{"url":"https://api.ipums.org/downloads/usa/api/v1/extracts/2012980/usa_00238.cbk","bytes":47527,"sha256":"c99470359d93a5c661f998295388d312e7036eb2477847f96febf5a401b65854"},"data":{"url":"https://api.ipums.org/downloads/usa/api/v1/extracts/2012980/usa_00238.dat.gz","bytes":60411880,"sha256":"5164ab387835d4d0a9355863d0fe0c73d8ed53584c42374d682fbad63935ce6f"},"stataCommandFile":{"url":"https://api.ipums.org/downloads/usa/api/v1/extracts/2012980/usa_00238.do","bytes":60236,"sha256":"d6f3e476e4aca0dd48fdb582515ecfbd6f835480471c522d962b17e7cb2e198c"},"sasCommandFile":{"url":"https://api.ipums.org/downloads/usa/api/v1/extracts/2012980/usa_00238.sas","bytes":27817,"sha256":"5386bfe3582457a69a9a29a615fd0006e5ea27a0c0dd7e869d9ecfa0cb8a74dd"},"spssCommandFile":{"url":"https://api.ipums.org/downloads/usa/api/v1/extracts/2012980/usa_00238.sps","bytes":29273,"sha256":"5599cb0e41610d2e4864dd56c4dd13ef38b806299525d984adcde37039306c87"},"ddiCodebook":{"url":"https://api.ipums.org/downloads/usa/api/v1/extracts/2012980/usa_00238.xml","bytes":147100,"sha256":"2be89b906bd27e05b859685a6e16a8da423f4ee1340041927f172ddad8229c34"}},"extractDefinition":{"version":2,"dataStructure":{"hierarchical":{}},"dataFormat":"fixed_width","caseSelectWho":"individuals","description":"","samples":{"us2017a":{},"us2018a":{},"us2019a":{}},"variables":{"RECTYPE":{},"YEAR":{"preselected":true},"SAMPLE":{"preselected":true},"SERIAL":{"preselected":true},"CBSERIAL":{"preselected":true},"HHWT":{"preselected":true},"CLUSTER":{"preselected":true},"REGION":{},"STATEFIP":{},"STRATA":{"preselected":true},"GQ":{"preselected":true},"PERNUM":{"preselected":true},"PERWT":{"preselected":true},"SEX":{"dataQualityFlags":true,"attachedCharacteristics":["head"]},"AGE":{"attachedCharacteristics":["mother","father","mother2","father2"]},"MARST":{"caseSelections":{"general":["1"]}},"RACE":{"caseSelections":{"detailed":["801","802","810"]}}},"collection":"usa"}},{"number":237,"status":"completed","email":"robe2037@umn.edu","downloadLinks":{"rCommandFile":{"url":"https://api.ipums.org/downloads/usa/api/v1/extracts/2011379/usa_00237.R","bytes":406,"sha256":"35ca877f5fb359cd64f28782e530c1f6c90613be207809c5a8eb581324e9f391"},"basicCodebook":{"url":"https://api.ipums.org/downloads/usa/api/v1/extracts/2011379/usa_00237.cbk","bytes":11021,"sha256":"5f8118cec30dea3a96185d0e53303a726fbd43af85b5cfa1fa5182bd851ae160"},"data":{"url":"https://api.ipums.org/downloads/usa/api/v1/extracts/2011379/usa_00237.dat.gz","bytes":23219632,"sha256":"23306aad03e096c70c0432d9e150ac42a8372944c40d916f104e4e130996f0d2"},"stataCommandFile":{"url":"https://api.ipums.org/downloads/usa/api/v1/extracts/2011379/usa_00237.do","bytes":16346,"sha256":"cddcca9b5e33c1bc649ddb8d6bd6023c1372d8fe6e128905e26031ad9d2b57f6"},"sasCommandFile":{"url":"https://api.ipums.org/downloads/usa/api/v1/extracts/2011379/usa_00237.sas","bytes":8311,"sha256":"fd89f979068f8c532e3458fd2b866da89fad1826314e0dd27d3a4cace9a3ba15"},"spssCommandFile":{"url":"https://api.ipums.org/downloads/usa/api/v1/extracts/2011379/usa_00237.sps","bytes":8493,"sha256":"15f77159cfb1f671383483aa28a18331507de3c80da9b2ddfd4d2091ef608ae7"},"ddiCodebook":{"url":"https://api.ipums.org/downloads/usa/api/v1/extracts/2011379/usa_00237.xml","bytes":51565,"sha256":"b02083f27eb7abf6e38ed2b518cfdf321cf3e55ebb53b92a51f4c5ce4d77be5e"}},"extractDefinition":{"version":2,"dataStructure":{"rectangular":{"on":"P"}},"dataFormat":"fixed_width","caseSelectWho":"individuals","description":"Test","samples":{"us2017a":{}},"variables":{"YEAR":{"preselected":true},"SAMPLE":{"preselected":true},"SERIAL":{"preselected":true},"CBSERIAL":{"preselected":true},"HHWT":{"preselected":true},"CLUSTER":{"preselected":true},"STRATA":{"preselected":true},"GQ":{"preselected":true},"PERNUM":{"preselected":true},"PERWT":{"preselected":true},"SEX":{"caseSelections":{"general":["1"]}},"AGE":{}},"collection":"usa"}},{"number":236,"status":"completed","email":"robe2037@umn.edu","downloadLinks":{"rCommandFile":{"url":"https://api.ipums.org/downloads/usa/api/v1/extracts/2011376/usa_00236.R","bytes":406,"sha256":"124dcc5a57bf5b245b5ef6b354f538d47f33e84769a4ca0d62f864c9cfffe1be"},"basicCodebook":{"url":"https://api.ipums.org/downloads/usa/api/v1/extracts/2011376/usa_00236.cbk","bytes":11021,"sha256":"5f8118cec30dea3a96185d0e53303a726fbd43af85b5cfa1fa5182bd851ae160"},"data":{"url":"https://api.ipums.org/downloads/usa/api/v1/extracts/2011376/usa_00236.dat.gz","bytes":23219632,"sha256":"23306aad03e096c70c0432d9e150ac42a8372944c40d916f104e4e130996f0d2"},"stataCommandFile":{"url":"https://api.ipums.org/downloads/usa/api/v1/extracts/2011376/usa_00236.do","bytes":16346,"sha256":"754c19f3efc80c5d71cd05979da345f2a860f6bc0c9acd6552b61144b344d036"},"sasCommandFile":{"url":"https://api.ipums.org/downloads/usa/api/v1/extracts/2011376/usa_00236.sas","bytes":8311,"sha256":"0688dff82e9a9485b329128ac833a115f1d4ee8a75ecfb2b1c7cbbb7dc4f3253"},"spssCommandFile":{"url":"https://api.ipums.org/downloads/usa/api/v1/extracts/2011376/usa_00236.sps","bytes":8493,"sha256":"12069d8bf01144cebfe3eaa3334aebba2b2fda84ceb3e3603b44e5491009e1ed"},"ddiCodebook":{"url":"https://api.ipums.org/downloads/usa/api/v1/extracts/2011376/usa_00236.xml","bytes":51565,"sha256":"a041025bd85f9ed4d259f2aedff2f50b41e7d0ba45999f04859ecc19d22566cb"}},"extractDefinition":{"version":2,"dataStructure":{"rectangular":{"on":"P"}},"dataFormat":"fixed_width","caseSelectWho":"individuals","description":"Test","samples":{"us2017a":{}},"variables":{"YEAR":{"preselected":true},"SAMPLE":{"preselected":true},"SERIAL":{"preselected":true},"CBSERIAL":{"preselected":true},"HHWT":{"preselected":true},"CLUSTER":{"preselected":true},"STRATA":{"preselected":true},"GQ":{"preselected":true},"PERNUM":{"preselected":true},"PERWT":{"preselected":true},"SEX":{"caseSelections":{"general":["1"]}},"AGE":{}},"collection":"usa"}},{"number":235,"status":"completed","email":"robe2037@umn.edu","downloadLinks":{"rCommandFile":{"url":"https://api.ipums.org/downloads/usa/api/v1/extracts/2011373/usa_00235.R","bytes":406,"sha256":"729564651ec208d82822cd60fa9538e22f75921288bf0d1fce9d8123cd4bd7e9"},"basicCodebook":{"url":"https://api.ipums.org/downloads/usa/api/v1/extracts/2011373/usa_00235.cbk","bytes":10985,"sha256":"f77c9da14d882f0b35f1fd2cb79dde64a06754efb76e0b524ce999d231e0c692"},"data":{"url":"https://api.ipums.org/downloads/usa/api/v1/extracts/2011373/usa_00235.dat.gz","bytes":39357541,"sha256":"bb093a6d4ed2cb736738afd820cd355da95594460fd4c4e65a7c5bfe2b784cd7"},"stataCommandFile":{"url":"https://api.ipums.org/downloads/usa/api/v1/extracts/2011373/usa_00235.do","bytes":16346,"sha256":"0d5cda97cff99a5d38125cc898a54c4026a9e056ea8fc63b886e4e904fa3b310"},"sasCommandFile":{"url":"https://api.ipums.org/downloads/usa/api/v1/extracts/2011373/usa_00235.sas","bytes":8311,"sha256":"0adc02aac32b7592eddcb3d3ef0dd8745e79fabfdc91516acc2b949bb9cd4d43"},"spssCommandFile":{"url":"https://api.ipums.org/downloads/usa/api/v1/extracts/2011373/usa_00235.sps","bytes":8493,"sha256":"bf329fb4f156feceaabb913c1560858375df93a609b8877515f7e40619d1b810"},"ddiCodebook":{"url":"https://api.ipums.org/downloads/usa/api/v1/extracts/2011373/usa_00235.xml","bytes":51520,"sha256":"bcbe9191e84193da938ac598cb874c438bea0ba0b616b543cc8a9c51cc3aef3e"}},"extractDefinition":{"version":2,"dataStructure":{"rectangular":{"on":"P"}},"dataFormat":"fixed_width","caseSelectWho":"individuals","description":"Test","samples":{"us2017a":{}},"variables":{"YEAR":{"preselected":true},"SAMPLE":{"preselected":true},"SERIAL":{"preselected":true},"CBSERIAL":{"preselected":true},"HHWT":{"preselected":true},"CLUSTER":{"preselected":true},"STRATA":{"preselected":true},"GQ":{"preselected":true},"PERNUM":{"preselected":true},"PERWT":{"preselected":true},"SEX":{},"AGE":{}},"collection":"usa"}},{"number":234,"status":"completed","email":"robe2037@umn.edu","downloadLinks":{"rCommandFile":{"url":"https://api.ipums.org/downloads/usa/api/v1/extracts/2010167/usa_00234.R","bytes":406,"sha256":"45268a9049f36d3749e6d3f0b51a41158ffd5d81fb69ebc64447667ae67beb2d"},"basicCodebook":{"url":"https://api.ipums.org/downloads/usa/api/v1/extracts/2010167/usa_00234.cbk","bytes":8242,"sha256":"fa754c500eae46665668a45900e355f4068073b586b15bec4266cba43531a360"},"data":{"url":"https://api.ipums.org/downloads/usa/api/v1/extracts/2010167/usa_00234.dat.gz","bytes":22233564,"sha256":"b1da1cfd78cd206cf786dca33769057676f1400776cb6c170c04cb390e122794"},"stataCommandFile":{"url":"https://api.ipums.org/downloads/usa/api/v1/extracts/2010167/usa_00234.do","bytes":12151,"sha256":"f00d4650283eff9123295444c4c3aef454d92da3411c8e052a4ac8b93af194fc"},"sasCommandFile":{"url":"https://api.ipums.org/downloads/usa/api/v1/extracts/2010167/usa_00234.sas","bytes":7095,"sha256":"40b132f0e6193a23f13146d5881ddb8d8434a17bc7babee01e77396221937748"},"spssCommandFile":{"url":"https://api.ipums.org/downloads/usa/api/v1/extracts/2010167/usa_00234.sps","bytes":6986,"sha256":"e39ede831d14aab8f2e943bf53c3fc1f70d6d560d8fb9a5b9748802ba9026717"},"ddiCodebook":{"url":"https://api.ipums.org/downloads/usa/api/v1/extracts/2010167/usa_00234.xml","bytes":44734,"sha256":"37bb1da5b9cfd5b8fefc53aec35b44b10231f8b3f761aa397bcb1eac6bfef7d0"}},"extractDefinition":{"version":2,"dataStructure":{"rectangular":{"on":"P"}},"dataFormat":"fixed_width","caseSelectWho":"individuals","description":"Testing
        v2 features","samples":{"us2021a":{}},"variables":{"YEAR":{"preselected":true},"SAMPLE":{"preselected":true},"SERIAL":{"preselected":true},"CBSERIAL":{"preselected":true},"HHWT":{"preselected":true},"CLUSTER":{"preselected":true},"STRATA":{"preselected":true},"GQ":{"preselected":true},"PERNUM":{"preselected":true,"attachedCharacteristics":["mother","father","mother2","father2"]},"PERWT":{"preselected":true},"SEX":{"caseSelections":{"general":["1"]},"attachedCharacteristics":["head"]}},"collection":"usa"}}],"totalCount":243,"pageNumber":1,"pageSize":10,"links":{"previousPage":null,"nextPage":"https://api.ipums.org/extracts/?collection=usa\u0026pageNumber=2\u0026pageSize=10\u0026version=2"}}'
  recorded_at: 2023-04-20 19:52:06 GMT
  recorded_with: vcr/1.2.0, webmockr/0.9.0
