http_interactions:
- request:
    method: get
    uri: https://api.ipums.org/extracts?collection=usa&version=2&pageNumber=1&pageSize=10
    body:
      encoding: ''
      string: ''
    headers:
      Accept: application/json, text/xml, application/xml, */*
      Authorization: <<<IPUMS_API_KEY>>>
  response:
    status:
      status_code: 200
      category: Success
      reason: OK
      message: 'Success: (200) OK'
    headers:
      cache-control: max-age=0, private, must-revalidate
      content-type: application/json; charset=utf-8
      date: Mon, 09 Dec 2024 22:06:34 GMT
      etag: W/"2a14abd1b53d91c3457bf976a3d4dc29"
      referrer-policy: strict-origin-when-cross-origin
      server: nginx/1.22.1
      vary: Origin
      x-content-type-options: nosniff
      x-frame-options: SAMEORIGIN
      x-permitted-cross-domain-policies: none
      x-ratelimit-limit: '-1'
      x-ratelimit-remaining: '0'
      x-ratelimit-reset: '0'
      x-request-id: 29d474cf-fc8d-4d7c-b298-7b13bebb4f00
      x-runtime: '0.612639'
      x-xss-protection: '0'
      content-length: '19137'
    body:
      encoding: ''
      file: no
      string: '{"data":[{"number":469,"status":"produced","email":"robe2037@umn.edu","downloadLinks":{"rCommandFile":{"url":"https://api.ipums.org/downloads/usa/api/v1/extracts/2422503/usa_00469.R","bytes":406,"sha256":"1d1c3a9aa4116c0f137cf5bc083c5028525e459dd49b5c05310c85f33c3f30ab"},"basicCodebook":{"url":"https://api.ipums.org/downloads/usa/api/v1/extracts/2422503/usa_00469.cbk","bytes":9827,"sha256":"6a8a0c727c77682ef2edad117ee3bae384cc01ee93b082f5ab5607822a6330df"},"data":{"url":"https://api.ipums.org/downloads/usa/api/v1/extracts/2422503/usa_00469.dat.gz","bytes":105945,"sha256":"f4161d297de378d1ef35529c122eb22df599d2dde07b2ee49f5cde800661784a"},"stataCommandFile":{"url":"https://api.ipums.org/downloads/usa/api/v1/extracts/2422503/usa_00469.do","bytes":14382,"sha256":"3960d67489aee4a1e2c615dbb167cadf04017a760dfcd5d30719996992a06055"},"sasCommandFile":{"url":"https://api.ipums.org/downloads/usa/api/v1/extracts/2422503/usa_00469.sas","bytes":7616,"sha256":"4f5a9be1deb27b40bd1f86e539832cd849ed4b2a833002ec92f62130dc4ed323"},"spssCommandFile":{"url":"https://api.ipums.org/downloads/usa/api/v1/extracts/2422503/usa_00469.sps","bytes":7746,"sha256":"f9694b28f4ece0c4d6942d3b12b705b246801ecfabe447528091bc35fb33d24b"},"ddiCodebook":{"url":"https://api.ipums.org/downloads/usa/api/v1/extracts/2422503/usa_00469.xml","bytes":36225,"sha256":"e9609fc43c2bc1b0a36fb1592e9e067451662752f34d5d5fcacb0b22fdfe155c"}},"extractDefinition":{"version":2,"dataStructure":{"householdOnly":{}},"dataFormat":"fixed_width","caseSelectWho":"individuals","description":"Test
        USA household-only extract","samples":{"us2017b":{}},"variables":{"YEAR":{"preselected":true},"SAMPLE":{"preselected":true},"SERIAL":{"preselected":true},"CBSERIAL":{"preselected":true},"HHWT":{"preselected":true},"STATEFIP":{},"GQ":{"preselected":true}},"collection":"usa"}},{"number":468,"status":"completed","email":"robe2037@umn.edu","downloadLinks":{"rCommandFile":{"url":"https://api.ipums.org/downloads/usa/api/v1/extracts/2422494/usa_00468.R","bytes":406,"sha256":"c14d631be090ce7a83e4b5df07502d00f1bb09b44059178382ef57f03b5a75d2"},"basicCodebook":{"url":"https://api.ipums.org/downloads/usa/api/v1/extracts/2422494/usa_00468.cbk","bytes":20450,"sha256":"61ac1c9e578eea10356a73eb0bd64cf762442199ea3e3f244f15ec5a89ce3277"},"data":{"url":"https://api.ipums.org/downloads/usa/api/v1/extracts/2422494/usa_00468.dat.gz","bytes":8119,"sha256":"957744690806da7025bb80530b3b709ebd83de197bbb13fa3e0e654184ff9dd4"},"stataCommandFile":{"url":"https://api.ipums.org/downloads/usa/api/v1/extracts/2422494/usa_00468.do","bytes":27571,"sha256":"77242f10dbf9278da6ec7b1b4be10603c8c0672d837ea807bf9df444e1d237dc"},"sasCommandFile":{"url":"https://api.ipums.org/downloads/usa/api/v1/extracts/2422494/usa_00468.sas","bytes":15582,"sha256":"b28fe62c13f555af1d868e813f751de48f638e30e1c8d5f567b069cfa3183ed2"},"spssCommandFile":{"url":"https://api.ipums.org/downloads/usa/api/v1/extracts/2422494/usa_00468.sps","bytes":15991,"sha256":"e0573df349e118118ad07a6db988eaec99aaf66f66e1aa507b54f3e3e32344ab"},"ddiCodebook":{"url":"https://api.ipums.org/downloads/usa/api/v1/extracts/2422494/usa_00468.xml","bytes":64070,"sha256":"697fe593e7241f65014d4723f15c496832a3d01369f2631d1564cded89cae074"}},"extractDefinition":{"version":2,"dataStructure":{"rectangular":{"on":"P"}},"dataFormat":"fixed_width","caseSelectWho":"households","description":"Test
        USA extract","samples":{"us2017b":{}},"variables":{"YEAR":{"preselected":true},"SAMPLE":{"preselected":true},"SERIAL":{"preselected":true},"CBSERIAL":{"preselected":true},"HHWT":{"preselected":true},"GQ":{"preselected":true},"PERNUM":{"preselected":true},"PERWT":{"preselected":true},"RACE":{"caseSelections":{"detailed":["801","802"]}}},"collection":"usa"}},{"number":467,"status":"completed","email":"robe2037@umn.edu","downloadLinks":{"rCommandFile":{"url":"https://api.ipums.org/downloads/usa/api/v1/extracts/2422482/usa_00467.R","bytes":406,"sha256":"6ecffdc3ecd400276988fc278ce89b8b4f458e577dcc4dbb848c5f7e61ea1fb6"},"basicCodebook":{"url":"https://api.ipums.org/downloads/usa/api/v1/extracts/2422482/usa_00467.cbk","bytes":20450,"sha256":"61ac1c9e578eea10356a73eb0bd64cf762442199ea3e3f244f15ec5a89ce3277"},"data":{"url":"https://api.ipums.org/downloads/usa/api/v1/extracts/2422482/usa_00467.dat.gz","bytes":8119,"sha256":"957744690806da7025bb80530b3b709ebd83de197bbb13fa3e0e654184ff9dd4"},"stataCommandFile":{"url":"https://api.ipums.org/downloads/usa/api/v1/extracts/2422482/usa_00467.do","bytes":27571,"sha256":"189c60d52232109cdec70c2b78141a63a68bbfb9da049996651c987ce8e2d931"},"sasCommandFile":{"url":"https://api.ipums.org/downloads/usa/api/v1/extracts/2422482/usa_00467.sas","bytes":15582,"sha256":"7d23b6debb1cc09dc16335838caf96e4d16137a5cbe3584596caa07d350efbdd"},"spssCommandFile":{"url":"https://api.ipums.org/downloads/usa/api/v1/extracts/2422482/usa_00467.sps","bytes":15991,"sha256":"912a38c995634dcd2d995c828b1820c8f7823172e18db5dc14ebf10dc5c9b9ea"},"ddiCodebook":{"url":"https://api.ipums.org/downloads/usa/api/v1/extracts/2422482/usa_00467.xml","bytes":64070,"sha256":"55b71f3fbe356e24222571aade7358ce85333fbbc4c5e4db1e67c4e5147bb994"}},"extractDefinition":{"version":2,"dataStructure":{"rectangular":{"on":"P"}},"dataFormat":"fixed_width","caseSelectWho":"households","description":"Test
        USA extract","samples":{"us2017b":{}},"variables":{"YEAR":{"preselected":true},"SAMPLE":{"preselected":true},"SERIAL":{"preselected":true},"CBSERIAL":{"preselected":true},"HHWT":{"preselected":true},"GQ":{"preselected":true},"PERNUM":{"preselected":true},"PERWT":{"preselected":true},"RACE":{"caseSelections":{"detailed":["801","802"]}}},"collection":"usa"}},{"number":466,"status":"completed","email":"robe2037@umn.edu","downloadLinks":{"rCommandFile":{"url":"https://api.ipums.org/downloads/usa/api/v1/extracts/2422427/usa_00466.R","bytes":406,"sha256":"097f2adfd17062a533d8f6f7b7608d91b533a556c324fd2dfa9b9020e95336c8"},"basicCodebook":{"url":"https://api.ipums.org/downloads/usa/api/v1/extracts/2422427/usa_00466.cbk","bytes":20450,"sha256":"61ac1c9e578eea10356a73eb0bd64cf762442199ea3e3f244f15ec5a89ce3277"},"data":{"url":"https://api.ipums.org/downloads/usa/api/v1/extracts/2422427/usa_00466.dat.gz","bytes":8119,"sha256":"957744690806da7025bb80530b3b709ebd83de197bbb13fa3e0e654184ff9dd4"},"stataCommandFile":{"url":"https://api.ipums.org/downloads/usa/api/v1/extracts/2422427/usa_00466.do","bytes":27571,"sha256":"4cfab5c56916858a9e4cd785454cae68ac4a396dc3b4fa92782ba50619f0b001"},"sasCommandFile":{"url":"https://api.ipums.org/downloads/usa/api/v1/extracts/2422427/usa_00466.sas","bytes":15582,"sha256":"2bd6b3caa63907d2f760e12a9ab3a6307b23cd2ed729b17c4524ca3946391fd1"},"spssCommandFile":{"url":"https://api.ipums.org/downloads/usa/api/v1/extracts/2422427/usa_00466.sps","bytes":15991,"sha256":"8d54981312d7d0057e24f451bb3e2f539cdf7f23e6ce08e5c9427c363d5c20fb"},"ddiCodebook":{"url":"https://api.ipums.org/downloads/usa/api/v1/extracts/2422427/usa_00466.xml","bytes":64070,"sha256":"7042de97fa45ef9cf8ae8113db390a13173f11dbf74a84aea04ae9b504a27dcc"}},"extractDefinition":{"version":2,"dataStructure":{"rectangular":{"on":"P"}},"dataFormat":"fixed_width","caseSelectWho":"households","description":"Test
        USA extract","samples":{"us2017b":{}},"variables":{"YEAR":{"preselected":true},"SAMPLE":{"preselected":true},"SERIAL":{"preselected":true},"CBSERIAL":{"preselected":true},"HHWT":{"preselected":true},"GQ":{"preselected":true},"PERNUM":{"preselected":true},"PERWT":{"preselected":true},"RACE":{"caseSelections":{"detailed":["801","802"]}}},"collection":"usa"}},{"number":465,"status":"completed","email":"robe2037@umn.edu","downloadLinks":{"rCommandFile":{"url":"https://api.ipums.org/downloads/usa/api/v1/extracts/2422386/usa_00465.R","bytes":406,"sha256":"73f256ca126037d3deab2aa4930db4e38b1bb5a8cf3279fe84edab207ceb5215"},"basicCodebook":{"url":"https://api.ipums.org/downloads/usa/api/v1/extracts/2422386/usa_00465.cbk","bytes":20450,"sha256":"61ac1c9e578eea10356a73eb0bd64cf762442199ea3e3f244f15ec5a89ce3277"},"data":{"url":"https://api.ipums.org/downloads/usa/api/v1/extracts/2422386/usa_00465.dat.gz","bytes":8119,"sha256":"957744690806da7025bb80530b3b709ebd83de197bbb13fa3e0e654184ff9dd4"},"stataCommandFile":{"url":"https://api.ipums.org/downloads/usa/api/v1/extracts/2422386/usa_00465.do","bytes":27571,"sha256":"393f715caa8e6453dbb17b4c2a2895bbcdaeb46e28035469f4e8e199c2c001ff"},"sasCommandFile":{"url":"https://api.ipums.org/downloads/usa/api/v1/extracts/2422386/usa_00465.sas","bytes":15582,"sha256":"b018116ef868adbfc2cb4efaaf08b5b9347645b04642693edde76811500ed64d"},"spssCommandFile":{"url":"https://api.ipums.org/downloads/usa/api/v1/extracts/2422386/usa_00465.sps","bytes":15991,"sha256":"e44fc48ce8bf7593fac55f6bdf2fe9712b33fdf35e233392f4d83fef6cbba2f4"},"ddiCodebook":{"url":"https://api.ipums.org/downloads/usa/api/v1/extracts/2422386/usa_00465.xml","bytes":64070,"sha256":"c219d292f961b700ed07cc75bdd7d172fed60698724c750839ea8f582338eb88"}},"extractDefinition":{"version":2,"dataStructure":{"rectangular":{"on":"P"}},"dataFormat":"fixed_width","caseSelectWho":"households","description":"Test
        USA extract","samples":{"us2017b":{}},"variables":{"YEAR":{"preselected":true},"SAMPLE":{"preselected":true},"SERIAL":{"preselected":true},"CBSERIAL":{"preselected":true},"HHWT":{"preselected":true},"GQ":{"preselected":true},"PERNUM":{"preselected":true},"PERWT":{"preselected":true},"RACE":{"caseSelections":{"detailed":["801","802"]}}},"collection":"usa"}},{"number":464,"status":"completed","email":"robe2037@umn.edu","downloadLinks":{"rCommandFile":{"url":"https://api.ipums.org/downloads/usa/api/v1/extracts/2422373/usa_00464.R","bytes":406,"sha256":"fbc2a00bb7c262fea565e9a6497f6bd0b231beb1fd2fb2848ec2d45caff36113"},"basicCodebook":{"url":"https://api.ipums.org/downloads/usa/api/v1/extracts/2422373/usa_00464.cbk","bytes":20450,"sha256":"61ac1c9e578eea10356a73eb0bd64cf762442199ea3e3f244f15ec5a89ce3277"},"data":{"url":"https://api.ipums.org/downloads/usa/api/v1/extracts/2422373/usa_00464.dat.gz","bytes":8119,"sha256":"957744690806da7025bb80530b3b709ebd83de197bbb13fa3e0e654184ff9dd4"},"stataCommandFile":{"url":"https://api.ipums.org/downloads/usa/api/v1/extracts/2422373/usa_00464.do","bytes":27571,"sha256":"84d6f1e61e42cd3e81b1f95c6b43767b9b674be1c23013a44fda8c48f0739a2f"},"sasCommandFile":{"url":"https://api.ipums.org/downloads/usa/api/v1/extracts/2422373/usa_00464.sas","bytes":15582,"sha256":"814ffbb72d2484c299eb75f1e2f465b363960cd82fbdbd4df6ef512c04b10f62"},"spssCommandFile":{"url":"https://api.ipums.org/downloads/usa/api/v1/extracts/2422373/usa_00464.sps","bytes":15991,"sha256":"37ea535839fdcc7dd0c78d9edb62c066f8176d8be195beb87608919db0addf91"},"ddiCodebook":{"url":"https://api.ipums.org/downloads/usa/api/v1/extracts/2422373/usa_00464.xml","bytes":64070,"sha256":"6968abd5d843ec7690be4dc4afb95982b74fd0266073bf40751965322cfbd0af"}},"extractDefinition":{"version":2,"dataStructure":{"rectangular":{"on":"P"}},"dataFormat":"fixed_width","caseSelectWho":"households","description":"Test
        USA extract","samples":{"us2017b":{}},"variables":{"YEAR":{"preselected":true},"SAMPLE":{"preselected":true},"SERIAL":{"preselected":true},"CBSERIAL":{"preselected":true},"HHWT":{"preselected":true},"GQ":{"preselected":true},"PERNUM":{"preselected":true},"PERWT":{"preselected":true},"RACE":{"caseSelections":{"detailed":["801","802"]}}},"collection":"usa"}},{"number":463,"status":"completed","email":"robe2037@umn.edu","downloadLinks":{"rCommandFile":{"url":"https://api.ipums.org/downloads/usa/api/v1/extracts/2422357/usa_00463.R","bytes":406,"sha256":"f96f8193641753cce1bebf8e68d53797fa4c8a57c37b8be21cea37d31321fa4b"},"basicCodebook":{"url":"https://api.ipums.org/downloads/usa/api/v1/extracts/2422357/usa_00463.cbk","bytes":20450,"sha256":"61ac1c9e578eea10356a73eb0bd64cf762442199ea3e3f244f15ec5a89ce3277"},"data":{"url":"https://api.ipums.org/downloads/usa/api/v1/extracts/2422357/usa_00463.dat.gz","bytes":8119,"sha256":"957744690806da7025bb80530b3b709ebd83de197bbb13fa3e0e654184ff9dd4"},"stataCommandFile":{"url":"https://api.ipums.org/downloads/usa/api/v1/extracts/2422357/usa_00463.do","bytes":27571,"sha256":"a1dde4a1473ffa3d5c2f19b898f0f5d9cea7843ec8d7b66b779a082e7a800955"},"sasCommandFile":{"url":"https://api.ipums.org/downloads/usa/api/v1/extracts/2422357/usa_00463.sas","bytes":15582,"sha256":"b008a043ce3decc2fc4adbe9d7038a3021d141d5395058e1c4885fda9023293f"},"spssCommandFile":{"url":"https://api.ipums.org/downloads/usa/api/v1/extracts/2422357/usa_00463.sps","bytes":15991,"sha256":"11d3518b2f20501771c74323c3eebf1e214da7e184da71fab01517fa86f01b89"},"ddiCodebook":{"url":"https://api.ipums.org/downloads/usa/api/v1/extracts/2422357/usa_00463.xml","bytes":64070,"sha256":"98d6c7a265b3333ea437b4d1c2d5d4b1c40ae0f09bf32b9865c5c2989a16f37c"}},"extractDefinition":{"version":2,"dataStructure":{"rectangular":{"on":"P"}},"dataFormat":"fixed_width","caseSelectWho":"households","description":"Test
        USA extract","samples":{"us2017b":{}},"variables":{"YEAR":{"preselected":true},"SAMPLE":{"preselected":true},"SERIAL":{"preselected":true},"CBSERIAL":{"preselected":true},"HHWT":{"preselected":true},"GQ":{"preselected":true},"PERNUM":{"preselected":true},"PERWT":{"preselected":true},"RACE":{"caseSelections":{"detailed":["801","802"]}}},"collection":"usa"}},{"number":462,"status":"completed","email":"robe2037@umn.edu","downloadLinks":{"rCommandFile":{"url":"https://api.ipums.org/downloads/usa/api/v1/extracts/2422354/usa_00462.R","bytes":406,"sha256":"4a38627956d743da6d1d2ac162a8d7698eec2adb8e3379ea09a36b2258ececc6"},"basicCodebook":{"url":"https://api.ipums.org/downloads/usa/api/v1/extracts/2422354/usa_00462.cbk","bytes":9827,"sha256":"6a8a0c727c77682ef2edad117ee3bae384cc01ee93b082f5ab5607822a6330df"},"data":{"url":"https://api.ipums.org/downloads/usa/api/v1/extracts/2422354/usa_00462.dat.gz","bytes":105945,"sha256":"f4161d297de378d1ef35529c122eb22df599d2dde07b2ee49f5cde800661784a"},"stataCommandFile":{"url":"https://api.ipums.org/downloads/usa/api/v1/extracts/2422354/usa_00462.do","bytes":14382,"sha256":"0b9ae17e65e4ef517fef3cd63c7812ce9b4fc95ca4ca17d5a1b99310d9c8226e"},"sasCommandFile":{"url":"https://api.ipums.org/downloads/usa/api/v1/extracts/2422354/usa_00462.sas","bytes":7616,"sha256":"1957b9efc93769cf9d5425ea16ea235cfd2c128120c27f7566dd21ad53eab6b8"},"spssCommandFile":{"url":"https://api.ipums.org/downloads/usa/api/v1/extracts/2422354/usa_00462.sps","bytes":7746,"sha256":"df783dc473badf259025b347b6d4348254419887a688c5c33f89d0b7023c9c43"},"ddiCodebook":{"url":"https://api.ipums.org/downloads/usa/api/v1/extracts/2422354/usa_00462.xml","bytes":36225,"sha256":"8d9b6474e4639e8944c1461b41dbce727d23d08c66c87bfcfd519c24216eca65"}},"extractDefinition":{"version":2,"dataStructure":{"householdOnly":{}},"dataFormat":"fixed_width","caseSelectWho":"individuals","description":"Test
        USA household-only extract","samples":{"us2017b":{}},"variables":{"YEAR":{"preselected":true},"SAMPLE":{"preselected":true},"SERIAL":{"preselected":true},"CBSERIAL":{"preselected":true},"HHWT":{"preselected":true},"STATEFIP":{},"GQ":{"preselected":true}},"collection":"usa"}},{"number":461,"status":"completed","email":"robe2037@umn.edu","downloadLinks":{"rCommandFile":{"url":"https://api.ipums.org/downloads/usa/api/v1/extracts/2422348/usa_00461.R","bytes":406,"sha256":"b4c461bcc5e616d6cb15fab5f84a22a60317b6f1f84e708a3913348045e171aa"},"basicCodebook":{"url":"https://api.ipums.org/downloads/usa/api/v1/extracts/2422348/usa_00461.cbk","bytes":20450,"sha256":"61ac1c9e578eea10356a73eb0bd64cf762442199ea3e3f244f15ec5a89ce3277"},"data":{"url":"https://api.ipums.org/downloads/usa/api/v1/extracts/2422348/usa_00461.dat.gz","bytes":8119,"sha256":"957744690806da7025bb80530b3b709ebd83de197bbb13fa3e0e654184ff9dd4"},"stataCommandFile":{"url":"https://api.ipums.org/downloads/usa/api/v1/extracts/2422348/usa_00461.do","bytes":27571,"sha256":"cebdd0b4e5acb075d120e3c0fcbd9e7a762e9b641a822e4bed99f2f3c0871e17"},"sasCommandFile":{"url":"https://api.ipums.org/downloads/usa/api/v1/extracts/2422348/usa_00461.sas","bytes":15582,"sha256":"240b0c5683d5d21f5196afcac06970088015b32d20ef91d742a33393201a065a"},"spssCommandFile":{"url":"https://api.ipums.org/downloads/usa/api/v1/extracts/2422348/usa_00461.sps","bytes":15991,"sha256":"6ee7ccee9706ade1a680d4a4663c0523ede5e1c85ecd2e39414c383b29876b1a"},"ddiCodebook":{"url":"https://api.ipums.org/downloads/usa/api/v1/extracts/2422348/usa_00461.xml","bytes":64070,"sha256":"007e405d15cb8c755fd1b5609b64401f828c59a85b3b9cdad0b73be5755dd4f8"}},"extractDefinition":{"version":2,"dataStructure":{"rectangular":{"on":"P"}},"dataFormat":"fixed_width","caseSelectWho":"households","description":"Test
        USA extract","samples":{"us2017b":{}},"variables":{"YEAR":{"preselected":true},"SAMPLE":{"preselected":true},"SERIAL":{"preselected":true},"CBSERIAL":{"preselected":true},"HHWT":{"preselected":true},"GQ":{"preselected":true},"PERNUM":{"preselected":true},"PERWT":{"preselected":true},"RACE":{"caseSelections":{"detailed":["801","802"]}}},"collection":"usa"}},{"number":460,"status":"completed","email":"robe2037@umn.edu","downloadLinks":{"rCommandFile":{"url":"https://api.ipums.org/downloads/usa/api/v1/extracts/2421984/usa_00460.R","bytes":406,"sha256":"3e096892c0cfdbdfd7acca6bed7157d3cd89c85662a8b16e4797c7e9661f5c87"},"basicCodebook":{"url":"https://api.ipums.org/downloads/usa/api/v1/extracts/2421984/usa_00460.cbk","bytes":20450,"sha256":"61ac1c9e578eea10356a73eb0bd64cf762442199ea3e3f244f15ec5a89ce3277"},"data":{"url":"https://api.ipums.org/downloads/usa/api/v1/extracts/2421984/usa_00460.dat.gz","bytes":8119,"sha256":"957744690806da7025bb80530b3b709ebd83de197bbb13fa3e0e654184ff9dd4"},"stataCommandFile":{"url":"https://api.ipums.org/downloads/usa/api/v1/extracts/2421984/usa_00460.do","bytes":27571,"sha256":"dd1fa677465e4b7a8062f0d5f5eb92822905e3f251036139e3efb28730fb1165"},"sasCommandFile":{"url":"https://api.ipums.org/downloads/usa/api/v1/extracts/2421984/usa_00460.sas","bytes":15582,"sha256":"0ff190a6a9d7609d9400f7d3ea0a2f630c51b692a575e5498e74a92b6f49b04b"},"spssCommandFile":{"url":"https://api.ipums.org/downloads/usa/api/v1/extracts/2421984/usa_00460.sps","bytes":15991,"sha256":"bdbf6cab7389058f10cb3bf088c9d97ce3fd4d6438bd4b4ec8d054349363ad88"},"ddiCodebook":{"url":"https://api.ipums.org/downloads/usa/api/v1/extracts/2421984/usa_00460.xml","bytes":64070,"sha256":"2ca183f4785f4b6a936c33f4422104371d9bab598ac74a3c6823d778329c83b8"}},"extractDefinition":{"version":2,"dataStructure":{"rectangular":{"on":"P"}},"dataFormat":"fixed_width","caseSelectWho":"households","description":"Test
        USA extract","samples":{"us2017b":{}},"variables":{"YEAR":{"preselected":true},"SAMPLE":{"preselected":true},"SERIAL":{"preselected":true},"CBSERIAL":{"preselected":true},"HHWT":{"preselected":true},"GQ":{"preselected":true},"PERNUM":{"preselected":true},"PERWT":{"preselected":true},"RACE":{"caseSelections":{"detailed":["801","802"]}}},"collection":"usa"}}],"totalCount":469,"pageNumber":1,"pageSize":10,"links":{"previousPage":null,"nextPage":"https://api.ipums.org/extracts/?collection=usa\u0026pageNumber=2\u0026pageSize=10\u0026version=2"}}'
  recorded_at: 2024-12-09 22:06:35 GMT
  recorded_with: vcr/1.2.2, webmockr/0.9.0
