Read data from an IPUMS microdata extract by chunk — read_ipums_micro_chunked • ipumsr
…
# Initialize callback
filter_mn_callback <- IpumsDataFrameCallback$new(filter_mn)

# Process data in chunks, filtering to MN cases in each chunk
read_ipums_micro_chunked(
  cps_rect_ddi_file,
  callback = filter_mn_callback,
  chunk_size = 1000,
  verbose = FALSE
)
#> # A tibble: 2,362 × 8
#>     YEAR SERIAL MONTH     ASECWTH STATEFIP       PERNUM ASECWT INCTOT   
#>    <dbl>  <dbl> <int+lbl>   <dbl> <int+lbl>       <dbl>  <dbl> <dbl+lbl>
#>  1  1962     82 3 [March]   1598. 27 [Minnesota]      1  1598. 14015    
#>  2  1962     83 3 [March]   1707. 27 [Minnesota]      1  1707. 16552    
#>  3  1962     84 3 [March]   1790. 27 [Minnesota]      1  1790.  6375    
#>  4  1962    122 3 [March]   3603. 27 [Minnesota]      1  3603. 15550    
#>  5  1962    122 3 [March]   3603. 27 [Minnesota]      2  3603.     0    
#>  6  1962    122 3 [March]   3603. 27 [Minnesota]      3  4243.  3443    
#>  7  1962    122 3 [March]   3603. 27 [Minnesota]      4  3920.   255    
#>  8  1962    122 3 [March]   3603. 27 [Minnesota]      5  3689.   135    
#>  9  1962    857 3 [March]   1832. 27 [Minnesota]      1  1832.   624    
#> 10  1962    857 3 [March]   1832. 27 [Minnesota]      2  1832.  3600    
#> # ℹ 2,352 more rows
…
