…
# Can also load data from a pre-existing `ipums_ddi` object
# (This may be useful to retain codebook metadata even if lost from data
# during processing)
ddi <- read_ipums_ddi(cps_rect_ddi_file)
cps <- read_ipums_micro(ddi, verbose = FALSE)

# Codebook for hierarchical example file
cps_hier_ddi_file <- ipums_example("cps_00159.xml")

# Read in "long" format to get a single data frame
read_ipums_micro(cps_hier_ddi_file, verbose = FALSE)
#> # A tibble: 11,053 × 9
#>    RECTYPE    YEAR SERIAL MONTH    ASECWTH STATEFIP PERNUM ASECWT INCTOT        
#>    <chr+lbl> <dbl>  <dbl> <int+lb>   <dbl> <int+lb>  <dbl>  <dbl> <dbl+lbl>     
#>  1 H [House…  1962     80  3 [Mar…   1476. 55 [Wis…     NA    NA  NA            
#>  2 P [Perso…  1962     80 NA           NA  NA            1  1476.  4.88 e3      
#>  3 P [Perso…  1962     80 NA           NA  NA            2  1471.  5.8  e3      
#>  4 P [Perso…  1962     80 NA           NA  NA            3  1579.  1.000e9 [Mis…
#>  5 H [House…  1962     82  3 [Mar…   1598. 27 [Min…     NA    NA  NA            
#>  6 P [Perso…  1962     82 NA           NA  NA            1  1598.  1.40 e4      
#>  7 H [House…  1962     83  3 [Mar…   1707. 27 [Min…     NA    NA  NA            
#>  8 P [Perso…  1962     83 NA           NA  NA            1  1707.  1.66 e4      
#>  9 H [House…  1962     84  3 [Mar…   1790. 27 [Min…     NA    NA  NA            
#> 10 P [Perso…  1962     84 NA           NA  NA            1  1790.  6.38 e3      
#> # ℹ 11,043 more rows
…
