Introduction to `ipumsr` - IPUMS Data in R • ipumsr
…
library(ipumsr)
library(dplyr, warn.conflicts = FALSE)

# Note that you can pass in the loaded DDI into the `read_ipums_micro()`
cps_ddi <- read_ipums_ddi(ipums_example("cps_00006.xml"))
cps_data <- read_ipums_micro(cps_ddi, verbose = FALSE)

# Show which variables have labels
cps_data %>%
  select_if(is.labelled)
#> # A tibble: 7,668 × 3
#>          STATEFIP     MONTH                               INCTOT
#>         <int+lbl> <int+lbl>                            <dbl+lbl>
#>  1 55 [Wisconsin] 3 [March]     4883                            
#>  2 55 [Wisconsin] 3 [March]     5800                            
#>  3 55 [Wisconsin] 3 [March] 99999998 [Missing.]                 
#>  4 27 [Minnesota] 3 [March]    14015                            
#>  5 27 [Minnesota] 3 [March]    16552                            
#>  6 27 [Minnesota] 3 [March]     6375                            
#>  7 19 [Iowa]      3 [March] 99999999 [N.I.U. (Not in Universe).]
#>  8 19 [Iowa]      3 [March]        0                            
#>  9 19 [Iowa]      3 [March]      600                            
#> 10 19 [Iowa]      3 [March] 99999999 [N.I.U. (Not in Universe).]
#> # … with 7,658 more rows

# Notice how the tibble print function shows the dbl+lbl class on top

# Investigate labels
ipums_val_labels(cps_data$STATEFIP)
#> # A tibble: 75 × 2
#>      val lbl                 
#>    <int> <chr>               
#>  1     1 Alabama             
#>  2     2 Alaska              
#>  3     4 Arizona             
#>  4     5 Arkansas            
#>  5     6 California          
#>  6     8 Colorado            
#>  7     9 Connecticut         
#>  8    10 Delaware            
#>  9    11 District of Columbia
#> 10    12 Florida             
#> # … with 65 more rows
…
library(ipumsr)
library(dplyr, warn.conflicts = FALSE)

# List data
cps <- read_ipums_micro_list(
  ipums_example("cps_00010.xml"),
  verbose = FALSE
)

cps$PERSON
#> # A tibble: 7,668 × 6
#>    RECTYPE            YEAR SERIAL PERNUM WTSUPP                           INCTOT
#>    <chr+lbl>         <dbl>  <dbl>  <dbl>  <dbl>                        <dbl+lbl>
#>  1 P [Person Record]  1962     80      1  1476.     4883                        
#>  2 P [Person Record]  1962     80      2  1471.     5800                        
#>  3 P [Person Record]  1962     80      3  1579. 99999998 [Missing.]             
#>  4 P [Person Record]  1962     82      1  1598.    14015                        
#>  5 P [Person Record]  1962     83      1  1707.    16552                        
#>  6 P [Person Record]  1962     84      1  1790.     6375                        
#>  7 P [Person Record]  1962    107      1  4355. 99999999 [N.I.U. (Not in Univer…
#>  8 P [Person Record]  1962    107      2  1386.        0                        
#>  9 P [Person Record]  1962    107      3  1629.      600                        
#> 10 P [Person Record]  1962    107      4  1432. 99999999 [N.I.U. (Not in Univer…
#> # … with 7,658 more rows

cps$HOUSEHOLD
#> # A tibble: 3,385 × 6
#>    RECTYPE               YEAR SERIAL HWTSUPP       STATEFIP     MONTH
#>    <chr+lbl>            <dbl>  <dbl>   <dbl>      <int+lbl> <int+lbl>
#>  1 H [Household Record]  1962     80   1476. 55 [Wisconsin] 3 [March]
#>  2 H [Household Record]  1962     82   1598. 27 [Minnesota] 3 [March]
#>  3 H [Household Record]  1962     83   1707. 27 [Minnesota] 3 [March]
#>  4 H [Household Record]  1962     84   1790. 27 [Minnesota] 3 [March]
#>  5 H [Household Record]  1962    107   4355. 19 [Iowa]      3 [March]
#>  6 H [Household Record]  1962    108   1479. 19 [Iowa]      3 [March]
#>  7 H [Household Record]  1962    122   3603. 27 [Minnesota] 3 [March]
#>  8 H [Household Record]  1962    124   4104. 55 [Wisconsin] 3 [March]
#>  9 H [Household Record]  1962    125   2182. 55 [Wisconsin] 3 [March]
#> 10 H [Household Record]  1962    126   1826. 55 [Wisconsin] 3 [March]
#> # … with 3,375 more rows

# Long data
cps <- read_ipums_micro(
  ipums_example("cps_00010.xml"),
  verbose = FALSE
)

cps
#> # A tibble: 11,053 × 9
#>    RECTYPE     YEAR SERIAL HWTSUPP STATEFIP    MONTH PERNUM WTSUPP        INCTOT
#>    <chr+lbl>  <dbl>  <dbl>   <dbl> <int+lb> <int+lb>  <dbl>  <dbl>     <dbl+lbl>
#>  1 H [Househ…  1962     80   1476. 55 [Wis…  3 [Mar…     NA    NA  NA           
#>  2 P [Person…  1962     80     NA  NA       NA            1  1476.  4.88e3      
#>  3 P [Person…  1962     80     NA  NA       NA            2  1471.  5.8 e3      
#>  4 P [Person…  1962     80     NA  NA       NA            3  1579.  1.00e8 [Mis…
#>  5 H [Househ…  1962     82   1598. 27 [Min…  3 [Mar…     NA    NA  NA           
#>  6 P [Person…  1962     82     NA  NA       NA            1  1598.  1.40e4      
#>  7 H [Househ…  1962     83   1707. 27 [Min…  3 [Mar…     NA    NA  NA           
#>  8 P [Person…  1962     83     NA  NA       NA            1  1707.  1.66e4      
#>  9 H [Househ…  1962     84   1790. 27 [Min…  3 [Mar…     NA    NA  NA           
#> 10 P [Person…  1962     84     NA  NA       NA            1  1790.  6.38e3      
#> # … with 11,043 more rows
…
