…
At this point, we’re ready to load the data in chunks. We use
[`read_ipums_micro_chunked()`](https://tech.popdata.org/ipumsr/reference/read_ipums_micro_chunked.md)
to specify the callback and chunk size:

``` r
chunked_tabulations <- read_ipums_micro_chunked(
  cps_ddi_file,
  callback = cb,
  chunk_size = 1000,
  verbose = FALSE
)

chunked_tabulations
#> # A tibble: 209 × 3
#>    HEALTH    AT_WORK     n
#>    <fct>     <fct>   <int>
#>  1 Excellent No        183
#>  2 Excellent Yes       147
#>  3 Very good No        134
#>  4 Very good Yes       217
#>  5 Good      No        111
#>  6 Good      Yes       105
#>  7 Fair      No         53
#>  8 Fair      Yes        22
#>  9 Poor      No         27
#> 10 Poor      Yes         1
#> # ℹ 199 more rows
```
…
