Read tabular data from an NHGIS extract — read_nhgis • ipumsr
…
# Provide the .zip archive directly to load the data inside:
read_nhgis(csv_file)
#> Use of data from NHGIS is subject to conditions including that users should cite the data appropriately. Use command `ipums_conditions()` for more details.
#> Rows: 71 Columns: 25
#> ── Column specification ────────────────────────────────────────────────────────
#> Delimiter: ","
#> chr  (9): GISJOIN, STUSAB, CMSA, PMSA, PMSAA, AREALAND, AREAWAT, ANPSADPI, F...
#> dbl (13): YEAR, MSA_CMSAA, INTPTLAT, INTPTLNG, PSADC, D6Z001, D6Z002, D6Z003...
#> lgl  (3): DIVISIONA, REGIONA, STATEA
#> 
#> ℹ Use `spec()` to retrieve the full column specification for this data.
#> ℹ Specify the column types or set `show_col_types = FALSE` to quiet this message.
#> # A tibble: 71 × 25
#>    GISJOIN  YEAR STUSAB CMSA  DIVIS…¹ MSA_C…² PMSA  PMSAA REGIONA STATEA AREAL…³
#>    <chr>   <dbl> <chr>  <chr> <lgl>     <dbl> <chr> <chr> <lgl>   <lgl>  <chr>  
#>  1 G0080    1990 OH     28    NA         1692 Akro… 0080  NA      NA     000234…
#>  2 G0360    1990 CA     49    NA         4472 Anah… 0360  NA      NA     000204…
#>  3 G0440    1990 MI     35    NA         2162 Ann … 0440  NA      NA     000183…
#>  4 G0620    1990 IL     14    NA         1602 Auro… 0620  NA      NA     000217…
#>  5 G0845    1990 PA     78    NA         6282 Beav… 0845  NA      NA     000112…
#>  6 G0875    1990 NJ     70    NA         5602 Berg… 0875  NA      NA     000108…
#>  7 G1120    1990 MA     07    NA         1122 Bost… 1120  NA      NA     000455…
#>  8 G1125    1990 CO     34    NA         2082 Boul… 1125  NA      NA     000192…
#>  9 G1145    1990 TX     42    NA         3362 Braz… 1145  NA      NA     000359…
#> 10 G1160    1990 CT     70    NA         5602 Brid… 1160  NA      NA     000067…
#> # … with 61 more rows, 14 more variables: AREAWAT <chr>, ANPSADPI <chr>,
#> #   FUNCSTAT <chr>, INTPTLAT <dbl>, INTPTLNG <dbl>, PSADC <dbl>, D6Z001 <dbl>,
#> #   D6Z002 <dbl>, D6Z003 <dbl>, D6Z004 <dbl>, D6Z005 <dbl>, D6Z006 <dbl>,
#> #   D6Z007 <dbl>, D6Z008 <dbl>, and abbreviated variable names ¹​DIVISIONA,
#> #   ²​MSA_CMSAA, ³​AREALAND
…
# Or an index position
read_nhgis(fw_file, file_select = 2, verbose = FALSE)
#> # A tibble: 84 × 28
#>    GISJOIN STATE STATEFP STATENH A00AA…¹ A00AA…² A00AA…³ A00AA…⁴ A00AA…⁵ A00AA…⁶
#>    <chr>   <chr> <chr>   <chr>     <dbl>   <dbl>   <dbl>   <dbl>   <dbl>   <dbl>
#>  1 G010    Alab… 01      010          NA      NA      NA  127901  309527  590756
#>  2 G020    Alas… 02      020          NA      NA      NA      NA      NA      NA
#>  3 G025    Alas… NA      025          NA      NA      NA      NA      NA      NA
#>  4 G040    Ariz… 04      040          NA      NA      NA      NA      NA      NA
#>  5 G045    Ariz… NA      045          NA      NA      NA      NA      NA      NA
#>  6 G050    Arka… 05      050          NA      NA      NA      NA      NA   97574
#>  7 G055    Arka… NA      055          NA      NA      NA   14273   30388      NA
#>  8 G060    Cali… 06      060          NA      NA      NA      NA      NA      NA
#>  9 G080    Colo… 08      080          NA      NA      NA      NA      NA      NA
#> 10 G085    Colo… NA      085          NA      NA      NA      NA      NA      NA
#> # … with 74 more rows, 18 more variables: A00AA1850 <dbl>, A00AA1860 <dbl>,
#> #   A00AA1870 <dbl>, A00AA1880 <dbl>, A00AA1890 <dbl>, A00AA1900 <dbl>,
#> #   A00AA1910 <dbl>, A00AA1920 <dbl>, A00AA1930 <dbl>, A00AA1940 <dbl>,
#> #   A00AA1950 <dbl>, A00AA1960 <dbl>, A00AA1970 <dbl>, A00AA1980 <dbl>,
#> #   A00AA1990 <dbl>, A00AA2000 <dbl>, A00AA2010 <dbl>, A00AA2020 <dbl>, and
#> #   abbreviated variable names ¹​A00AA1790, ²​A00AA1800, ³​A00AA1810, ⁴​A00AA1820,
#> #   ⁵​A00AA1830, ⁶​A00AA1840
…
# `readr::read_csv()` arguments are accepted, though most defaults should
# be appropriate.
read_nhgis(csv_file, col_types = readr::cols(.default = "c"))
#> Use of data from NHGIS is subject to conditions including that users should cite the data appropriately. Use command `ipums_conditions()` for more details.
#> Rows: 71 Columns: 25
#> ── Column specification ────────────────────────────────────────────────────────
#> Delimiter: ","
#> chr (25): GISJOIN, YEAR, STUSAB, CMSA, DIVISIONA, MSA_CMSAA, PMSA, PMSAA, RE...
#> 
#> ℹ Use `spec()` to retrieve the full column specification for this data.
#> ℹ Specify the column types or set `show_col_types = FALSE` to quiet this message.
#> # A tibble: 71 × 25
#>    GISJOIN YEAR  STUSAB CMSA  DIVIS…¹ MSA_C…² PMSA  PMSAA REGIONA STATEA AREAL…³
#>    <chr>   <chr> <chr>  <chr> <chr>   <chr>   <chr> <chr> <chr>   <chr>  <chr>  
#>  1 G0080   1990  OH     28    NA      1692    Akro… 0080  NA      NA     000234…
#>  2 G0360   1990  CA     49    NA      4472    Anah… 0360  NA      NA     000204…
#>  3 G0440   1990  MI     35    NA      2162    Ann … 0440  NA      NA     000183…
#>  4 G0620   1990  IL     14    NA      1602    Auro… 0620  NA      NA     000217…
#>  5 G0845   1990  PA     78    NA      6282    Beav… 0845  NA      NA     000112…
#>  6 G0875   1990  NJ     70    NA      5602    Berg… 0875  NA      NA     000108…
#>  7 G1120   1990  MA     07    NA      1122    Bost… 1120  NA      NA     000455…
#>  8 G1125   1990  CO     34    NA      2082    Boul… 1125  NA      NA     000192…
#>  9 G1145   1990  TX     42    NA      3362    Braz… 1145  NA      NA     000359…
#> 10 G1160   1990  CT     70    NA      5602    Brid… 1160  NA      NA     000067…
#> # … with 61 more rows, 14 more variables: AREAWAT <chr>, ANPSADPI <chr>,
#> #   FUNCSTAT <chr>, INTPTLAT <chr>, INTPTLNG <chr>, PSADC <chr>, D6Z001 <chr>,
#> #   D6Z002 <chr>, D6Z003 <chr>, D6Z004 <chr>, D6Z005 <chr>, D6Z006 <chr>,
#> #   D6Z007 <chr>, D6Z008 <chr>, and abbreviated variable names ¹​DIVISIONA,
#> #   ²​MSA_CMSAA, ³​AREALAND
…
